﻿VOLTS,CURRNT_NAMP,TEMP_DEGC,AIR_TEMP_DEGC,RH_PRCNT
-5.00E+00,3.65E-01,2.00E+01,2.45E+01,0.00E+00
-4.90E+00,4.97E-01,2.00E+01,2.45E+01,0.00E+00
-4.80E+00,5.56E-01,2.00E+01,2.45E+01,0.00E+00
-4.70E+00,5.82E-01,2.00E+01,2.45E+01,0.00E+00
-4.60E+00,5.96E-01,2.00E+01,2.45E+01,0.00E+00
-4.50E+00,6.05E-01,2.00E+01,2.45E+01,0.00E+00
-4.40E+00,6.11E-01,2.00E+01,2.45E+01,0.00E+00
-4.30E+00,6.16E-01,2.00E+01,2.45E+01,0.00E+00
-4.20E+00,6.20E-01,2.00E+01,2.45E+01,0.00E+00
-4.10E+00,6.24E-01,2.00E+01,2.45E+01,0.00E+00
-4.00E+00,6.27E-01,2.00E+01,2.45E+01,0.00E+00
-3.90E+00,6.30E-01,2.00E+01,2.45E+01,0.00E+00
-3.80E+00,6.32E-01,2.00E+01,2.45E+01,0.00E+00
-3.70E+00,6.33E-01,2.00E+01,2.45E+01,0.00E+00
-3.60E+00,6.34E-01,2.00E+01,2.45E+01,0.00E+00
-3.50E+00,6.35E-01,2.00E+01,2.45E+01,0.00E+00
-3.40E+00,6.36E-01,2.00E+01,2.45E+01,0.00E+00
-3.30E+00,6.36E-01,2.00E+01,2.45E+01,0.00E+00
-3.20E+00,6.35E-01,2.00E+01,2.45E+01,0.00E+00
-3.10E+00,6.35E-01,2.00E+01,2.45E+01,0.00E+00
-3.00E+00,6.35E-01,2.00E+01,2.45E+01,0.00E+00
-2.90E+00,6.35E-01,2.00E+01,2.45E+01,0.00E+00
-2.80E+00,6.35E-01,2.00E+01,2.45E+01,0.00E+00
-2.70E+00,6.34E-01,2.00E+01,2.45E+01,0.00E+00
-2.60E+00,6.34E-01,2.00E+01,2.44E+01,0.00E+00
-2.50E+00,6.34E-01,2.00E+01,2.44E+01,0.00E+00
-2.40E+00,6.34E-01,2.00E+01,2.44E+01,0.00E+00
-2.30E+00,6.34E-01,2.00E+01,2.44E+01,0.00E+00
-2.20E+00,6.34E-01,2.00E+01,2.45E+01,0.00E+00
-2.10E+00,6.34E-01,2.00E+01,2.45E+01,0.00E+00
-2.00E+00,6.33E-01,2.00E+01,2.45E+01,0.00E+00
-1.90E+00,6.33E-01,2.00E+01,2.45E+01,0.00E+00
-1.80E+00,6.32E-01,2.00E+01,2.45E+01,0.00E+00
-1.70E+00,6.32E-01,2.00E+01,2.45E+01,0.00E+00
-1.60E+00,6.31E-01,2.00E+01,2.45E+01,0.00E+00
-1.50E+00,6.36E-01,2.00E+01,2.45E+01,0.00E+00
-1.40E+00,6.40E-01,2.00E+01,2.45E+01,0.00E+00
-1.30E+00,6.45E-01,2.00E+01,2.45E+01,0.00E+00
-1.20E+00,6.53E-01,2.00E+01,2.45E+01,0.00E+00
-1.10E+00,5.91E-01,2.00E+01,2.45E+01,0.00E+00
-1.00E+00,6.61E-01,2.00E+01,2.45E+01,0.00E+00
-9.00E-01,6.87E-01,2.00E+01,2.45E+01,0.00E+00
-8.00E-01,6.99E-01,2.00E+01,2.45E+01,0.00E+00
-7.00E-01,7.05E-01,2.00E+01,2.45E+01,0.00E+00
-6.00E-01,6.99E-01,2.00E+01,2.45E+01,0.00E+00
-5.00E-01,6.66E-01,2.00E+01,2.45E+01,0.00E+00
-4.00E-01,6.35E-01,2.00E+01,2.45E+01,0.00E+00
-3.00E-01,6.21E-01,2.00E+01,2.45E+01,0.00E+00
-2.00E-01,6.21E-01,2.00E+01,2.45E+01,0.00E+00
-1.00E-01,6.21E-01,2.00E+01,2.45E+01,0.00E+00
0.00E+00,6.22E-01,2.00E+01,2.45E+01,0.00E+00
1.00E-01,6.24E-01,2.00E+01,2.45E+01,0.00E+00
2.00E-01,6.84E-01,2.00E+01,2.45E+01,0.00E+00
3.00E-01,6.94E-01,2.00E+01,2.45E+01,0.00E+00
4.00E-01,7.06E-01,2.00E+01,2.45E+01,0.00E+00
5.00E-01,7.19E-01,2.00E+01,2.45E+01,0.00E+00
6.00E-01,7.35E-01,2.00E+01,2.45E+01,0.00E+00
7.00E-01,7.52E-01,2.00E+01,2.45E+01,0.00E+00
8.00E-01,7.69E-01,2.00E+01,2.45E+01,0.00E+00
9.00E-01,7.87E-01,2.00E+01,2.45E+01,0.00E+00
1.00E+00,8.01E-01,2.00E+01,2.45E+01,0.00E+00
1.10E+00,8.11E-01,2.00E+01,2.45E+01,0.00E+00
1.20E+00,7.99E-01,2.00E+01,2.45E+01,0.00E+00
1.30E+00,6.33E-01,2.00E+01,2.45E+01,0.00E+00
1.40E+00,6.35E-01,2.00E+01,2.45E+01,0.00E+00
1.50E+00,6.36E-01,2.00E+01,2.45E+01,0.00E+00
1.60E+00,6.38E-01,2.00E+01,2.45E+01,0.00E+00
1.70E+00,6.39E-01,2.00E+01,2.45E+01,0.00E+00
1.80E+00,6.41E-01,2.00E+01,2.45E+01,0.00E+00
1.90E+00,7.23E-01,2.00E+01,2.45E+01,0.00E+00
2.00E+00,7.37E-01,2.00E+01,2.45E+01,0.00E+00
2.10E+00,7.52E-01,2.00E+01,2.45E+01,0.00E+00
2.20E+00,7.69E-01,2.00E+01,2.45E+01,0.00E+00
2.30E+00,7.86E-01,2.00E+01,2.45E+01,0.00E+00
2.40E+00,8.05E-01,2.00E+01,2.45E+01,0.00E+00
2.50E+00,8.20E-01,2.00E+01,2.45E+01,0.00E+00
2.60E+00,8.34E-01,2.00E+01,2.45E+01,0.00E+00
2.70E+00,8.37E-01,2.00E+01,2.45E+01,0.00E+00
2.80E+00,8.27E-01,2.00E+01,2.45E+01,0.00E+00
2.90E+00,7.87E-01,2.00E+01,2.45E+01,0.00E+00
3.00E+00,7.24E-01,2.00E+01,2.45E+01,0.00E+00
3.10E+00,7.74E-01,2.00E+01,2.45E+01,0.00E+00
3.20E+00,1.89E+00,2.00E+01,2.45E+01,0.00E+00
3.30E+00,3.31E+00,2.00E+01,2.45E+01,0.00E+00
3.40E+00,5.94E+00,2.00E+01,2.45E+01,0.00E+00
3.50E+00,5.95E+00,2.00E+01,2.45E+01,0.00E+00
3.60E+00,1.96E+01,2.00E+01,2.45E+01,0.00E+00
3.70E+00,3.57E+01,2.00E+01,2.45E+01,0.00E+00
3.80E+00,6.47E+01,2.00E+01,2.45E+01,0.00E+00
3.90E+00,1.15E+02,2.00E+01,2.45E+01,0.00E+00
4.00E+00,2.01E+02,2.00E+01,2.45E+01,0.00E+00
4.10E+00,3.37E+02,2.00E+01,2.45E+01,0.00E+00
4.20E+00,5.44E+02,2.00E+01,2.45E+01,0.00E+00
4.30E+00,8.25E+02,2.00E+01,2.45E+01,0.00E+00
4.40E+00,1.18E+03,2.00E+01,2.45E+01,0.00E+00
4.50E+00,1.57E+03,2.00E+01,2.45E+01,0.00E+00
4.60E+00,1.99E+03,2.00E+01,2.45E+01,0.00E+00
4.70E+00,2.39E+03,2.00E+01,2.45E+01,0.00E+00
4.80E+00,2.77E+03,2.00E+01,2.45E+01,0.00E+00
4.90E+00,3.12E+03,2.00E+01,2.45E+01,0.00E+00
5.00E+00,3.46E+03,2.00E+01,2.45E+01,0.00E+00
5.10E+00,3.76E+03,2.00E+01,2.45E+01,0.00E+00
5.20E+00,4.05E+03,2.00E+01,2.45E+01,0.00E+00
5.30E+00,4.31E+03,2.00E+01,2.45E+01,0.00E+00
5.40E+00,4.56E+03,2.00E+01,2.45E+01,0.00E+00
5.50E+00,4.80E+03,2.00E+01,2.45E+01,0.00E+00
5.60E+00,5.02E+03,2.00E+01,2.45E+01,0.00E+00
5.70E+00,5.23E+03,2.00E+01,2.45E+01,0.00E+00
5.80E+00,5.42E+03,2.00E+01,2.45E+01,0.00E+00
5.90E+00,5.62E+03,2.00E+01,2.45E+01,0.00E+00
6.00E+00,5.80E+03,2.00E+01,2.45E+01,0.00E+00
6.10E+00,5.97E+03,2.00E+01,2.45E+01,0.00E+00
6.20E+00,6.14E+03,2.00E+01,2.45E+01,0.00E+00
6.30E+00,6.31E+03,2.00E+01,2.45E+01,0.00E+00
6.40E+00,6.46E+03,2.00E+01,2.45E+01,0.00E+00
6.50E+00,6.62E+03,2.00E+01,2.45E+01,0.00E+00
6.60E+00,6.77E+03,2.00E+01,2.45E+01,0.00E+00
6.70E+00,6.91E+03,2.00E+01,2.45E+01,0.00E+00
6.80E+00,7.05E+03,2.00E+01,2.45E+01,0.00E+00
6.90E+00,7.19E+03,2.00E+01,2.45E+01,0.00E+00
7.00E+00,7.33E+03,2.00E+01,2.45E+01,0.00E+00
7.10E+00,7.46E+03,2.00E+01,2.45E+01,0.00E+00
7.20E+00,7.59E+03,2.00E+01,2.45E+01,0.00E+00
7.30E+00,7.72E+03,2.00E+01,2.45E+01,0.00E+00
7.40E+00,7.84E+03,2.00E+01,2.45E+01,0.00E+00
7.50E+00,7.96E+03,2.00E+01,2.45E+01,0.00E+00
7.60E+00,8.08E+03,2.00E+01,2.45E+01,0.00E+00
7.70E+00,8.20E+03,2.00E+01,2.45E+01,0.00E+00
7.80E+00,8.32E+03,2.00E+01,2.45E+01,0.00E+00
7.90E+00,8.44E+03,2.00E+01,2.45E+01,0.00E+00
8.00E+00,8.55E+03,2.00E+01,2.45E+01,0.00E+00
8.10E+00,8.66E+03,2.00E+01,2.45E+01,0.00E+00
8.20E+00,8.77E+03,2.00E+01,2.45E+01,0.00E+00
8.30E+00,8.88E+03,2.00E+01,2.45E+01,0.00E+00
8.40E+00,8.99E+03,2.00E+01,2.45E+01,0.00E+00
8.50E+00,9.10E+03,2.00E+01,2.45E+01,0.00E+00
8.60E+00,9.21E+03,2.00E+01,2.45E+01,0.00E+00
8.70E+00,9.31E+03,2.00E+01,2.45E+01,0.00E+00
8.80E+00,9.41E+03,2.00E+01,2.45E+01,0.00E+00
8.90E+00,9.52E+03,2.00E+01,2.45E+01,0.00E+00
9.00E+00,9.62E+03,2.00E+01,2.45E+01,0.00E+00
9.10E+00,9.72E+03,2.00E+01,2.45E+01,0.00E+00
9.20E+00,9.82E+03,2.00E+01,2.45E+01,0.00E+00
9.30E+00,9.92E+03,2.00E+01,2.45E+01,0.00E+00
9.40E+00,1.00E+04,2.00E+01,2.45E+01,0.00E+00
9.50E+00,1.01E+04,2.00E+01,2.45E+01,0.00E+00
9.60E+00,1.02E+04,2.00E+01,2.45E+01,0.00E+00
9.70E+00,1.03E+04,2.00E+01,2.45E+01,0.00E+00
9.80E+00,1.04E+04,2.00E+01,2.45E+01,0.00E+00
9.90E+00,1.05E+04,2.00E+01,2.45E+01,0.00E+00
1.00E+01,1.06E+04,2.00E+01,2.45E+01,0.00E+00
