﻿VOLTS,CURRNT_NAMP,TEMP_DEGC,AIR_TEMP_DEGC,RH_PRCNT
-4.72E-02,-1.00E+03,2.00E+01,2.45E+01,0.00E+00
-4.49E-02,-9.50E+02,2.00E+01,2.45E+01,0.00E+00
-4.26E-02,-9.00E+02,2.00E+01,2.45E+01,0.00E+00
-4.03E-02,-8.50E+02,2.00E+01,2.45E+01,0.00E+00
-3.80E-02,-8.00E+02,2.00E+01,2.45E+01,0.00E+00
-3.56E-02,-7.50E+02,2.00E+01,2.45E+01,0.00E+00
-3.33E-02,-7.00E+02,2.00E+01,2.45E+01,0.00E+00
-3.10E-02,-6.50E+02,2.00E+01,2.45E+01,0.00E+00
-2.86E-02,-6.00E+02,2.00E+01,2.45E+01,0.00E+00
-2.63E-02,-5.50E+02,2.00E+01,2.45E+01,0.00E+00
-2.39E-02,-5.00E+02,2.00E+01,2.45E+01,0.00E+00
-2.16E-02,-4.50E+02,2.00E+01,2.45E+01,0.00E+00
-1.92E-02,-4.00E+02,2.00E+01,2.45E+01,0.00E+00
-1.68E-02,-3.50E+02,2.00E+01,2.45E+01,0.00E+00
-1.45E-02,-3.00E+02,2.00E+01,2.45E+01,0.00E+00
-1.21E-02,-2.50E+02,2.00E+01,2.44E+01,0.00E+00
-9.69E-03,-2.00E+02,2.00E+01,2.45E+01,0.00E+00
-7.30E-03,-1.50E+02,2.00E+01,2.45E+01,0.00E+00
-4.93E-03,-1.00E+02,2.00E+01,2.45E+01,0.00E+00
-2.52E-03,-5.00E+01,2.00E+01,2.45E+01,0.00E+00
-1.10E-04,0.00E+00,2.00E+01,2.45E+01,0.00E+00
2.32E-03,5.00E+01,2.00E+01,2.45E+01,0.00E+00
4.75E-03,1.00E+02,2.00E+01,2.45E+01,0.00E+00
7.12E-03,1.50E+02,2.00E+01,2.45E+01,0.00E+00
9.54E-03,2.00E+02,2.00E+01,2.44E+01,0.00E+00
1.20E-02,2.50E+02,2.00E+01,2.45E+01,0.00E+00
1.44E-02,3.00E+02,2.00E+01,2.45E+01,0.00E+00
1.68E-02,3.50E+02,2.00E+01,2.45E+01,0.00E+00
1.92E-02,4.00E+02,2.00E+01,2.45E+01,0.00E+00
2.17E-02,4.50E+02,2.00E+01,2.45E+01,0.00E+00
2.41E-02,5.00E+02,2.00E+01,2.45E+01,0.00E+00
2.66E-02,5.50E+02,2.00E+01,2.45E+01,0.00E+00
2.90E-02,6.00E+02,2.00E+01,2.45E+01,0.00E+00
3.15E-02,6.50E+02,2.00E+01,2.44E+01,0.00E+00
3.39E-02,7.00E+02,2.00E+01,2.45E+01,0.00E+00
3.64E-02,7.50E+02,2.00E+01,2.45E+01,0.00E+00
3.88E-02,8.00E+02,2.00E+01,2.45E+01,0.00E+00
4.13E-02,8.50E+02,2.00E+01,2.44E+01,0.00E+00
4.37E-02,9.00E+02,2.00E+01,2.45E+01,0.00E+00
4.62E-02,9.50E+02,2.00E+01,2.45E+01,0.00E+00
4.87E-02,1.00E+03,2.00E+01,2.45E+01,0.00E+00
