﻿VOLTS,CURRNT_NAMP,TEMP_DEGC,AIR_TEMP_DEGC,RH_PRCNT
-2.62E-02,-1.00E+05,2.00E+01,2.46E+01,0.00E+00
-2.49E-02,-9.50E+04,2.00E+01,2.46E+01,0.00E+00
-2.36E-02,-9.00E+04,2.00E+01,2.46E+01,0.00E+00
-2.22E-02,-8.50E+04,2.00E+01,2.47E+01,0.00E+00
-2.09E-02,-8.00E+04,2.00E+01,2.47E+01,0.00E+00
-1.96E-02,-7.50E+04,2.00E+01,2.47E+01,0.00E+00
-1.83E-02,-7.00E+04,2.00E+01,2.46E+01,0.00E+00
-1.70E-02,-6.50E+04,2.00E+01,2.46E+01,0.00E+00
-1.57E-02,-6.00E+04,2.00E+01,2.46E+01,0.00E+00
-1.44E-02,-5.50E+04,2.00E+01,2.46E+01,0.00E+00
-1.31E-02,-5.00E+04,2.00E+01,2.46E+01,0.00E+00
-1.18E-02,-4.50E+04,2.00E+01,2.46E+01,0.00E+00
-1.05E-02,-4.00E+04,2.00E+01,2.47E+01,0.00E+00
-9.14E-03,-3.50E+04,2.00E+01,2.47E+01,0.00E+00
-7.83E-03,-3.00E+04,2.00E+01,2.47E+01,0.00E+00
-6.52E-03,-2.50E+04,2.00E+01,2.46E+01,0.00E+00
-5.21E-03,-2.00E+04,2.00E+01,2.46E+01,0.00E+00
-3.90E-03,-1.50E+04,2.00E+01,2.46E+01,0.00E+00
-2.61E-03,-1.00E+04,2.00E+01,2.47E+01,0.00E+00
-1.29E-03,-5.00E+03,2.00E+01,2.47E+01,0.00E+00
3.00E-05,0.00E+00,2.00E+01,2.46E+01,0.00E+00
1.36E-03,5.00E+03,2.00E+01,2.46E+01,0.00E+00
2.69E-03,1.00E+04,2.00E+01,2.47E+01,0.00E+00
3.96E-03,1.50E+04,2.00E+01,2.47E+01,0.00E+00
5.27E-03,2.00E+04,2.00E+01,2.47E+01,0.00E+00
6.58E-03,2.50E+04,2.00E+01,2.46E+01,0.00E+00
7.89E-03,3.00E+04,2.00E+01,2.46E+01,0.00E+00
9.20E-03,3.50E+04,2.00E+01,2.46E+01,0.00E+00
1.05E-02,4.00E+04,2.00E+01,2.47E+01,0.00E+00
1.18E-02,4.50E+04,2.00E+01,2.47E+01,0.00E+00
1.31E-02,5.00E+04,2.00E+01,2.47E+01,0.00E+00
1.44E-02,5.50E+04,2.00E+01,2.47E+01,0.00E+00
1.58E-02,6.00E+04,2.00E+01,2.47E+01,0.00E+00
1.71E-02,6.50E+04,2.00E+01,2.47E+01,0.00E+00
1.84E-02,7.00E+04,2.00E+01,2.47E+01,0.00E+00
1.97E-02,7.50E+04,2.00E+01,2.46E+01,0.00E+00
2.10E-02,8.00E+04,2.00E+01,2.46E+01,0.00E+00
2.23E-02,8.50E+04,2.00E+01,2.46E+01,0.00E+00
2.36E-02,9.00E+04,2.00E+01,2.47E+01,0.00E+00
2.49E-02,9.50E+04,2.00E+01,2.47E+01,0.00E+00
2.62E-02,1.00E+05,2.00E+01,2.47E+01,0.00E+00
