﻿VOLTS,CURRNT_NAMP,TEMP_DEGC,AIR_TEMP_DEGC,RH_PRCNT
-1.66E-01,-2.00E+03,2.00E+01,2.48E+01,0.00E+00
-1.58E-01,-1.90E+03,2.00E+01,2.48E+01,0.00E+00
-1.50E-01,-1.80E+03,2.00E+01,2.49E+01,0.00E+00
-1.42E-01,-1.70E+03,2.00E+01,2.49E+01,0.00E+00
-1.33E-01,-1.60E+03,2.00E+01,2.49E+01,0.00E+00
-1.25E-01,-1.50E+03,2.00E+01,2.48E+01,0.00E+00
-1.17E-01,-1.40E+03,2.00E+01,2.48E+01,0.00E+00
-1.08E-01,-1.30E+03,2.00E+01,2.48E+01,0.00E+00
-9.99E-02,-1.20E+03,2.00E+01,2.48E+01,0.00E+00
-9.16E-02,-1.10E+03,2.00E+01,2.48E+01,0.00E+00
-8.34E-02,-1.00E+03,2.00E+01,2.48E+01,0.00E+00
-7.51E-02,-9.00E+02,2.00E+01,2.48E+01,0.00E+00
-6.68E-02,-8.00E+02,2.00E+01,2.48E+01,0.00E+00
-5.84E-02,-7.00E+02,2.00E+01,2.48E+01,0.00E+00
-5.01E-02,-6.00E+02,2.00E+01,2.48E+01,0.00E+00
-4.17E-02,-5.00E+02,2.00E+01,2.48E+01,0.00E+00
-3.34E-02,-4.00E+02,2.00E+01,2.48E+01,0.00E+00
-2.50E-02,-3.00E+02,2.00E+01,2.49E+01,0.00E+00
-1.67E-02,-2.00E+02,2.00E+01,2.49E+01,0.00E+00
-8.35E-03,-1.00E+02,2.00E+01,2.49E+01,0.00E+00
2.00E-05,0.00E+00,2.00E+01,2.48E+01,0.00E+00
8.43E-03,1.00E+02,2.00E+01,2.48E+01,0.00E+00
1.67E-02,2.00E+02,2.00E+01,2.48E+01,0.00E+00
2.51E-02,3.00E+02,2.00E+01,2.48E+01,0.00E+00
3.34E-02,4.00E+02,2.00E+01,2.48E+01,0.00E+00
4.18E-02,5.00E+02,2.00E+01,2.48E+01,0.00E+00
5.01E-02,6.00E+02,2.00E+01,2.48E+01,0.00E+00
5.85E-02,7.00E+02,2.00E+01,2.48E+01,0.00E+00
6.68E-02,8.00E+02,2.00E+01,2.48E+01,0.00E+00
7.52E-02,9.00E+02,2.00E+01,2.48E+01,0.00E+00
8.35E-02,1.00E+03,2.00E+01,2.48E+01,0.00E+00
9.17E-02,1.10E+03,2.00E+01,2.48E+01,0.00E+00
1.00E-01,1.20E+03,2.00E+01,2.48E+01,0.00E+00
1.08E-01,1.30E+03,2.00E+01,2.48E+01,0.00E+00
1.17E-01,1.40E+03,2.00E+01,2.48E+01,0.00E+00
1.25E-01,1.50E+03,2.00E+01,2.48E+01,0.00E+00
1.33E-01,1.60E+03,2.00E+01,2.48E+01,0.00E+00
1.42E-01,1.70E+03,2.00E+01,2.48E+01,0.00E+00
1.50E-01,1.80E+03,2.00E+01,2.48E+01,0.00E+00
1.58E-01,1.90E+03,2.00E+01,2.48E+01,0.00E+00
1.67E-01,2.00E+03,2.00E+01,2.48E+01,0.00E+00
