#Measurement file	
#project	CMS tracker
#Sensor Type	PSS
#ID	34342_045_PSS_MAINL
#Scratch PAD	|0000|0000|0000|0000|0100|0101|
#Operator	HPK
#Date	28-Sep-20
#Ingot No.	2984038-504
#Bad strips	0
#AC NG	none
#AC open	none
#AC short	none
#DC high	none
#DC low	none
#DC leaky	none
#Polysilicon Bias Resistance Upper [Mohm]	1.81 
#Polysilicon Bias Resistance Lower [Mohm]	1.60 
#Polysilicon Bias Resistance Average [Mohm]	1.70 
#Depletion voltage [V]	290
#temperature [deg]	25
#humidity [%]	50
	
voltage [V]	current [A]
0	2.313E-09
20	6.545E-08
40	6.783E-08
60	6.956E-08
80	7.072E-08
100	7.185E-08
120	7.277E-08
140	7.341E-08
160	7.407E-08
180	7.436E-08
200	6.982E-08
220	7.079E-08
240	7.22E-08
260	7.414E-08
280	7.584E-08
300	7.684E-08
320	7.757E-08
340	7.817E-08
360	7.871E-08
380	7.921E-08
400	7.968E-08
420	8.014E-08
440	8.057E-08
460	0.000000081
480	8.14E-08
500	8.181E-08
520	8.22E-08
540	8.259E-08
560	8.299E-08
580	8.337E-08
600	8.376E-08
620	8.414E-08
640	8.453E-08
660	8.492E-08
680	8.531E-08
700	8.57E-08
720	8.611E-08
740	8.651E-08
760	8.692E-08
780	8.734E-08
800	8.777E-08
820	8.821E-08
840	8.865E-08
860	8.912E-08
880	8.961E-08
900	9.011E-08
920	9.063E-08
940	9.119E-08
960	9.175E-08
980	9.236E-08
1000	9.299E-08
	
voltage [V]	capacitance [F]
0	5.48519E-08
10	8.15224E-09
20	5.94175E-09
30	4.88646E-09
40	4.22533E-09
50	3.78143E-09
60	3.45457E-09
70	3.17457E-09
80	2.96922E-09
90	2.79982E-09
100	2.65624E-09
110	2.5323E-09
120	2.42433E-09
130	2.32891E-09
140	2.24372E-09
150	2.16766E-09
160	2.09986E-09
170	2.03931E-09
180	1.9793E-09
190	1.92325E-09
200	1.87067E-09
210	1.82355E-09
220	1.77944E-09
230	1.73711E-09
240	1.69609E-09
250	1.65722E-09
260	1.62239E-09
270	1.5939E-09
280	1.57593E-09
290	1.56817E-09
300	1.56481E-09
310	1.56286E-09
320	1.5616E-09
330	1.5606E-09
340	1.55983E-09
350	1.5592E-09
360	1.55864E-09
370	1.55814E-09
380	1.5577E-09
390	1.55731E-09
400	1.55698E-09
	
#End of manufacturer data file		
