#Measurement file	
#project	CMS tracker
#Sensor Type	PSS
#ID	34342_005_PSS_MAINL
#Scratch PAD	|0000|0000|0000|0000|0000|0101|
#Operator	HPK
#Date	28-Sep-20
#Ingot No.	2984038-504
#Bad strips	0
#AC NG	none
#AC open	none
#AC short	none
#DC high	none
#DC low	none
#DC leaky	none
#Polysilicon Bias Resistance Upper [Mohm]	1.81 
#Polysilicon Bias Resistance Lower [Mohm]	1.60 
#Polysilicon Bias Resistance Average [Mohm]	1.70 
#Depletion voltage [V]	290
#temperature [deg]	25
#humidity [%]	50
	
voltage [V]	current [A]
0	4.364E-09
20	6.837E-08
40	7.282E-08
60	7.473E-08
80	7.604E-08
100	7.712E-08
120	7.834E-08
140	7.907E-08
160	7.986E-08
180	8.031E-08
200	8.091E-08
220	7.797E-08
240	7.822E-08
260	8.02E-08
280	8.203E-08
300	8.316E-08
320	8.397E-08
340	8.465E-08
360	8.525E-08
380	8.582E-08
400	8.635E-08
420	8.685E-08
440	8.734E-08
460	8.782E-08
480	8.828E-08
500	8.873E-08
520	8.918E-08
540	8.962E-08
560	9.005E-08
580	9.047E-08
600	9.09E-08
620	9.132E-08
640	9.175E-08
660	9.218E-08
680	9.26E-08
700	9.304E-08
720	9.348E-08
740	9.392E-08
760	9.436E-08
780	9.482E-08
800	9.529E-08
820	9.577E-08
840	9.626E-08
860	9.676E-08
880	9.728E-08
900	9.783E-08
920	9.838E-08
940	9.897E-08
960	9.958E-08
980	1.0022E-07
1000	1.0088E-07
	
voltage [V]	capacitance [F]
0	5.05383E-08
10	9.54361E-09
20	6.00661E-09
30	4.8989E-09
40	4.22371E-09
50	3.77535E-09
60	3.44718E-09
70	3.16825E-09
80	2.96206E-09
90	2.79319E-09
100	2.6501E-09
110	2.52684E-09
120	2.41938E-09
130	2.32458E-09
140	2.23979E-09
150	2.16388E-09
160	2.09502E-09
170	2.0339E-09
180	1.97647E-09
190	1.92051E-09
200	1.86865E-09
210	1.82226E-09
220	1.77843E-09
230	1.73617E-09
240	1.69525E-09
250	1.65619E-09
260	1.62085E-09
270	1.59191E-09
280	1.57386E-09
290	1.5663E-09
300	1.56303E-09
310	1.56123E-09
320	1.55997E-09
330	1.55903E-09
340	1.55826E-09
350	1.55762E-09
360	1.55706E-09
370	1.55656E-09
380	1.55618E-09
390	1.5558E-09
400	1.55547E-09
	
#End of manufacturer data file		
