#Measurement file	
#project	CMS tracker
#Sensor Type	PSS
#ID	34342_014_PSS_MAINL
#Scratch PAD	|0000|0000|0000|0000|0001|0100|
#Operator	HPK
#Date	28-Sep-20
#Ingot No.	2984038-504
#Bad strips	0
#AC NG	none
#AC open	none
#AC short	none
#DC high	none
#DC low	none
#DC leaky	none
#Polysilicon Bias Resistance Upper [Mohm]	1.81 
#Polysilicon Bias Resistance Lower [Mohm]	1.60 
#Polysilicon Bias Resistance Average [Mohm]	1.70 
#Depletion voltage [V]	290
#temperature [deg]	25
#humidity [%]	50
	
voltage [V]	current [A]
0	4.571E-09
20	6.741E-08
40	6.777E-08
60	7.173E-08
80	7.459E-08
100	7.561E-08
120	7.667E-08
140	7.738E-08
160	7.825E-08
180	7.881E-08
200	7.949E-08
220	8.05E-08
240	8.194E-08
260	7.848E-08
280	0.00000008
300	8.095E-08
320	8.167E-08
340	8.228E-08
360	8.285E-08
380	8.337E-08
400	8.386E-08
420	8.433E-08
440	8.48E-08
460	8.524E-08
480	8.567E-08
500	8.609E-08
520	8.651E-08
540	8.693E-08
560	8.733E-08
580	8.774E-08
600	8.814E-08
620	8.854E-08
640	8.895E-08
660	8.935E-08
680	8.976E-08
700	9.017E-08
720	9.059E-08
740	9.101E-08
760	9.144E-08
780	9.187E-08
800	9.232E-08
820	9.278E-08
840	9.324E-08
860	9.372E-08
880	9.422E-08
900	9.474E-08
920	9.529E-08
940	9.584E-08
960	9.643E-08
980	9.705E-08
1000	9.769E-08
	
voltage [V]	capacitance [F]
0	5.18902E-08
10	9.0679E-09
20	6.02008E-09
30	4.91549E-09
40	4.23802E-09
50	3.7833E-09
60	3.45266E-09
70	3.17695E-09
80	2.96401E-09
90	2.79419E-09
100	2.65064E-09
110	2.52679E-09
120	2.41895E-09
130	2.32378E-09
140	2.23879E-09
150	2.16274E-09
160	2.09395E-09
170	2.03299E-09
180	1.97529E-09
190	1.91918E-09
200	1.86824E-09
210	1.82169E-09
220	1.77748E-09
230	1.73504E-09
240	1.69378E-09
250	1.65461E-09
260	1.61961E-09
270	1.59152E-09
280	1.57497E-09
290	1.56827E-09
300	1.56532E-09
310	1.56364E-09
320	1.56242E-09
330	1.56149E-09
340	1.56074E-09
350	1.56011E-09
360	1.5596E-09
370	1.55914E-09
380	1.55869E-09
390	1.55833E-09
400	1.55796E-09
	
#End of manufacturer data file		
