#Measurement file	
#project	CMS tracker
#Sensor Type	PSS
#ID	34342_003_PSS_MAINL
#Scratch PAD	|0000|0000|0000|0000|0000|0011|
#Operator	HPK
#Date	28-Sep-20
#Ingot No.	2984038-504
#Bad strips	0
#AC NG	none
#AC open	none
#AC short	none
#DC high	none
#DC low	none
#DC leaky	none
#Polysilicon Bias Resistance Upper [Mohm]	1.81 
#Polysilicon Bias Resistance Lower [Mohm]	1.60 
#Polysilicon Bias Resistance Average [Mohm]	1.70 
#Depletion voltage [V]	290
#temperature [deg]	25
#humidity [%]	50
	
voltage [V]	current [A]
0	5.221E-09
20	7.008E-08
40	6.793E-08
60	6.983E-08
80	7.126E-08
100	7.244E-08
120	7.363E-08
140	7.447E-08
160	7.533E-08
180	7.602E-08
200	7.664E-08
220	7.776E-08
240	7.945E-08
260	8.179E-08
280	8.391E-08
300	8.517E-08
320	8.606E-08
340	8.681E-08
360	8.748E-08
380	8.809E-08
400	8.867E-08
420	8.923E-08
440	8.977E-08
460	9.028E-08
480	9.078E-08
500	9.128E-08
520	9.176E-08
540	9.223E-08
560	9.27E-08
580	9.317E-08
600	9.363E-08
620	9.408E-08
640	9.454E-08
660	9.499E-08
680	9.545E-08
700	9.591E-08
720	9.637E-08
740	9.683E-08
760	9.73E-08
780	9.778E-08
800	9.827E-08
820	9.876E-08
840	9.927E-08
860	9.977E-08
880	1.003E-07
900	1.0085E-07
920	1.014E-07
940	1.0199E-07
960	1.026E-07
980	1.0323E-07
1000	1.0389E-07
	
voltage [V]	capacitance [F]
0	5.11693E-08
10	9.6749E-09
20	6.03682E-09
30	4.92278E-09
40	4.24752E-09
50	3.80124E-09
60	3.47317E-09
70	3.19145E-09
80	2.98519E-09
90	2.81486E-09
100	2.67048E-09
110	2.54604E-09
120	2.43761E-09
130	2.34192E-09
140	2.25632E-09
150	2.1797E-09
160	2.11063E-09
170	2.05017E-09
180	1.99055E-09
190	1.93272E-09
200	1.88088E-09
210	1.83412E-09
220	1.79025E-09
230	1.74802E-09
240	1.70689E-09
250	1.66741E-09
260	1.63123E-09
270	1.60067E-09
280	1.57992E-09
290	1.5707E-09
300	1.56696E-09
310	1.56488E-09
320	1.56358E-09
330	1.56261E-09
340	1.56181E-09
350	1.56115E-09
360	1.56065E-09
370	1.56017E-09
380	1.55967E-09
390	1.55929E-09
400	1.55891E-09
	
#End of manufacturer data file		
