﻿Hybrid ID;Hybrid type;MFR;Assembly state;VI Date;VI Comments;Production Quality Fails;Module assembly rating;Current Status;Date of transfer;Owner;Good/Bad;Test results;Comments;Test results location
8CBC318-201000025;8CBC3.0 FR4 stiffener;Valtronic;fully assembled;;;;;;;;;Not tested, not found;;
8CBC318-201000027;8CBC3.0 FR4 stiffener;Valtronic;fully assembled;;;;;;19/03/2019;Bugra Bilin ;Good;CBC 6 is broken;;?
8CBC318-201000030;8CBC3.0 FR4 stiffener;Valtronic;fully assembled;;;;;CMSTK Lab;;;Good;CBC 6 is broken;Assembly problem with chip 6 no short finding was performed;/home/cmsuptkh/test_bbilin/Ph2_ACF_sarah/8CBC_functional_test
8CBC318-201000031;8CBC3.0 FR4 stiffener;Valtronic;fully assembled;;;;;;09/10/2019;Sandro DiMatia;Good;All right!; no short finding was performed;/home/cmsuptkh/test_bbilin/Ph2_ACF_sarah/8CBC_functional_test
8CBC318-201000032;8CBC3.0 FR4 stiffener;Valtronic;fully assembled;;;;;;15/07/2020;Sarah Storey;Good;All right!; no short finding was performed;/home/cmsuptkh/test_bbilin/Ph2_ACF_sarah/8CBC_functional_test
8CBC318-201000033;8CBC3.0 FR4 stiffener;Valtronic;fully assembled;;;;;CMSTK Lab;;;Bad;CBC 6 is broken;Assembly problem with chip 6 no short finding was performed;/home/cmsuptkh/test_bbilin/Ph2_ACF_sarah/8CBC_functional_test
8CBC318-201000034;8CBC3.0 FR4 stiffener;Valtronic;fully assembled;;;;;;;;;Not tested;;
8CBC318-201000035;8CBC3.0 FR4 stiffener;Valtronic;fully assembled;;;;;;;;Good;CBC 6 is broken;Assembly problem with chip 6  no short finding was performed;/home/cmsuptkh/test_bbilin/Ph2_ACF_sarah/8CBC_functional_test
8CBC318-201000029;8CBC3.0 FR4 stiffener;Valtronic;fully assembled;;;;;CMSTK Lab - under test UIB;28/01/2019;Sarah Storey;Good;T13;Located in 14-02-06;
T32;8CBC3.0 FR4 stiffener;Valtronic;fully assembled;;;;;;02/02/2019;Christian Dziwok;Good;Unknown  serial number and incorrect T32 code?;Aachen;
8CBC318-201000036;8CBC3.0 FR4 stiffener;Valtronic;fully assembled;;;;;;19/02/2019;Bugra Bilin ;Good;OK, except one chip (chip 5) is dead;ULB+VUB IIHE;
;;;;;;;;;;;;;;
8CBC318-201000051;8CBC3.1 FR4 stiffener;Valtronic;fully assembled;;;;;;15/05/2019;Alexander Dierlamm;Good;All right!; no short finding was performed;/home/cmsuptkh/test_bbilin/Ph2_ACF_sarah/8CBC_functional_test
8CBC318-201000052;8CBC3.1 FR4 stiffener;Valtronic;fully assembled;;;;;;;;Bad;Not 100% of occupancy on CBC4 and CBC5; no short finding was performed;/home/cmsuptkh/test_bbilin/Ph2_ACF_sarah/8CBC_functional_test
8CBC318-201000053;8CBC3.1 FR4 stiffener;Valtronic;fully assembled;;;;;CMSTK Lab - under test;04/12/2019;Reserved CERN;Good;All right!; no short finding was performed, mounted on 2S test card for mezzanine tests;/home/cmsuptkh/test_bbilin/Ph2_ACF_sarah/8CBC_functional_test
8CBC318-201000054;8CBC3.1 FR4 stiffener;Valtronic;fully assembled;;;;;CMSTK Lab - under test - CRATE;;;Bad;Noise channels on CBC1; no short finding was performed;/home/cmsuptkh/test_bbilin/Ph2_ACF_sarah/8CBC_functional_test
8CBC318-201000055;8CBC3.1 FR4 stiffener;Valtronic;fully assembled;;;;;;27/11/2019;Laurent Gros (Strasbourg);Good;All right!; no short finding was performed;/home/cmsuptkh/test_bbilin/Ph2_ACF_sarah/8CBC_functional_test
8CBC318-201000056;8CBC3.1 FR4 stiffener;Valtronic;fully assembled;;;;;;;In test setup 13/S-21;;;;
8CBC318-201000057;8CBC3.1 FR4 stiffener;Valtronic;fully assembled;;;;;;;;Good;All right!; no short finding was performed;/home/cmsuptkh/test_bbilin/Ph2_ACF_sarah/8CBC_functional_test
8CBC318-201000058;8CBC3.1 FR4 stiffener;Valtronic;fully assembled;;;;;;04/12/2019;Alexander Dierlamm;Good;All right!; no short finding was performed, for Mezzanine tests at KIT;/home/cmsuptkh/test_bbilin/Ph2_ACF_sarah/8CBC_functional_test
8CBC318-201000059;8CBC3.1 FR4 stiffener;Valtronic;fully assembled;;;;;CMSTK Lab - under test;;In test setup 13/S-21;;;;
8CBC318-201000060;8CBC3.1 FR4 stiffener;Valtronic;fully assembled;;;;;;02/02/2019;In test setup at 186;Good ;;;
8CBC318-201000061;8CBC3.1 FR4 stiffener;Valtronic;fully assembled;;;;;CMSTK Lab;;In test setup 13/S-21;;;;
8CBC318-201000062;8CBC3.1 FR4 stiffener;Valtronic;fully assembled;;;;;CMSTK Lab;;;Good;All right!; no short finding was performed;/home/cmsuptkh/test_bbilin/Ph2_ACF_sarah/8CBC_functional_test
;;;;;;;;;;;;;;
8CBC318-201000063;8CBC3.0 CF Stiffener;Valtronic;fully assembled;;;;;;Unknown;Reserved for Alan;Bad;Latency scan for FE0 [Antenna switched to group 4 ] → null occupancy;Bad;
8CBC318-201000064;8CBC3.0 CF Stiffener;Valtronic;fully assembled;;;;;;28/06/2019;Katja Klein;Good;Ok, checked twice;Good;
8CBC318-201000065;8CBC3.0 CF Stiffener;Valtronic;fully assembled;;;;;;05/12/2019;Doris Eckstein (DESY);Bad;Failing phase tuning CBC5 quite often;Bad dies on CBC4 and CBC5;
8CBC318-201000066;8CBC3.0 CF Stiffener;Valtronic;fully assembled;;;;;;28/06/2019;Katja Klein;Good;Ok, checked twice;Good;
8CBC318-201000067;8CBC3.0 CF Stiffener;Valtronic;fully assembled;;;;;;05/12/2019;Doris Eckstein (DESY);Bad;Setting offsets of Test Group -1 to 0x80 → No data in the readout after receiving all triggers. Re-trying the point;Bad;
8CBC318-201000068;8CBC3.0 CF Stiffener;Valtronic;fully assembled;;;;;;05/12/2019;Doris Eckstein (DESY);Bad;Setting offsets of Test Group -1 to 0x80 → No data in the readout after receiving all triggers. Re-trying the point;Bad;
8CBC318-201000069;8CBC3.0 CF Stiffener;Valtronic;fully assembled;;;;;CMSTK Lab;10/08/2019;Sarah Storey? Reserved for Alan;Bad;Passed the test – wrong chip id for cbc5??;Bad die on CBC5;
8CBC318-201000070;8CBC3.0 CF Stiffener;Valtronic;fully assembled;;;;;;28/06/2019;Ulrich Heintz;Good;Ok, checked twice;Good;
8CBC318-201000071;8CBC3.0 CF Stiffener;Valtronic;fully assembled;;;;;;28/06/2019;Ulrich Heintz;Good;Ok, checked twice;Good;
8CBC318-201000072;8CBC3.0 CF Stiffener;Valtronic;fully assembled;;;;;;28/06/2019;Yuri Genstein;Good;Ok, checked twice;Good;
8CBC318-201000073;8CBC3.0 CF Stiffener;Valtronic;fully assembled;;;;;;05/12/2019;Doris Eckstein (DESY);Bad;Setting offsets of Test Group -1 to 0x80 → No data in the readout after receiving all triggers. Re-trying the point;Bad die on CBC0;
8CBC318-201000074;8CBC3.0 CF Stiffener;Valtronic;fully assembled;;;;;;15/08/2019;Geoff Hall;Bad;CBC7 fails in short finding test (CBC7 noisy chip: check calibration results);Bad die on CBC0;
;;;;;;;;;;;;;;
8CBC318-201000075;8CBC3.0 CF Stiffener;Valtronic;fully assembled;28.10.19;;2;C;CMSTK Lab;11/09/2020;Ulrich Heintz;;QR Code: 8CBC318-20100075;;
8CBC318-201000076;8CBC3.0 CF Stiffener;Valtronic;fully assembled;25.10.19;metal shard and glue in connectors;3;C;CMSTK Lab;;;;;;
8CBC318-201000077;8CBC3.0 CF Stiffener;Valtronic;fully assembled;01.11.19;;2;C;CMSTK Lab;;;;QR Code: 8CBC318-20100076;;
;;;;;;;;;;;;;;
8CBC318-201000117;BARE HYBRID;Valtronic;Dummy hybrid;;;;;CMSTK Lab - mounted on Jig;;;;;;
8CBC318-201000118;BARE HYBRID;Valtronic;Dummy hybrid;;;;;Optical inspection at DSF;;;;;;
8CBC318-201000119;BARE HYBRID;Valtronic;Dummy hybrid;;;;;Optical inspection at DSF;;;;;;
8CBC318-201000120;BARE HYBRID;Valtronic;Dummy hybrid;;;;;Optical inspection at DSF;;;;;;
8CBC318-201000121;BARE HYBRID;Valtronic;Dummy hybrid;;;;;Optical inspection at DSF;;;;;;
8CBC318-201000122;BARE HYBRID;Valtronic;Dummy hybrid;;;;;Optical inspection at DSF;;;;;;
8CBC318-201000123;BARE HYBRID;Valtronic;Dummy hybrid;;;;;Optical inspection at DSF;;;;;;
8CBC318-201000124;BARE HYBRID;Valtronic;Dummy hybrid;;;;;Optical inspection at DSF;;;;;;
8CBC318-201000125;BARE HYBRID;Valtronic;Dummy hybrid;;;;;Optical inspection at DSF;;;;;;
8CBC318-201000126;BARE HYBRID;Valtronic;Dummy hybrid;;;;;Optical inspection at DSF;;;;;;
;;;;;;;;;;;;;;
8CBC318-301000001;8CBC3.0 CF Stiffener;AEMTEC;fully assembled;;;;;CMSTK Lab;;;Bad;This hybrid is mounted with bad CBC3.0 chips;CBC5 is completely open;
8CBC318-301000002;8CBC3.0 CF Stiffener;AEMTEC;fully assembled;;;;;CMSTK Lab;;;Bad;This hybrid is mounted with bad CBC3.0 chips;Electrical test: bad: phase tuning failed. I2C problems;
8CBC318-301000004;8CBC3.0 CF Stiffener;AEMTEC;fully assembled;;;;;CMSTK Lab;;;Bad;Short circuits on CBC4;Electrical test: bad: I2C problems;
8CBC318-301000005;8CBC3.0 CF Stiffener;AEMTEC;fully assembled;;;;;;;;Bad;Short circuits on CBC5;Electrical test: bad: I2C problems;
8CBC318-301000006;8CBC3.0 CF Stiffener;AEMTEC;fully assembled;;;;;;;;Good;Electrical test: Success on second test. First test gave 1524 opens.;;
8CBC318-301000007;8CBC3.0 CF Stiffener;AEMTEC;fully assembled;;;;;CMSTK Lab;;;Good;;;
8CBC318-301000008;8CBC3.0 CF Stiffener;AEMTEC;fully assembled;;;;;CMSTK Lab;;;Bad;Short circuits on CBC1;Electrical test: bad: phase tuning failed;
8CBC318-301000009;8CBC3.0 CF Stiffener;AEMTEC;fully assembled;;;;;CMSTK Lab;;;Good;;;
8CBC318-301000010;8CBC3.0 CF Stiffener;AEMTEC;fully assembled;;;;;CMSTK Lab;;;Bad;Short circuits on CBC1, CBC2, CBC3, CBC4, CBC5;Electrical test: bad: phase tuning failed;
8CBC318-301000011;8CBC3.0 CF Stiffener;AEMTEC;fully assembled;;;;;CMSTK Lab;;;Bad;Short circuits on CBC2. C11 is not well placed, shorts with C36.;Electrical test: bad: phase tuning failed. I2C problems;
;;;;;;;;;;;;;;
8CBC318-201000127;8CBC3.1 CF Stiffener;Valtronic;fully assembled;04.11.19;;1;A;CMSTK Lab;;;Good;Not recommended for modules (Minor delamination);;
8CBC318-201000128;8CBC3.1 CF Stiffener;Valtronic;fully assembled;05.11.19;;2;B;CMSTK Lab;;;Good;Not recommended for modules (Visual inspection);;
8CBC318-201000129;8CBC3.1 CF Stiffener;Valtronic;fully assembled;04.11.19;crack check not done, too late, in Aachen;1?;B;;06/11/2019;Aachen;Good;;;
8CBC318-201000130;8CBC3.1 CF Stiffener;Valtronic;fully assembled;08.11.19;;1;C;;12/11/2019;Aachen;Good;;Plasma Cleaned 11/11/2019;
8CBC318-201000131;8CBC3.1 CF Stiffener;Valtronic;fully assembled;05.11.19;;3;C;CMSTK Lab;11/09/2020;Ulrich Heintz;Good;Not recommended for modules (Visual inspection);;
8CBC318-201000132;8CBC3.1 CF Stiffener;Valtronic;fully assembled;16.12.19;;3;C;DSF - Analysis;Unknown;Alan Honma;Good;;;
8CBC318-201000133;8CBC3.1 CF Stiffener;Valtronic;fully assembled;11.11.19;;2;C;;05/12/2019;Doris Eckstein (DESY);Good;;Plasma Cleaned 11/11/2019;
8CBC318-201000134;8CBC3.1 CF Stiffener;Valtronic;fully assembled;18.11.19;small scrape on bottom pads;3;B;;05/12/2019;Doris Eckstein (DESY);Good;;Plasma Cleaned 11/11/2019;
8CBC318-201000135;8CBC3.1 CF Stiffener;Valtronic;fully assembled;04.11.19;delam. of flex from CF under bond pads;3;D;;06/11/2019;Aachen;Good;;;
8CBC318-201000136;8CBC3.1 CF Stiffener;Valtronic;fully assembled;05.11.19;;0;A;;07/11/2019;KIT;Good;;;
8CBC318-201000137;8CBC3.1 CF Stiffener;Valtronic;fully assembled;08.11.19;;3;C;;05/12/2019;Doris Eckstein (DESY);Good;;Plasma Cleaned 11/11/2019;
8CBC318-201000138;8CBC3.1 CF Stiffener;Valtronic;fully assembled;14.11.19;;3;C;Optical inspection at DSF;05/12/2019;Doris Eckstein (DESY);Good;;Plasma Cleaned 11/11/2019;
8CBC318-201000139;8CBC3.1 CF Stiffener;Valtronic;fully assembled;05.11.19;;1;B;;06/11/2019;KIT;Good;;;
8CBC318-201000140;8CBC3.1 CF Stiffener;Valtronic;fully assembled;04.11.19;;0;A;;07/11/2019;KIT;Good;;;
8CBC318-201000141;8CBC3.1 CF Stiffener;Valtronic;fully assembled;18.11.19;small UF spot;3;B;Optical inspection at DSF;17/01/2020;Aachen;Good;;Plasma Cleaned 11/11/2019;
8CBC318-201000142;8CBC3.1 CF Stiffener;Valtronic;fully assembled;15.11.19;;2;C;CMSTK Lab;11/09/2020;Ulrich Heintz;Good;First tests found no data in readout.;Plasma Cleaned 11/11/2019;
8CBC318-201000143;8CBC3.1 CF Stiffener;Valtronic;fully assembled;16.11.19;;2;C;CMSTK Lab;11/09/2020;Lenny Spiegel (Fermilab);Good;Inconsistent problems until successful run (whole antenna groups open, 1524 opens first and then 508 opens);Plasma Cleaned 11/11/2019;
8CBC318-201000144;8CBC3.1 CF Stiffener;Valtronic;fully assembled;08.11.19;;1;C;CMSTK Lab;11/09/2020;Lenny Spiegel (Fermilab);To repair;;Plasma Cleaned 11/11/2019;
8CBC318-201000145;8CBC3.1 CF Stiffener;Valtronic;fully assembled;19.11.19;connector damage by CERN;3;C;CMSTK Lab;11/09/2020;Ulrich Heintz;Good;Open in CBC1 channel 179;Plasma Cleaned 11/11/2019;
8CBC318-201000146;8CBC3.1 CF Stiffener;Valtronic;fully assembled;08.11.19;;1;C;CMSTK Lab;07/08/2020;Christophe Delaere (UCL);Good;;Plasma Cleaned 11/11/2019;
8CBC318-201000147;8CBC3.1 CF Stiffener;Valtronic;fully assembled;19.11.19;a lot of UF;3;C;Optical inspection at DSF;;Location Unknown;Good;;Plasma Cleaned 11/11/2019;
8CBC318-201000148;8CBC3.1 CF Stiffener;Valtronic;fully assembled;19.11.19;connector damage by CERN;3;C;CMSTK Lab;11/09/2020;Stefan Maier;Bad;Inconsistent problems;Plasma Cleaned 11/11/2019;
8CBC318-201000149;8CBC3.1 CF Stiffener;Valtronic;fully assembled;15.11.19;connector damage by CERN, f-o w/huge bump;4;D;Optical inspection at DSF;;;Bad;Inconsistent problems;Plasma Cleaned 11/11/2019;
8CBC318-201000150;8CBC3.1 CF Stiffener;Valtronic;fully assembled;06.11.19;;1;B;;12/11/2019;KIT;Good;;Plasma Cleaned 11/11/2019;
8CBC318-201000151;8CBC3.1 CF Stiffener;Valtronic;fully assembled;15.11.19;;1;B;Optical inspection at DSF;17/01/2020;Aachen;Good;;Plasma Cleaned 11/11/2019;
8CBC318-201000152;8CBC3.1 CF Stiffener;Valtronic;fully assembled;19.11.19;;2;B;Optical inspection at DSF;17/01/2020;Aachen;Good;;Plasma Cleaned 11/11/2019;
8CBC318-201000153;8CBC3.1 CF Stiffener;Valtronic;fully assembled;14.11.19;under etch?;3;C;CMSTK Lab;11/09/2020;Ulrich Heintz;Good;;Plasma Cleaned 11/11/2019;
8CBC318-201000154;8CBC3.1 CF Stiffener;Valtronic;fully assembled;14.11.19;under etch?;2;B;Optical inspection at DSF;;;Bad;Phase tuning fails;Plasma Cleaned 11/11/2019;
8CBC318-201000155;8CBC3.1 CF Stiffener;Valtronic;fully assembled;15.11.19;;3;B;;20/11/2019;Alan Honma CERN;Good;;Plasma Cleaned 11/11/2019;
8CBC318-201000156;8CBC3.1 CF Stiffener;Valtronic;fully assembled;19.11.19;solder* blob removed, now ok;2;C;CMSTK Lab;14/07/2020;Nikkie Deelen;Good;;Plasma Cleaned 11/11/2019;
8CBC318-201000157;8CBC3.1 CF Stiffener;Valtronic;fully assembled;08.11.19;;1;C;;12/11/2019;Aachen;Good;First test gave 1524 opens.;Plasma Cleaned 11/11/2019;
8CBC318-201000158;8CBC3.1 CF Stiffener;Valtronic;fully assembled;18.11.19;;2;C;;17/03/2020;Nikkie Deelen;Good;;Plasma Cleaned 11/11/2019;
8CBC318-201000159;8CBC3.1 CF Stiffener;Valtronic;fully assembled;06.11.19;;1;B;CMSTK Lab;;;To repair;Connector 3 is broken. Several tests until successful test, (phase tuning failed).;Plasma Cleaned 11/11/2019;
8CBC318-201000160;8CBC3.1 CF Stiffener;Valtronic;fully assembled;14.11.19;solder blob and CF chunk removed, now OK;2;B;CMSTK Lab;11/09/2020;Stefan Maier;Good;Inconsistent problems until successful run (no data in the readout and whole antenna groups open);Plasma Cleaned 11/11/2019;
8CBC318-201000161;8CBC3.1 CF Stiffener;Valtronic;fully assembled;05.11.19;o*=glue spot on 1 bottom pad;1;A;;06/11/2019;KIT;Good;;;
8CBC318-201000162;8CBC3.1 CF Stiffener;Valtronic;fully assembled;18.11.19;;1;B;CMSTK Lab;14/05/2020;Steven Lowette (Brussels);Good;;Plasma Cleaned 11/11/2019;
8CBC318-201000163;8CBC3.1 CF Stiffener;Valtronic;fully assembled;18.11.19;;2;C;CMSTK Lab;11/09/2020;Stefan Maier;Good;First test gave 1524 opens.;Plasma Cleaned 11/11/2019;
8CBC318-201000164;8CBC3.1 CF Stiffener;Valtronic;fully assembled;05.11.19;o*=blob of glue on bias pad;3;B;;07/11/2019;KIT;Good;;;
8CBC318-201000165;8CBC3.1 CF Stiffener;Valtronic;fully assembled;14.11.19;dark contam. Cleaned from bottom pads;3;C;CMSTK Lab;11/09/2020;Stefan Maier;Good;;Plasma Cleaned 11/11/2019;
8CBC318-201000166;8CBC3.1 CF Stiffener;Valtronic;fully assembled;16.12.19;;2;C;;14/05/2020;Steven Lowette (Brussels);Good;;Plasma Cleaned 11/11/2019;
8CBC318-201000167;8CBC3.1 CF Stiffener;Valtronic;fully assembled;18.11.19;;4;C;CMSTK Lab;11/09/2020;Stefan Maier;Good;;Plasma Cleaned 11/11/2019;
8CBC318-201000168;8CBC3.1 CF Stiffener;Valtronic;fully assembled;18.11.19;;1;B;Optical inspection at DSF;17/01/2020;Aachen;Good;;Plasma Cleaned 11/11/2019;
8CBC318-201000169;8CBC3.1 CF Stiffener;Valtronic;fully assembled;06.11.19;;1;C;CMSTK Lab;;;Bad;Phase tuning fails. No I2C replies;Plasma Cleaned 11/11/2019;
8CBC318-201000170;8CBC3.1 CF Stiffener;Valtronic;fully assembled;18.11.19;;2;B;DSF - Analysis;20/11/2019;Alan Honma CERN;Good;;Plasma Cleaned 11/11/2019;
8CBC318-201000171;8CBC3.1 CF Stiffener;Valtronic;fully assembled;06.11.19;;2;B;;12/11/2019;KIT;Good;;Plasma Cleaned 11/11/2019;
8CBC318-201000172;8CBC3.1 CF Stiffener;Valtronic;fully assembled;07.11.19;;3;C;CMSTK Lab;11/09/2020;Stefan Maier (Lyon);Good;First tests failed phase tuning;Plasma Cleaned 11/11/2019;
8CBC318-201000173;8CBC3.1 CF Stiffener;Valtronic;fully assembled;06.11.19;;2;C;CMSTK Lab;11/09/2020;Stefan Maier (Lyon);Good;First test gave 1524 opens.;Plasma Cleaned 11/11/2019;
8CBC318-201000174;8CBC3.1 CF Stiffener;Valtronic;fully assembled;07.11.19;;3;C;CMSTK Lab;07/08/2020;Christophe Delaere (UCL);Good;;Plasma Cleaned 11/11/2019;
8CBC318-201000175;8CBC3.1 CF Stiffener;Valtronic;fully assembled;08.11.19;;2;C;;27/11/2019;Laurent Gros (Strasbourg);Good;;Plasma Cleaned 11/11/2019;
8CBC318-201000176;8CBC3.1 CF Stiffener;Valtronic;fully assembled;07.11.19;;3;C;;27/11/2019;Laurent Gros (Strasbourg);Good;;Plasma Cleaned 11/11/2019;
;;;;;;;;;;;;;;
8CBC318-20100078;8CBC3.0 CF Stiffener;Valtronic;fully assembled;10.12.19;;3;C;CMSTK Lab;11/09/2020;Ulrich Heintz;Good;;Tested 13/12/19 (RC);
8CBC318-20100079 ;8CBC3.0 CF Stiffener;Valtronic;fully assembled;06.12.19;black material between bond pas may short;3;C;CMSTK Lab;11/09/2020;Ulrich Heintz;Good;;Tested 13/12/19 (RC);
8CBC318-201000080;8CBC3.0 CF Stiffener;Valtronic;fully assembled;10.12.19;;5;D;CMSTK Lab;;;Good;;Tested 13/12/19 (RC);
8CBC318-201000081;8CBC3.0 CF Stiffener;Valtronic;fully assembled;10.12.19;was bond tested on many top side pads;2;C;CMSTK Lab;11/09/2020;Steven Lowette (Brussels);Good;;Tested 13/12/19 (RC);
8CBC318-201000082;8CBC3.0 CF Stiffener;Valtronic;fully assembled;10.12.19;long narrow but deep scratch 17 pads bottom;3;C;CMSTK Lab;;;Good;;Tested 13/12/19 (RC);
8CBC318-201000083;8CBC3.0 CF Stiffener;Valtronic;fully assembled;28.11.19;;2;C;CMSTK Lab;16/01/2020;Suchandra (NISER);Good;;Tested 17/12/19 (RC);
8CBC318-201000084;8CBC3.0 CF Stiffener;Valtronic;fully assembled;26.11.19;;3;B;CMSTK Lab;11/09/2020;Stefan Maier;Bad;1 bump(s) open.;Tested 17/12/19 (RC);
8CBC318-201000085;8CBC3.0 CF Stiffener;Valtronic;fully assembled;25.11.19;;2;B;CMSTK Lab;19/12/2019;Lenny Spiegel (Fermilab);Good;;Tested 17/12/19 (RC);
8CBC318-201000086;8CBC3.0 CF Stiffener;Valtronic;fully assembled;26.11.19;was bond tested on many top side pads;3;C;CMSTK Lab;;;Good;;Tested 17/12/19 (RC);
8CBC318-201000087;8CBC3.0 CF Stiffener;Valtronic;fully assembled;06.12.19;;2;B;CMSTK Lab;;;Bad;Not possible to insert in socket (RC);Tried to test 13/12/19 (RC);
8CBC318-201000088;8CBC3.0 CF Stiffener;Valtronic;fully assembled;25.11.19;;1;B;CMSTK Lab;19/12/2019;Lenny Spiegel (Fermilab);Good;;Tested 17/12/19 (RC);
8CBC318-201000089;8CBC3.0 CF Stiffener;Valtronic;fully assembled;09.12.19;;2;B;CMSTK Lab;16/12/2019;Suchandra (NISER);Bad;Test stuck - Failed phase tuning;Tested 13/12/19 (RC);
8CBC318-201000090;8CBC3.0 CF Stiffener;Valtronic;fully assembled;09.12.19;;1;C;CMSTK Lab;;;Good;;Tested 13/12/19 (RC);
8CBC318-201000091;8CBC3.0 CF Stiffener;Valtronic;fully assembled;09.12.19;;3;C;CMSTK Lab;;;Good;;Tested 13/12/19 (RC);
8CBC318-201000092;8CBC3.0 CF Stiffener;Valtronic;fully assembled;09.12.19;;2;B;CMSTK Lab;19/12/2019;Lenny Spiegel (Fermilab);Good;;Tested 13/12/19 (RC);
8CBC318-201000093;8CBC3.0 CF Stiffener;Valtronic;fully assembled;20.11.19;flakes of unknown material on pads;2;C;CMSTK Lab;16/01/2020;Suchandra (NISER);Bad;508 bump(s) open.;Tested 17/12/19 (RC);
8CBC318-201000094;8CBC3.0 CF Stiffener;Valtronic;fully assembled;06.12.19;;3;C;CMSTK Lab;;Reserved for Ncp;Good;;Tested 13/12/19 (RC);
8CBC318-201000095;8CBC3.0 CF Stiffener;Valtronic;fully assembled;10.12.19;;2;C;CMSTK Lab;;Reserved for Ncp;Good;;Tested 13/12/19 (RC);
8CBC318-201000096;8CBC3.0 CF Stiffener;Valtronic;fully assembled;06.12.19;;1;A;CMSTK Lab;11/09/2020;Steven Lowette (Brussels);Good;;Tested 13/12/19 (RC);
8CBC318-201000097;8CBC3.0 CF Stiffener;Valtronic;fully assembled;04.12.19;;5;D;CMSTK Lab;11/05/2020;Steven Lowette (Brussels);Bad;Test stuck - Failed phase tuning;Tested 13/12/19 (RC);
8CBC318-201000098;8CBC3.0 CF Stiffener;Valtronic;fully assembled;04.12.19;;2;C;CMSTK Lab;11/05/2020;Steven Lowette (Brussels);Bad;Test stuck - Failed phase tuning;Tested 13/12/19 (RC);
8CBC318-201000099;8CBC3.0 CF Stiffener;Valtronic;fully assembled;04.12.19;;4;C;CMSTK Lab;;;Bad;Test stuck - Failed phase tuning;Tested 13/12/19 (RC);
8CBC318-201000100;8CBC3.0 CF Stiffener;Valtronic;fully assembled;28.11.19;;2;B;CMSTK Lab;11/05/2020;Steven Lowette (Brussels);Bad;Test stuck - Failed phase tuning;Tested 17/12/19 (RC);
8CBC318-201000101;8CBC3.0 CF Stiffener;Valtronic;fully assembled;27.11.19;;3;C;CMSTK Lab;11/09/2020;Ulrich Heintz;Bad;Test stuck - Failed phase tuning;Tested 17/12/19 (RC);
8CBC318-201000102;8CBC3.0 CF Stiffener;Valtronic;fully assembled;26.11.19;;1;B;CMSTK Lab;20/12/2019;Prolay (Niser);Bad;508 bump(s) open.;Tested 17/12/19 (RC);
8CBC318-201000103;8CBC3.0 CF Stiffener;Valtronic;fully assembled;28.11.19;;2;C;CMSTK Lab;16/01/2020;Suchandra (NISER);Bad;1016 bump(s) open.;Tested 17/12/19 (RC);
8CBC318-201000104;8CBC3.0 CF Stiffener;Valtronic;fully assembled;26.11.19;;2;C;CMSTK Lab;16/01/2020;Suchandra (NISER);Bad;1524 bump(s) open.;Tested 17/12/19 (RC);
8CBC318-201000105;8CBC3.0 CF Stiffener;Valtronic;fully assembled;28.11.19;;2;C;CMSTK Lab;;;Good;;Tested 17/12/19 (RC);
8CBC318-201000106;8CBC3.0 CF Stiffener;Valtronic;fully assembled;26.11.19;;2;B;CMSTK Lab;19/12/2019;Lenny Spiegel (Fermilab);Good;;Tested 17/12/19 (RC);
8CBC318-201000107;8CBC3.0 CF Stiffener;Valtronic;fully assembled;09.12.19;;3;C;CMSTK Lab;;;Good;;Tested 13/12/19 (RC);
8CBC318-201000108;8CBC3.0 CF Stiffener;Valtronic;fully assembled;04.12.19;orange spots on bottom pads;3;B;CMSTK Lab;20/12/2019;Prolay (Niser);Good;;Tested 13/12/19 (RC);
8CBC318-201000109;8CBC3.0 CF Stiffener;Valtronic;fully assembled;27.11.19;conn. Contamination as well;4;C;CMSTK Lab;;;Good;;Tested 17/12/19 (RC);
8CBC318-201000110;8CBC3.0 CF Stiffener;Valtronic;fully assembled;27.11.19;;3;C;CMSTK Lab;;;Good;;Tested 17/12/19 (RC);
8CBC318-201000111;8CBC3.0 CF Stiffener;Valtronic;fully assembled;22.11.19;;3;C;CMSTK Lab;;;Good;;Tested 17/12/19 (RC);
8CBC318-201000112;8CBC3.0 CF Stiffener;Valtronic;fully assembled;20.11.19;hard scratch in fold-over;2;B;CMSTK Lab;20/12/2019;Prolay (Niser);Good;;Tested 17/12/19 (RC);
8CBC318-201000113;8CBC3.0 CF Stiffener;Valtronic;fully assembled;09.12.19;small scrape on bottom pads, comp. ear missing;4;C;CMSTK Lab;;;Good;;Tested 13/12/19 (RC);
8CBC318-201000114;8CBC3.0 CF Stiffener;Valtronic;fully assembled;04.12.19;;2;C;DSF - Analysis;10/01/2020;Alan Honma CERN;Bad;Test stuck - Failed phase tuning;Tested 13/12/19 (RC);
8CBC318-201000115;8CBC3.0 CF Stiffener;Valtronic;fully assembled;06.12.19;;1;B;CMSTK Lab;20/12/2019;Prolay (Niser);Good;;Tested 13/12/19 (RC);