﻿BatchN;BatchID;WaferID;WaferN;ProductionDate;VersionTag;
3;N7F849;01D1;01;18.08.2021;1.0 dummy;
3;N7F849;02C4;02;18.08.2021;1.0 dummy;
3;N7F849;03B7;03;18.08.2021;1.0 dummy;
3;N7F849;04B2;04;18.08.2021;1.0 dummy;
3;N7F849;05A5;05;18.08.2021;1.0 dummy;
3;N7F849;06A0;06;18.08.2021;1.0 dummy;
3;N7F849;07G6;07;18.08.2021;1.0 dummy;
3;N7F849;08G1;08;18.08.2021;1.0 dummy;
3;N7F849;09F4;09;18.08.2021;1.0 dummy;
3;N7F849;10G1;0A;18.08.2021;1.0 dummy;
3;N7F849;11F4;0B;18.08.2021;1.0 dummy;
3;N7F849;12E07;0C;18.08.2021;1.0 dummy;
3;N7F849;13E02;0D;18.08.2021;1.0 dummy;
3;N7F849;14D5;0E;18.08.2021;1.0 dummy;
3;N7F849;15D0;0F;18.08.2021;1.0 dummy;
3;N7F849;16C3;10;18.08.2021;1.0 dummy;
3;N7F849;17B6;11;18.08.2021;1.0 dummy;
3;N7F849;18B1;12;18.08.2021;1.0 dummy;
3;N7F849;19A4;13;18.08.2021;1.0 dummy;
3;N7F849;20B1;14;18.08.2021;1.0 dummy;
3;N7F849;21A4;15;18.08.2021;1.0 dummy;
3;N7F849;22H2;16;18.08.2021;1.0 dummy;
3;N7F849;23G5;17;18.08.2021;1.0 dummy;
3;N7F849;24G0;18;18.08.2021;1.0 dummy;
3;N7F849;25F3;19;18.08.2021;1.0 dummy;
