#Measurement file	
#project	CMS tracker
#Sensor Type	PSS
#ID	34342_023_PSS_MAINR
#Scratch PAD	|0000|0000|0000|0000|0010|0011|
#Operator	HPK
#Date	28-Sep-20
#Ingot No.	2984038-504
#Bad strips	0
#AC NG	none
#AC open	none
#AC short	none
#DC high	none
#DC low	none
#DC leaky	none
#Polysilicon Bias Resistance Upper [Mohm]	1.81 
#Polysilicon Bias Resistance Lower [Mohm]	1.60 
#Polysilicon Bias Resistance Average [Mohm]	1.70 
#Depletion voltage [V]	280
#temperature [deg]	25
#humidity [%]	50
	
voltage [V]	current [A]
0	5.537E-09
20	7.441E-08
40	7.792E-08
60	8.033E-08
80	8.188E-08
100	8.307E-08
120	7.935E-08
140	8.01E-08
160	8.084E-08
180	8.111E-08
200	8.139E-08
220	8.198E-08
240	8.35E-08
260	8.558E-08
280	8.733E-08
300	8.842E-08
320	8.923E-08
340	8.993E-08
360	9.057E-08
380	9.116E-08
400	9.172E-08
420	9.227E-08
440	9.279E-08
460	9.33E-08
480	9.38E-08
500	9.429E-08
520	9.478E-08
540	9.526E-08
560	9.573E-08
580	9.62E-08
600	9.667E-08
620	9.714E-08
640	9.76E-08
660	9.807E-08
680	9.853E-08
700	0.000000099
720	9.948E-08
740	9.997E-08
760	1.0045E-07
780	1.0094E-07
800	1.0145E-07
820	1.0195E-07
840	1.0248E-07
860	1.0301E-07
880	1.0355E-07
900	1.0411E-07
920	1.0469E-07
940	1.0528E-07
960	1.0588E-07
980	1.065E-07
1000	1.0714E-07
	
voltage [V]	capacitance [F]
0	6.17251E-08
10	8.23216E-09
20	5.63018E-09
30	4.72033E-09
40	4.13195E-09
50	3.71165E-09
60	3.39979E-09
70	3.15777E-09
80	2.93942E-09
90	2.77381E-09
100	2.63539E-09
110	2.51559E-09
120	2.41102E-09
130	2.31837E-09
140	2.23532E-09
150	2.16084E-09
160	2.09341E-09
170	2.03293E-09
180	1.97458E-09
190	1.92007E-09
200	1.86965E-09
210	1.82211E-09
220	1.77614E-09
230	1.73122E-09
240	1.68964E-09
250	1.65112E-09
260	1.61754E-09
270	1.59212E-09
280	1.57852E-09
290	1.57305E-09
300	1.57047E-09
310	1.56895E-09
320	1.56781E-09
330	1.56689E-09
340	1.56623E-09
350	1.56558E-09
360	1.56511E-09
370	1.56466E-09
380	1.56425E-09
390	1.56386E-09
400	1.56353E-09
	
#End of manufacturer data file		
