#Measurement file	
#project	CMS tracker
#Sensor Type	PSS
#ID	34342_003_PSS_MAINR
#Scratch PAD	|0000|0000|0000|0000|0000|0011|
#Operator	HPK
#Date	28-Sep-20
#Ingot No.	2984038-504
#Bad strips	0
#AC NG	none
#AC open	none
#AC short	none
#DC high	none
#DC low	none
#DC leaky	none
#Polysilicon Bias Resistance Upper [Mohm]	1.81 
#Polysilicon Bias Resistance Lower [Mohm]	1.60 
#Polysilicon Bias Resistance Average [Mohm]	1.70 
#Depletion voltage [V]	280
#temperature [deg]	25
#humidity [%]	50
	
voltage [V]	current [A]
0	5.582E-09
20	7.291E-08
40	7.15E-08
60	7.389E-08
80	7.551E-08
100	7.679E-08
120	7.815E-08
140	7.904E-08
160	7.996E-08
180	8.062E-08
200	8.102E-08
220	8.174E-08
240	8.331E-08
260	8.566E-08
280	8.757E-08
300	8.87E-08
320	8.955E-08
340	9.028E-08
360	9.094E-08
380	9.156E-08
400	9.215E-08
420	9.271E-08
440	9.326E-08
460	9.379E-08
480	9.431E-08
500	9.481E-08
520	9.531E-08
540	9.58E-08
560	9.629E-08
580	9.678E-08
600	9.726E-08
620	9.775E-08
640	9.822E-08
660	9.871E-08
680	9.919E-08
700	9.967E-08
720	1.0015E-07
740	1.0065E-07
760	1.0114E-07
780	1.0164E-07
800	1.0214E-07
820	1.0265E-07
840	1.0317E-07
860	1.0371E-07
880	1.0425E-07
900	1.0481E-07
920	1.0539E-07
940	1.0598E-07
960	1.066E-07
980	1.0723E-07
1000	1.0789E-07
	
voltage [V]	capacitance [F]
0	6.13904E-08
10	8.21684E-09
20	5.67954E-09
30	4.74315E-09
40	4.14427E-09
50	3.72215E-09
60	3.41087E-09
70	3.16326E-09
80	2.94441E-09
90	2.78043E-09
100	2.64071E-09
110	2.5199E-09
120	2.41432E-09
130	2.32107E-09
140	2.23748E-09
150	2.16258E-09
160	2.09469E-09
170	2.03374E-09
180	1.9789E-09
190	1.92447E-09
200	1.87332E-09
210	1.82564E-09
220	1.78051E-09
230	1.73729E-09
240	1.69443E-09
250	1.65244E-09
260	1.617E-09
270	1.59015E-09
280	1.5752E-09
290	1.56923E-09
300	1.56648E-09
310	1.56483E-09
320	1.56367E-09
330	1.56276E-09
340	1.56207E-09
350	1.56144E-09
360	1.56088E-09
370	1.56042E-09
380	1.56005E-09
390	1.55963E-09
400	1.55927E-09
	
#End of manufacturer data file		
