#Measurement file	
#project	CMS tracker
#Sensor Type	PSS
#ID	34342_007_PSS_MAINR
#Scratch PAD	|0000|0000|0000|0000|0000|0111|
#Operator	HPK
#Date	28-Sep-20
#Ingot No.	2984038-504
#Bad strips	0
#AC NG	none
#AC open	none
#AC short	none
#DC high	none
#DC low	none
#DC leaky	none
#Polysilicon Bias Resistance Upper [Mohm]	1.81 
#Polysilicon Bias Resistance Lower [Mohm]	1.60 
#Polysilicon Bias Resistance Average [Mohm]	1.70 
#Depletion voltage [V]	280
#temperature [deg]	25
#humidity [%]	50
	
voltage [V]	current [A]
0	5.485E-09
20	6.665E-08
40	7.084E-08
60	7.321E-08
80	7.483E-08
100	7.607E-08
120	7.738E-08
140	7.821E-08
160	7.905E-08
180	7.96E-08
200	7.992E-08
220	8.052E-08
240	8.182E-08
260	8.402E-08
280	8.584E-08
300	8.694E-08
320	8.778E-08
340	8.85E-08
360	8.915E-08
380	8.977E-08
400	9.035E-08
420	9.09E-08
440	9.144E-08
460	9.196E-08
480	9.247E-08
500	9.297E-08
520	9.347E-08
540	9.395E-08
560	9.443E-08
580	9.491E-08
600	9.539E-08
620	9.587E-08
640	9.633E-08
660	9.681E-08
680	9.728E-08
700	9.775E-08
720	9.823E-08
740	9.87E-08
760	9.918E-08
780	9.967E-08
800	1.0016E-07
820	1.0065E-07
840	1.0116E-07
860	1.0168E-07
880	1.022E-07
900	1.0273E-07
920	1.0328E-07
940	1.0383E-07
960	1.0441E-07
980	1.0501E-07
1000	1.0562E-07
	
voltage [V]	capacitance [F]
0	6.14804E-08
10	8.09203E-09
20	5.60187E-09
30	4.69202E-09
40	4.10144E-09
50	3.6833E-09
60	3.37738E-09
70	3.11535E-09
80	2.91698E-09
90	2.75531E-09
100	2.6176E-09
110	2.49852E-09
120	2.3944E-09
130	2.30236E-09
140	2.21985E-09
150	2.14579E-09
160	2.07853E-09
170	2.01886E-09
180	1.96372E-09
190	1.90924E-09
200	1.85868E-09
210	1.81102E-09
220	1.76572E-09
230	1.72186E-09
240	1.67642E-09
250	1.63684E-09
260	1.60405E-09
270	1.58245E-09
280	1.57277E-09
290	1.5689E-09
300	1.5668E-09
310	1.56541E-09
320	1.56444E-09
330	1.56361E-09
340	1.56296E-09
350	1.56236E-09
360	1.56188E-09
370	1.56149E-09
380	1.5611E-09
390	1.56069E-09
400	1.56042E-09
	
#End of manufacturer data file		
