#Measurement file	
#project	CMS tracker
#Sensor Type	PSS
#ID	34342_008_PSS_MAINR
#Scratch PAD	|0000|0000|0000|0000|0000|1000|
#Operator	HPK
#Date	28-Sep-20
#Ingot No.	2984038-504
#Bad strips	0
#AC NG	none
#AC open	none
#AC short	none
#DC high	none
#DC low	none
#DC leaky	none
#Polysilicon Bias Resistance Upper [Mohm]	1.81 
#Polysilicon Bias Resistance Lower [Mohm]	1.60 
#Polysilicon Bias Resistance Average [Mohm]	1.70 
#Depletion voltage [V]	280
#temperature [deg]	25
#humidity [%]	50
	
voltage [V]	current [A]
0	5.697E-09
20	7.072E-08
40	7.46E-08
60	7.692E-08
80	7.855E-08
100	7.974E-08
120	8.099E-08
140	8.175E-08
160	7.868E-08
180	7.794E-08
200	7.827E-08
220	7.889E-08
240	8.023E-08
260	8.228E-08
280	8.385E-08
300	8.483E-08
320	8.56E-08
340	8.627E-08
360	8.689E-08
380	8.746E-08
400	8.801E-08
420	8.854E-08
440	8.905E-08
460	8.954E-08
480	9.003E-08
500	9.051E-08
520	9.098E-08
540	9.144E-08
560	9.19E-08
580	9.236E-08
600	9.282E-08
620	9.327E-08
640	9.372E-08
660	9.418E-08
680	9.464E-08
700	9.51E-08
720	9.556E-08
740	9.603E-08
760	9.65E-08
780	9.698E-08
800	9.746E-08
820	9.796E-08
840	9.846E-08
860	9.897E-08
880	9.947E-08
900	1.0005E-07
920	1.006E-07
940	1.0115E-07
960	1.0465E-07
980	1.2241E-07
1000	1.5508E-07
	
voltage [V]	capacitance [F]
0	6.14504E-08
10	8.16832E-09
20	5.6166E-09
30	4.6954E-09
40	4.10615E-09
50	3.68816E-09
60	3.37974E-09
70	3.13836E-09
80	2.9189E-09
90	2.75654E-09
100	2.61861E-09
110	2.49938E-09
120	2.39512E-09
130	2.30299E-09
140	2.22031E-09
150	2.14624E-09
160	2.07894E-09
170	2.01855E-09
180	1.96394E-09
190	1.90953E-09
200	1.85887E-09
210	1.81129E-09
220	1.7661E-09
230	1.7225E-09
240	1.67796E-09
250	1.63812E-09
260	1.60502E-09
270	1.58304E-09
280	1.57311E-09
290	1.56906E-09
300	1.56697E-09
310	1.56558E-09
320	1.56459E-09
330	1.56378E-09
340	1.56309E-09
350	1.56256E-09
360	1.56207E-09
370	1.56161E-09
380	1.56123E-09
390	1.56086E-09
400	1.56051E-09
	
#End of manufacturer data file		
