Wafer Name:,VICUNHH

position,ID,result
1,6201, FAIL
2,6202, FAIL
3,6203,pass
4,6204,pass
5,6205,pass
6,6206, FAIL
7,6207, FAIL
8,6208, FAIL
9,6209, FAIL
10,6210,pass
11,6211,pass
12,6212, FAIL
13,6213, FAIL
14,6214, FAIL
15,6215, FAIL
16,6216, FAIL
17,6217,pass
18,6218,pass
19,6219,pass
20,6220,pass
21,6221,pass
22,6222,pass
23,6223, FAIL
24,6224, FAIL
25,6225,pass
26,6226, FAIL
27,6227, FAIL
28,6228,pass
29,6229,pass
30,6230,pass
31,6231,pass
32,6232,pass
33,6233,pass
34,6234, FAIL
35,6235,pass
36,6236, FAIL
37,6237,pass
38,6238,pass
39,6239,pass
40,6240,pass
41,6241, FAIL
42,6242,pass
43,6243,pass
44,6244,pass
45,6245,pass
46,6246, FAIL
47,6247,pass
48,6248,pass
49,6249, FAIL
50,6250,pass
51,6251, FAIL
52,6252,pass
53,6253,pass
54,6254,pass
55,6255, FAIL
56,6256, FAIL
57,6257, FAIL
58,6258,pass
59,6259,pass
60,6260,pass
61,6261,pass
62,6262,pass
63,6263, FAIL
64,6264, FAIL
65,6265,pass
66,6266,pass
67,6267, FAIL
68,6268,pass
69,6269,pass
70,6270,pass
71,6271, FAIL
72,6272,pass
73,6273,pass
74,6274,pass
75,6275, FAIL
76,6276,pass
77,6277, FAIL
78,6278, FAIL
79,6279,pass
80,6280,pass
81,6281,pass
82,6282,pass
83,6283, FAIL
84,6284,pass
85,6285,pass
86,6286, FAIL
87,6287, FAIL
88,6288,pass
89,6289,pass
90,6290,pass
91,6291,pass
92,6292,pass
93,6293, FAIL
94,6294, FAIL
95,6295,pass
96,6296,pass
97,6297,pass
98,6298,pass
99,6299,pass
100,6300,pass
101,6301,pass
102,6302,pass
103,6303,pass
104,6304,pass
105,6305,pass
106,6306,pass
107,6307,pass
108,6308, FAIL
109,6309,pass
110,6310,pass
111,6311, FAIL
112,6312,pass
113,6313,pass
114,6314, FAIL
115,6315,pass
116,6316,pass
117,6317,pass
118,6318,pass
119,6319,pass
120,6320,pass
121,6321,pass
122,6322,pass
123,6323,pass
124,6324,pass
125,6325, FAIL
126,6326,pass
127,6327,pass
128,6328,pass
129,6329,pass
130,6330,pass
131,6331,pass
132,6332,pass
133,6333,pass
134,6334,pass
135,6335,pass
136,6336,pass
137,6337,pass
138,6338,pass
139,6339,pass
140,6340,pass
141,6341,pass
142,6342,pass
143,6343,pass
144,6344,pass
145,6345,pass
146,6346,pass
147,6347,pass
148,6348,pass
149,6349,pass
150,6350,pass
151,6351,pass
152,6352,pass
153,6353,pass
154,6354,pass
155,6355,pass
156,6356,pass
157,6357,pass
158,6358,pass
159,6359,pass
160,6360,pass
161,6361,pass
162,6362,pass
163,6363,pass
164,6364,pass
165,6365,pass
166,6366,pass
167,6367,pass
168,6368,pass
169,6369,pass
170,6370,pass
171,6371,pass
172,6372,pass
173,6373,pass
174,6374,pass
175,6375, FAIL
176,6376,pass
177,6377,pass
178,6378,pass
179,6379,pass
180,6380, FAIL
181,6381,pass
182,6382,pass
183,6383,pass
184,6384,pass
185,6385,pass
186,6386,pass
