Wafer Name:,VJCUMZH

position,ID,result
1,6401,pass
2,6402,pass
3,6403, FAIL
4,6404,pass
5,6405,pass
6,6406,pass
7,6407,pass
8,6408,pass
9,6409,pass
10,6410, FAIL
11,6411,pass
12,6412, FAIL
13,6413, FAIL
14,6414,pass
15,6415,pass
16,6416,pass
17,6417,pass
18,6418,pass
19,6419,pass
20,6420,pass
21,6421, FAIL
22,6422,pass
23,6423,pass
24,6424,pass
25,6425,pass
26,6426,pass
27,6427,pass
28,6428,pass
29,6429,pass
30,6430,pass
31,6431,pass
32,6432,pass
33,6433,pass
34,6434, FAIL
35,6435, FAIL
36,6436,pass
37,6437, FAIL
38,6438,pass
39,6439,pass
40,6440,pass
41,6441, FAIL
42,6442, FAIL
43,6443,pass
44,6444,pass
45,6445,pass
46,6446,pass
47,6447,pass
48,6448,pass
49,6449, FAIL
50,6450,pass
51,6451, FAIL
52,6452, FAIL
53,6453, FAIL
54,6454,pass
55,6455, FAIL
56,6456, FAIL
57,6457, FAIL
58,6458,pass
59,6459,pass
60,6460, FAIL
61,6461,pass
62,6462,pass
63,6463, FAIL
64,6464,pass
65,6465,pass
66,6466,pass
67,6467,pass
68,6468, FAIL
69,6469, FAIL
70,6470, FAIL
71,6471, FAIL
72,6472, FAIL
73,6473,pass
74,6474,pass
75,6475,pass
76,6476,pass
77,6477,pass
78,6478, FAIL
79,6479, FAIL
80,6480,pass
81,6481,pass
82,6482, FAIL
83,6483, FAIL
84,6484, FAIL
85,6485,pass
86,6486,pass
87,6487, FAIL
88,6488,pass
89,6489,pass
90,6490,pass
91,6491,pass
92,6492, FAIL
93,6493, FAIL
94,6494, FAIL
95,6495, FAIL
96,6496,pass
97,6497,pass
98,6498, FAIL
99,6499, FAIL
100,6500,pass
101,6501,pass
102,6502,pass
103,6503,pass
104,6504,pass
105,6505, FAIL
106,6506,pass
107,6507, FAIL
108,6508, FAIL
109,6509,pass
110,6510,pass
111,6511,pass
112,6512,pass
113,6513, FAIL
114,6514, FAIL
115,6515, FAIL
116,6516,pass
117,6517, FAIL
118,6518,pass
119,6519,pass
120,6520,pass
121,6521, FAIL
122,6522,pass
123,6523,pass
124,6524,pass
125,6525,pass
126,6526,pass
127,6527,pass
128,6528,pass
129,6529, FAIL
130,6530, FAIL
131,6531,pass
132,6532,pass
133,6533, FAIL
134,6534,pass
135,6535,pass
136,6536,pass
137,6537,pass
138,6538,pass
139,6539,pass
140,6540, FAIL
141,6541,pass
142,6542,pass
143,6543,pass
144,6544,pass
145,6545,pass
146,6546,pass
147,6547,pass
148,6548,pass
149,6549,pass
150,6550,pass
151,6551,pass
152,6552,pass
153,6553,pass
154,6554,pass
155,6555,pass
156,6556,pass
157,6557, FAIL
158,6558,pass
159,6559,pass
160,6560,pass
161,6561,pass
162,6562,pass
163,6563,pass
164,6564,pass
165,6565,pass
166,6566,pass
167,6567,pass
168,6568,pass
169,6569,pass
170,6570,pass
171,6571,pass
172,6572,pass
173,6573, FAIL
174,6574,pass
175,6575,pass
176,6576,pass
177,6577,pass
178,6578,pass
179,6579,pass
180,6580,pass
181,6581,pass
182,6582, FAIL
183,6583, FAIL
184,6584,pass
185,6585,pass
186,6586,pass
