Wafer Name:,VMCURUH

position,ID,result
1,6601,pass
2,6602,pass
3,6603,pass
4,6604,pass
5,6605,pass
6,6606,pass
7,6607,pass
8,6608,pass
9,6609,pass
10,6610,pass
11,6611,pass
12,6612, FAIL
13,6613,pass
14,6614,pass
15,6615,pass
16,6616, FAIL
17,6617,pass
18,6618,pass
19,6619,pass
20,6620,pass
21,6621,pass
22,6622,pass
23,6623, FAIL
24,6624,pass
25,6625,pass
26,6626,pass
27,6627,pass
28,6628,pass
29,6629,pass
30,6630,pass
31,6631,pass
32,6632,pass
33,6633,pass
34,6634, FAIL
35,6635,pass
36,6636,pass
37,6637,pass
38,6638,pass
39,6639,pass
40,6640,pass
41,6641,pass
42,6642,pass
43,6643, FAIL
44,6644,pass
45,6645,pass
46,6646,pass
47,6647,pass
48,6648,pass
49,6649,pass
50,6650,pass
51,6651, FAIL
52,6652, FAIL
53,6653,pass
54,6654, FAIL
55,6655,pass
56,6656, FAIL
57,6657, FAIL
58,6658,pass
59,6659,pass
60,6660,pass
61,6661,pass
62,6662,pass
63,6663, FAIL
64,6664, FAIL
65,6665, FAIL
66,6666,pass
67,6667,pass
68,6668,pass
69,6669,pass
70,6670,pass
71,6671,pass
72,6672,pass
73,6673,pass
74,6674,pass
75,6675,pass
76,6676, FAIL
77,6677, FAIL
78,6678, FAIL
79,6679,pass
80,6680,pass
81,6681,pass
82,6682,pass
83,6683,pass
84,6684,pass
85,6685,pass
86,6686,pass
87,6687,pass
88,6688,pass
89,6689,pass
90,6690,pass
91,6691,pass
92,6692,pass
93,6693, FAIL
94,6694, FAIL
95,6695,pass
96,6696,pass
97,6697,pass
98,6698,pass
99,6699,pass
100,6700,pass
101,6701,pass
102,6702, FAIL
103,6703,pass
104,6704,pass
105,6705,pass
106,6706,pass
107,6707,pass
108,6708, FAIL
109,6709,pass
110,6710,pass
111,6711,pass
112,6712,pass
113,6713,pass
114,6714,pass
115,6715,pass
116,6716,pass
117,6717,pass
118,6718,pass
119,6719,pass
120,6720,pass
121,6721,pass
122,6722,pass
123,6723,pass
124,6724,pass
125,6725, FAIL
126,6726,pass
127,6727,pass
128,6728,pass
129,6729,pass
130,6730,pass
131,6731, FAIL
132,6732,pass
133,6733,pass
134,6734,pass
135,6735,pass
136,6736,pass
137,6737,pass
138,6738,pass
139,6739,pass
140,6740,pass
141,6741,pass
142,6742,pass
143,6743,pass
144,6744,pass
145,6745,pass
146,6746,pass
147,6747,pass
148,6748,pass
149,6749, FAIL
150,6750,pass
151,6751,pass
152,6752,pass
153,6753,pass
154,6754,pass
155,6755,pass
156,6756,pass
157,6757,pass
158,6758,pass
159,6759,pass
160,6760,pass
161,6761,pass
162,6762,pass
163,6763, FAIL
164,6764, FAIL
165,6765,pass
166,6766,pass
167,6767,pass
168,6768,pass
169,6769, FAIL
170,6770,pass
171,6771,pass
172,6772, FAIL
173,6773,pass
174,6774,pass
175,6775,pass
176,6776,pass
177,6777,pass
178,6778,pass
179,6779,pass
180,6780,pass
181,6781,pass
182,6782,pass
183,6783,pass
184,6784,pass
185,6785,pass
186,6786,pass
