Wafer Name:,VVCUPMH

position,ID,result
1,8401,pass
2,8402,pass
3,8403,pass
4,8404,pass
5,8405,pass
6,8406, FAIL
7,8407,pass
8,8408,pass
9,8409,pass
10,8410, FAIL
11,8411,pass
12,8412, FAIL
13,8413, FAIL
14,8414,pass
15,8415,pass
16,8416,pass
17,8417,pass
18,8418,pass
19,8419,pass
20,8420,pass
21,8421,pass
22,8422,pass
23,8423, FAIL
24,8424, FAIL
25,8425,pass
26,8426,pass
27,8427,pass
28,8428,pass
29,8429,pass
30,8430,pass
31,8431,pass
32,8432,pass
33,8433,pass
34,8434, FAIL
35,8435,pass
36,8436,pass
37,8437,pass
38,8438,pass
39,8439,pass
40,8440,pass
41,8441, FAIL
42,8442,pass
43,8443,pass
44,8444,pass
45,8445,pass
46,8446, FAIL
47,8447,pass
48,8448,pass
49,8449, FAIL
50,8450, FAIL
51,8451,pass
52,8452,pass
53,8453, FAIL
54,8454, FAIL
55,8455,pass
56,8456,pass
57,8457,pass
58,8458,pass
59,8459,pass
60,8460,pass
61,8461, FAIL
62,8462,pass
63,8463, FAIL
64,8464, FAIL
65,8465,pass
66,8466,pass
67,8467,pass
68,8468,pass
69,8469,pass
70,8470,pass
71,8471,pass
72,8472,pass
73,8473,pass
74,8474,pass
75,8475,pass
76,8476,pass
77,8477,pass
78,8478, FAIL
79,8479,pass
80,8480,pass
81,8481,pass
82,8482,pass
83,8483,pass
84,8484,pass
85,8485,pass
86,8486, FAIL
87,8487,pass
88,8488,pass
89,8489, FAIL
90,8490,pass
91,8491,pass
92,8492,pass
93,8493, FAIL
94,8494,pass
95,8495,pass
96,8496,pass
97,8497, FAIL
98,8498,pass
99,8499,pass
100,8500,pass
101,8501,pass
102,8502,pass
103,8503,pass
104,8504,pass
105,8505,pass
106,8506,pass
107,8507,pass
108,8508, FAIL
109,8509,pass
110,8510, FAIL
111,8511,pass
112,8512,pass
113,8513,pass
114,8514,pass
115,8515,pass
116,8516,pass
117,8517,pass
118,8518, FAIL
119,8519, FAIL
120,8520,pass
121,8521,pass
122,8522,pass
123,8523, FAIL
124,8524,pass
125,8525, FAIL
126,8526,pass
127,8527,pass
128,8528,pass
129,8529,pass
130,8530,pass
131,8531,pass
132,8532,pass
133,8533,pass
134,8534,pass
135,8535,pass
136,8536,pass
137,8537, FAIL
138,8538, FAIL
139,8539,pass
140,8540,pass
141,8541,pass
142,8542,pass
143,8543,pass
144,8544,pass
145,8545,pass
146,8546,pass
147,8547,pass
148,8548,pass
149,8549,pass
150,8550,pass
151,8551,pass
152,8552,pass
153,8553,pass
154,8554,pass
155,8555,pass
156,8556,pass
157,8557, FAIL
158,8558,pass
159,8559,pass
160,8560,pass
161,8561,pass
162,8562,pass
163,8563,pass
164,8564,pass
165,8565,pass
166,8566, FAIL
167,8567,pass
168,8568,pass
169,8569,pass
170,8570,pass
171,8571, FAIL
172,8572, FAIL
173,8573,pass
174,8574,pass
175,8575,pass
176,8576,pass
177,8577,pass
178,8578,pass
179,8579,pass
180,8580,pass
181,8581, FAIL
182,8582,pass
183,8583,pass
184,8584,pass
185,8585,pass
186,8586,pass
