Wafer Name:,VWCUPLH

position,ID,result
1,8601,pass
2,8602,pass
3,8603,pass
4,8604,pass
5,8605,pass
6,8606, FAIL
7,8607,pass
8,8608,pass
9,8609,pass
10,8610,pass
11,8611,pass
12,8612, FAIL
13,8613,pass
14,8614,pass
15,8615,pass
16,8616,pass
17,8617,pass
18,8618,pass
19,8619,pass
20,8620,pass
21,8621,pass
22,8622,pass
23,8623, FAIL
24,8624,pass
25,8625,pass
26,8626,pass
27,8627,pass
28,8628, FAIL
29,8629,pass
30,8630,pass
31,8631,pass
32,8632,pass
33,8633,pass
34,8634,pass
35,8635,pass
36,8636,pass
37,8637,pass
38,8638,pass
39,8639,pass
40,8640,pass
41,8641,pass
42,8642,pass
43,8643, FAIL
44,8644,pass
45,8645,pass
46,8646,pass
47,8647,pass
48,8648,pass
49,8649,pass
50,8650, FAIL
51,8651, FAIL
52,8652,pass
53,8653,pass
54,8654,pass
55,8655, FAIL
56,8656,pass
57,8657,pass
58,8658,pass
59,8659,pass
60,8660,pass
61,8661,pass
62,8662,pass
63,8663, FAIL
64,8664,pass
65,8665,pass
66,8666,pass
67,8667,pass
68,8668,pass
69,8669,pass
70,8670,pass
71,8671, FAIL
72,8672,pass
73,8673,pass
74,8674,pass
75,8675,pass
76,8676,pass
77,8677,pass
78,8678, FAIL
79,8679, FAIL
80,8680, FAIL
81,8681,pass
82,8682,pass
83,8683, FAIL
84,8684, FAIL
85,8685, FAIL
86,8686,pass
87,8687, FAIL
88,8688,pass
89,8689,pass
90,8690,pass
91,8691,pass
92,8692,pass
93,8693, FAIL
94,8694, FAIL
95,8695,pass
96,8696,pass
97,8697,pass
98,8698,pass
99,8699, FAIL
100,8700, FAIL
101,8701,pass
102,8702,pass
103,8703,pass
104,8704,pass
105,8705,pass
106,8706, FAIL
107,8707,pass
108,8708, FAIL
109,8709, FAIL
110,8710, FAIL
111,8711,pass
112,8712,pass
113,8713,pass
114,8714, FAIL
115,8715, FAIL
116,8716,pass
117,8717,pass
118,8718, FAIL
119,8719,pass
120,8720,pass
121,8721, FAIL
122,8722,pass
123,8723,pass
124,8724,pass
125,8725, FAIL
126,8726,pass
127,8727,pass
128,8728,pass
129,8729,pass
130,8730, FAIL
131,8731,pass
132,8732,pass
133,8733,pass
134,8734,pass
135,8735,pass
136,8736,pass
137,8737,pass
138,8738, FAIL
139,8739,pass
140,8740,pass
141,8741,pass
142,8742,pass
143,8743,pass
144,8744,pass
145,8745,pass
146,8746,pass
147,8747,pass
148,8748,pass
149,8749,pass
150,8750, FAIL
151,8751,pass
152,8752, FAIL
153,8753,pass
154,8754, FAIL
155,8755,pass
156,8756,pass
157,8757,pass
158,8758,pass
159,8759,pass
160,8760,pass
161,8761,pass
162,8762,pass
163,8763,pass
164,8764,pass
165,8765,pass
166,8766,pass
167,8767,pass
168,8768,pass
169,8769,pass
170,8770,pass
171,8771,pass
172,8772,pass
173,8773,pass
174,8774,pass
175,8775,pass
176,8776,pass
177,8777,pass
178,8778,pass
179,8779,pass
180,8780,pass
181,8781,pass
182,8782, FAIL
183,8783,pass
184,8784,pass
185,8785,pass
186,8786,pass
