Wafer Name:,VZCURHH

position,ID,result
1,9801,pass
2,9802,pass
3,9803,pass
4,9804,pass
5,9805,pass
6,9806, FAIL
7,9807, FAIL
8,9808,pass
9,9809,pass
10,9810,pass
11,9811,pass
12,9812, FAIL
13,9813, FAIL
14,9814,pass
15,9815,pass
16,9816, FAIL
17,9817,pass
18,9818, FAIL
19,9819, FAIL
20,9820,pass
21,9821,pass
22,9822,pass
23,9823, FAIL
24,9824,pass
25,9825, FAIL
26,9826,pass
27,9827,pass
28,9828, FAIL
29,9829,pass
30,9830,pass
31,9831,pass
32,9832,pass
33,9833,pass
34,9834, FAIL
35,9835, FAIL
36,9836,pass
37,9837, FAIL
38,9838,pass
39,9839,pass
40,9840,pass
41,9841,pass
42,9842,pass
43,9843,pass
44,9844,pass
45,9845,pass
46,9846,pass
47,9847,pass
48,9848,pass
49,9849,pass
50,9850,pass
51,9851, FAIL
52,9852,pass
53,9853, FAIL
54,9854,pass
55,9855, FAIL
56,9856, FAIL
57,9857, FAIL
58,9858,pass
59,9859,pass
60,9860,pass
61,9861,pass
62,9862,pass
63,9863, FAIL
64,9864, FAIL
65,9865, FAIL
66,9866, FAIL
67,9867,pass
68,9868, FAIL
69,9869,pass
70,9870,pass
71,9871, FAIL
72,9872, FAIL
73,9873,pass
74,9874,pass
75,9875,pass
76,9876, FAIL
77,9877, FAIL
78,9878, FAIL
79,9879, FAIL
80,9880, FAIL
81,9881,pass
82,9882,pass
83,9883, FAIL
84,9884,pass
85,9885, FAIL
86,9886, FAIL
87,9887, FAIL
88,9888,pass
89,9889,pass
90,9890,pass
91,9891, FAIL
92,9892, FAIL
93,9893, FAIL
94,9894,pass
95,9895, FAIL
96,9896, FAIL
97,9897,pass
98,9898, FAIL
99,9899,pass
100,9900, FAIL
101,9901, FAIL
102,9902,pass
103,9903,pass
104,9904,pass
105,9905,pass
106,9906, FAIL
107,9907,pass
108,9908, FAIL
109,9909,pass
110,9910, FAIL
111,9911,pass
112,9912,pass
113,9913, FAIL
114,9914,pass
115,9915,pass
116,9916, FAIL
117,9917,pass
118,9918,pass
119,9919,pass
120,9920,pass
121,9921,pass
122,9922,pass
123,9923,pass
124,9924,pass
125,9925, FAIL
126,9926,pass
127,9927,pass
128,9928,pass
129,9929,pass
130,9930,pass
131,9931,pass
132,9932,pass
133,9933,pass
134,9934,pass
135,9935,pass
136,9936,pass
137,9937,pass
138,9938,pass
139,9939,pass
140,9940, FAIL
141,9941,pass
142,9942, FAIL
143,9943,pass
144,9944, FAIL
145,9945,pass
146,9946,pass
147,9947,pass
148,9948,pass
149,9949, FAIL
150,9950, FAIL
151,9951,pass
152,9952,pass
153,9953,pass
154,9954,pass
155,9955,pass
156,9956,pass
157,9957,pass
158,9958,pass
159,9959,pass
160,9960, FAIL
161,9961,pass
162,9962,pass
163,9963,pass
164,9964,pass
165,9965,pass
166,9966,pass
167,9967,pass
168,9968, FAIL
169,9969, FAIL
170,9970,pass
171,9971, FAIL
172,9972,pass
173,9973,pass
174,9974,pass
175,9975,pass
176,9976, FAIL
177,9977, FAIL
178,9978,pass
179,9979,pass
180,9980,pass
181,9981,pass
182,9982,pass
183,9983,pass
184,9984,pass
185,9985,pass
186,9986,pass
