Wafer Name:,VZCUN1H

position,ID,result
1,9401, FAIL
2,9402,pass
3,9403,pass
4,9404,pass
5,9405,pass
6,9406, FAIL
7,9407, FAIL
8,9408,pass
9,9409,pass
10,9410,pass
11,9411, FAIL
12,9412, FAIL
13,9413, FAIL
14,9414,pass
15,9415,pass
16,9416,pass
17,9417, FAIL
18,9418,pass
19,9419,pass
20,9420,pass
21,9421,pass
22,9422,pass
23,9423, FAIL
24,9424, FAIL
25,9425,pass
26,9426, FAIL
27,9427,pass
28,9428,pass
29,9429,pass
30,9430, FAIL
31,9431,pass
32,9432,pass
33,9433, FAIL
34,9434, FAIL
35,9435, FAIL
36,9436,pass
37,9437,pass
38,9438,pass
39,9439,pass
40,9440,pass
41,9441,pass
42,9442,pass
43,9443,pass
44,9444,pass
45,9445,pass
46,9446,pass
47,9447,pass
48,9448,pass
49,9449, FAIL
50,9450, FAIL
51,9451,pass
52,9452,pass
53,9453,pass
54,9454,pass
55,9455,pass
56,9456, FAIL
57,9457,pass
58,9458,pass
59,9459,pass
60,9460,pass
61,9461,pass
62,9462, FAIL
63,9463, FAIL
64,9464,pass
65,9465,pass
66,9466,pass
67,9467,pass
68,9468,pass
69,9469,pass
70,9470,pass
71,9471, FAIL
72,9472,pass
73,9473,pass
74,9474,pass
75,9475,pass
76,9476, FAIL
77,9477, FAIL
78,9478, FAIL
79,9479, FAIL
80,9480, FAIL
81,9481,pass
82,9482,pass
83,9483,pass
84,9484, FAIL
85,9485, FAIL
86,9486,pass
87,9487,pass
88,9488,pass
89,9489,pass
90,9490,pass
91,9491, FAIL
92,9492, FAIL
93,9493, FAIL
94,9494, FAIL
95,9495,pass
96,9496,pass
97,9497,pass
98,9498,pass
99,9499, FAIL
100,9500, FAIL
101,9501, FAIL
102,9502,pass
103,9503,pass
104,9504,pass
105,9505, FAIL
106,9506, FAIL
107,9507, FAIL
108,9508, FAIL
109,9509, FAIL
110,9510, FAIL
111,9511,pass
112,9512, FAIL
113,9513,pass
114,9514, FAIL
115,9515, FAIL
116,9516,pass
117,9517,pass
118,9518,pass
119,9519, FAIL
120,9520, FAIL
121,9521, FAIL
122,9522, FAIL
123,9523, FAIL
124,9524,pass
125,9525,pass
126,9526, FAIL
127,9527,pass
128,9528,pass
129,9529,pass
130,9530,pass
131,9531,pass
132,9532,pass
133,9533, FAIL
134,9534, FAIL
135,9535, FAIL
136,9536, FAIL
137,9537,pass
138,9538, FAIL
139,9539, FAIL
140,9540,pass
141,9541,pass
142,9542,pass
143,9543,pass
144,9544,pass
145,9545, FAIL
146,9546, FAIL
147,9547,pass
148,9548, FAIL
149,9549, FAIL
150,9550, FAIL
151,9551,pass
152,9552,pass
153,9553,pass
154,9554,pass
155,9555,pass
156,9556,pass
157,9557, FAIL
158,9558, FAIL
159,9559, FAIL
160,9560, FAIL
161,9561,pass
162,9562,pass
163,9563,pass
164,9564,pass
165,9565,pass
166,9566,pass
167,9567, FAIL
168,9568, FAIL
169,9569, FAIL
170,9570,pass
171,9571, FAIL
172,9572, FAIL
173,9573,pass
174,9574,pass
175,9575,pass
176,9576, FAIL
177,9577, FAIL
178,9578, FAIL
179,9579, FAIL
180,9580, FAIL
181,9581, FAIL
182,9582, FAIL
183,9583, FAIL
184,9584, FAIL
185,9585,pass
186,9586, FAIL
