#SerialNumber,1010473113
#Date,2024-01-24 15:53:00
#Comment,abc
#Location,Fermilab
#Inserter,Stefan Maier
#RunType,dee_modIntegration

SENSOR_TEMP_TEST;SENSOR_TEMP_DEGC;OPTIC_TXM_TEST;OPTIC_TXM_T;OPTIC_TXM_V;OPTIC_TXM_X;OPTIC_TXM_TX;OPTIC_TXM_RX;CH_DEAD_TEST;CH_DEAD
PASS;0.1;PASS;0.1;0.2;0.3;0.4;0.5;FAIL;[1,2,3]