%CMSwaferCode:CMSchipCode:ChipColumn:ChipRow:Grading:Color:CutVersion:Status:Location:ChipBoardType:BoardNumber:Dose:Sensor:ProbingSite:Iref:IrefTrim:Vref_A:Vref_A_Trim:Vref_D:Vref_D_Trim:Vref_ADC:Vref_ADC_Trim:MON_ADC_Trim:VCAL_HIGH_slope:VCAL_HIGH_offset:VCAL_MED_slope:VCAL_MED_offset:TrefTsensors:Nf1:Nf2:Nf3:Nf4:RD53chipID:Comment:BoardComment:
TSMC_N2WX39-08B5:TSMC_N2WX39-08B5_7_12:7:12:1:yellow:4:1:CERN:0:0:0:none:CERN:4.011456e-06:5:1.207258:26:1.197463:15:0.9031895:8:0:2.104E-04:1.400E-02:2.119E-04:1.369E-02:0:0:0:0:0:577C:Probed at CERN, Iref = 4.011456e-06 with trim bits 5:No loaded to any board yet
TSMC_N2WX39-08B5:TSMC_N2WX39-08B5_6_12:6:12:1:yellow:4:1:CERN:0:0:0:none:CERN:4.014593e-06:7:1.207673:20:1.203002:15:0.9034508:10:0:2.071E-04:2.495E-02:2.087E-04:2.449E-02:0:0:0:0:0:576C:Probed at CERN, Iref = 4.014593e-06 with trim bits 7:No loaded to any board yet
TSMC_N2WX39-08B5:TSMC_N2WX39-08B5_5_12:5:12:1:yellow:4:1:CERN:0:0:0:none:CERN:3.974499e-06:8:1.193668:23:1.194352:21:0.9017981:10:0:2.082E-04:2.115E-02:2.097E-04:2.092E-02:0:0:0:0:0:575C:Probed at CERN, Iref = 3.974499e-06 with trim bits 8:No loaded to any board yet
TSMC_N2WX39-08B5:TSMC_N2WX39-08B5_4_12:4:12:2:green:4:2:CERN:0:0:0:none:CERN:3.962024e-06:7:1.20613:22:1.201922:15:0.8987064:7:0:2.083E-04:1.856E-02:2.097E-04:1.811E-02:0:0:0:0:0:574C:Probed at CERN, Iref = 3.962024e-06 with trim bits 7:No loaded to any board yet
TSMC_N2WX39-08B5:TSMC_N2WX39-08B5_3_11:3:11:2:green:4:2:CERN:0:0:0:none:CERN:3.982337e-06:9:1.203645:24:1.202807:18:0.8994416:8:0:2.084E-04:1.608E-02:2.099E-04:1.556E-02:0:0:0:0:0:573B:Probed at CERN, Iref = 3.982337e-06 with trim bits 9:No loaded to any board yet
TSMC_N2WX39-08B5:TSMC_N2WX39-08B5_4_11:4:11:2:green:4:2:CERN:0:0:0:none:CERN:3.955474e-06:9:1.204658:22:1.201288:20:0.9010597:12:0:2.091E-04:1.539E-02:2.106E-04:1.501E-02:0:0:0:0:0:574B:Probed at CERN, Iref = 3.955474e-06 with trim bits 9:No loaded to any board yet
TSMC_N2WX39-08B5:TSMC_N2WX39-08B5_5_11:5:11:1:yellow:4:1:CERN:0:0:0:none:CERN:3.947009e-06:9:1.199748:27:1.199092:20:0.901153:8:0:2.083E-04:1.747E-02:2.098E-04:1.709E-02:0:0:0:0:0:575B:Probed at CERN, Iref = 3.947009e-06 with trim bits 9:No loaded to any board yet
TSMC_N2WX39-08B5:TSMC_N2WX39-08B5_6_11:6:11:2:green:4:2:CERN:0:0:0:none:CERN:3.953555e-06:6:1.196657:21:1.207006:20:0.8987464:9:0:2.080E-04:1.642E-02:2.095E-04:1.610E-02:0:0:0:0:0:576B:Probed at CERN, Iref = 3.953555e-06 with trim bits 6:No loaded to any board yet
TSMC_N2WX39-08B5:TSMC_N2WX39-08B5_7_11:7:11:1:yellow:4:1:CERN:0:0:0:none:CERN:3.987848e-06:7:1.203733:20:1.206859:16:0.8991082:10:0:2.087E-04:1.557E-02:2.102E-04:1.520E-02:0:0:0:0:0:577B:Probed at CERN, Iref = 3.987848e-06 with trim bits 7:No loaded to any board yet
TSMC_N2WX39-08B5:TSMC_N2WX39-08B5_8_11:8:11:1:yellow:4:1:CERN:0:0:0:none:CERN:4.007874e-06:9:1.199732:23:1.197295:22:0.900377:10:0:2.091E-04:1.414E-02:2.107E-04:1.369E-02:0:0:0:0:0:578B:Probed at CERN, Iref = 4.007874e-06 with trim bits 9:No loaded to any board yet
TSMC_N2WX39-08B5:TSMC_N2WX39-08B5_9_10:9:10:1:yellow:4:1:CERN:0:0:0:none:CERN:3.974446e-06:10:1.196575:26:1.205978:16:0.8990964:10:0:2.091E-04:1.323E-02:2.106E-04:1.276E-02:0:0:0:0:0:579A:Probed at CERN, Iref = 3.974446e-06 with trim bits 10:No loaded to any board yet
TSMC_N2WX39-08B5:TSMC_N2WX39-08B5_8_10:8:10:2:green:4:2:CERN:0:0:0:none:CERN:4.048482e-06:8:1.196522:22:1.199454:15:0.8965769:11:0:2.089E-04:1.325E-02:2.106E-04:1.275E-02:0:0:0:0:0:578A:Probed at CERN, Iref = 4.048482e-06 with trim bits 8:No loaded to any board yet
TSMC_N2WX39-08B5:TSMC_N2WX39-08B5_7_10:7:10:1:yellow:4:1:CERN:0:0:0:none:CERN:4.047865e-06:10:1.188656:23:1.197218:17:0.8982221:11:0:2.082E-04:1.455E-02:2.097E-04:1.415E-02:0:0:0:0:0:577A:Probed at CERN, Iref = 4.047865e-06 with trim bits 10:No loaded to any board yet
TSMC_N2WX39-08B5:TSMC_N2WX39-08B5_6_10:6:10:2:green:4:2:CERN:0:0:0:none:CERN:4.054009e-06:7:1.205559:24:1.203658:16:0.8961211:11:0:2.079E-04:1.480E-02:2.092E-04:1.440E-02:0:0:0:0:0:576A:Probed at CERN, Iref = 4.054009e-06 with trim bits 7:No loaded to any board yet
TSMC_N2WX39-08B5:TSMC_N2WX39-08B5_5_10:5:10:1:yellow:4:1:CERN:0:0:0:none:CERN:3.986212e-06:9:1.201396:21:1.205027:16:0.8980585:8:0:2.083E-04:1.446E-02:2.097E-04:1.401E-02:0:0:0:0:0:575A:Probed at CERN, Iref = 3.986212e-06 with trim bits 9:No loaded to any board yet
TSMC_N2WX39-08B5:TSMC_N2WX39-08B5_4_10:4:10:2:green:4:2:CERN:0:0:0:none:CERN:4.030043e-06:8:1.198429:27:1.199302:19:0.9007015:11:0:2.092E-04:1.315E-02:2.107E-04:1.278E-02:0:0:0:0:0:574A:Probed at CERN, Iref = 4.030043e-06 with trim bits 8:No loaded to any board yet
TSMC_N2WX39-08B5:TSMC_N2WX39-08B5_3_10:3:10:1:yellow:4:1:CERN:0:0:0:none:CERN:3.944894e-06:8:1.192446:29:1.20104:22:0.8946398:11:0:2.080E-04:1.299E-02:2.096E-04:1.255E-02:0:0:0:0:0:573A:Probed at CERN, Iref = 3.944894e-06 with trim bits 8:No loaded to any board yet
TSMC_N2WX39-08B5:TSMC_N2WX39-08B5_2_10:2:10:1:yellow:4:1:CERN:0:0:0:none:CERN:4.02566e-06:9:1.197539:19:1.193458:21:0.89883:9:0:2.092E-04:1.335E-02:2.106E-04:1.292E-02:0:0:0:0:0:572A:Probed at CERN, Iref = 4.02566e-06 with trim bits 9:No loaded to any board yet
TSMC_N2WX39-08B5:TSMC_N2WX39-08B5_2_9:2:9:1:yellow:4:1:CERN:0:0:0:none:CERN:3.944222e-06:6:1.208246:28:1.193177:19:0.8985162:12:0:2.091E-04:1.276E-02:2.107E-04:1.236E-02:0:0:0:0:0:5729:Probed at CERN, Iref = 3.944222e-06 with trim bits 6:No loaded to any board yet
TSMC_N2WX39-08B5:TSMC_N2WX39-08B5_3_9:3:9:1:yellow:4:1:CERN:0:0:0:none:CERN:4.001995e-06:9:1.200779:27:1.203401:23:0.8987796:12:0:2.089E-04:1.195E-02:2.104E-04:1.165E-02:0:0:0:0:0:5739:Probed at CERN, Iref = 4.001995e-06 with trim bits 9:No loaded to any board yet
TSMC_N2WX39-08B5:TSMC_N2WX39-08B5_4_9:4:9:1:yellow:4:1:CERN:0:0:0:none:CERN:3.954504e-06:8:1.196685:28:1.197229:20:0.9016254:11:0:2.098E-04:1.212E-02:2.114E-04:1.175E-02:0:0:0:0:0:5749:Probed at CERN, Iref = 3.954504e-06 with trim bits 8:No loaded to any board yet
TSMC_N2WX39-08B5:TSMC_N2WX39-08B5_5_9:5:9:2:green:4:2:CERN:0:0:0:none:CERN:4.009165e-06:8:1.203185:22:1.196309:17:0.8961681:13:0:2.086E-04:1.259E-02:2.102E-04:1.221E-02:0:0:0:0:0:5759:Probed at CERN, Iref = 4.009165e-06 with trim bits 8:No loaded to any board yet
TSMC_N2WX39-08B5:TSMC_N2WX39-08B5_6_9:6:9:1:yellow:4:1:CERN:0:0:0:none:CERN:4.001894e-06:10:1.198404:28:1.202831:22:0.8999339:12:0:2.092E-04:1.329E-02:2.108E-04:1.289E-02:0:0:0:0:0:5769:Probed at CERN, Iref = 4.001894e-06 with trim bits 10:No loaded to any board yet
TSMC_N2WX39-08B5:TSMC_N2WX39-08B5_7_9:7:9:1:yellow:4:1:CERN:0:0:0:none:CERN:4.033599e-06:8:1.202374:27:1.200086:20:0.9012911:11:0:2.098E-04:1.308E-02:2.116E-04:1.248E-02:0:0:0:0:0:5779:Probed at CERN, Iref = 4.033599e-06 with trim bits 8:No loaded to any board yet
TSMC_N2WX39-08B5:TSMC_N2WX39-08B5_8_9:8:9:1:yellow:4:1:CERN:0:0:0:none:CERN:4.033422e-06:9:1.20399:25:1.208064:16:0.8986827:13:0:2.089E-04:1.244E-02:2.106E-04:1.197E-02:0:0:0:0:0:5789:Probed at CERN, Iref = 4.033422e-06 with trim bits 9:No loaded to any board yet
TSMC_N2WX39-08B5:TSMC_N2WX39-08B5_9_9:9:9:1:yellow:4:1:CERN:0:0:0:none:CERN:3.949886e-06:10:1.197321:22:1.205555:20:0.8990805:13:0:2.093E-04:1.208E-02:2.106E-04:1.181E-02:0:0:0:0:0:5799:Probed at CERN, Iref = 3.949886e-06 with trim bits 10:No loaded to any board yet
TSMC_N2WX39-08B5:TSMC_N2WX39-08B5_10_9:10:9:10:red:4:10:CERN:0:0:0:none:CERN:0:0:0:0:0:0:0:0:0:0.000E+00:0.000E+00:0.000E+00:0.000E+00:0:0:0:0:0:57A9:Probed at CERN, Iref = 0 with trim bits 0:No loaded to any board yet
TSMC_N2WX39-08B5:TSMC_N2WX39-08B5_10_8:10:8:1:yellow:4:1:CERN:0:0:0:none:CERN:4.04367e-06:5:1.205679:28:1.208072:16:0.899259:14:0:2.094E-04:1.179E-02:2.110E-04:1.122E-02:0:0:0:0:0:57A8:Probed at CERN, Iref = 4.04367e-06 with trim bits 5:No loaded to any board yet
TSMC_N2WX39-08B5:TSMC_N2WX39-08B5_9_8:9:8:1:yellow:4:1:CERN:0:0:0:none:CERN:3.942912e-06:7:1.201247:24:1.206249:18:0.89997:10:0:2.093E-04:1.179E-02:2.109E-04:1.126E-02:0:0:0:0:0:5798:Probed at CERN, Iref = 3.942912e-06 with trim bits 7:No loaded to any board yet
TSMC_N2WX39-08B5:TSMC_N2WX39-08B5_8_8:8:8:2:green:4:2:CERN:0:0:0:none:CERN:3.989075e-06:6:1.196467:25:1.206938:20:0.898109:10:0:2.088E-04:1.205E-02:2.105E-04:1.147E-02:0:0:0:0:0:5788:Probed at CERN, Iref = 3.989075e-06 with trim bits 6:No loaded to any board yet
TSMC_N2WX39-08B5:TSMC_N2WX39-08B5_7_8:7:8:1:yellow:4:1:CERN:0:0:0:none:CERN:4.001398e-06:9:1.196691:26:1.197262:23:0.8983793:13:0:2.086E-04:1.239E-02:2.101E-04:1.192E-02:0:0:0:0:0:5778:Probed at CERN, Iref = 4.001398e-06 with trim bits 9:No loaded to any board yet
TSMC_N2WX39-08B5:TSMC_N2WX39-08B5_6_8:6:8:1:yellow:4:1:CERN:0:0:0:none:CERN:3.944754e-06:8:1.203596:29:1.198714:16:0.9001343:11:0:2.090E-04:1.270E-02:2.105E-04:1.234E-02:0:0:0:0:0:5768:Probed at CERN, Iref = 3.944754e-06 with trim bits 8:No loaded to any board yet
TSMC_N2WX39-08B5:TSMC_N2WX39-08B5_5_8:5:8:1:yellow:4:1:CERN:0:0:0:none:CERN:3.94784e-06:9:1.198896:29:1.198756:23:0.899725:11:0:2.097E-04:1.158E-02:2.111E-04:1.112E-02:0:0:0:0:0:5758:Probed at CERN, Iref = 3.94784e-06 with trim bits 9:No loaded to any board yet
TSMC_N2WX39-08B5:TSMC_N2WX39-08B5_4_8:4:8:1:yellow:4:1:CERN:0:0:0:none:CERN:3.98778e-06:9:1.20109:30:1.206873:26:0.9011663:11:0:2.099E-04:1.149E-02:2.114E-04:1.116E-02:0:0:0:0:0:5748:Probed at CERN, Iref = 3.98778e-06 with trim bits 9:No loaded to any board yet
TSMC_N2WX39-08B5:TSMC_N2WX39-08B5_3_8:3:8:2:green:4:2:CERN:0:0:0:none:CERN:4.009743e-06:7:1.204206:22:1.20723:24:0.8967393:11:0:2.088E-04:1.128E-02:2.102E-04:1.099E-02:0:0:0:0:0:5738:Probed at CERN, Iref = 4.009743e-06 with trim bits 7:No loaded to any board yet
TSMC_N2WX39-08B5:TSMC_N2WX39-08B5_2_8:2:8:1:yellow:4:1:CERN:0:0:0:none:CERN:3.958543e-06:7:1.203538:25:1.198812:19:0.8994137:12:0:2.095E-04:1.169E-02:2.111E-04:1.116E-02:0:0:0:0:0:5728:Probed at CERN, Iref = 3.958543e-06 with trim bits 7:No loaded to any board yet
TSMC_N2WX39-08B5:TSMC_N2WX39-08B5_1_8:1:8:2:green:4:2:CERN:0:0:0:none:CERN:4.063853e-06:8:1.206299:22:1.193996:21:0.8957687:11:0:2.085E-04:1.224E-02:2.101E-04:1.153E-02:0:0:0:0:0:5718:Probed at CERN, Iref = 4.063853e-06 with trim bits 8:No loaded to any board yet
TSMC_N2WX39-08B5:TSMC_N2WX39-08B5_1_7:1:7:2:green:4:2:CERN:0:0:0:none:CERN:4.019925e-06:7:1.2099:16:1.196043:21:0.9019762:10:0:2.105E-04:1.095E-02:2.121E-04:1.044E-02:0:0:0:0:0:5717:Probed at CERN, Iref = 4.019925e-06 with trim bits 7:No loaded to any board yet
TSMC_N2WX39-08B5:TSMC_N2WX39-08B5_2_7:2:7:2:green:4:2:CERN:0:0:0:none:CERN:4.042631e-06:7:1.201625:19:1.201738:21:0.898726:12:0:2.090E-04:1.192E-02:2.106E-04:1.144E-02:0:0:0:0:0:5727:Probed at CERN, Iref = 4.042631e-06 with trim bits 7:No loaded to any board yet
TSMC_N2WX39-08B5:TSMC_N2WX39-08B5_3_7:3:7:2:green:4:2:CERN:0:0:0:none:CERN:4.016864e-06:11:1.192436:25:1.203071:23:0.8979957:13:0:2.090E-04:1.152E-02:2.104E-04:1.113E-02:0:0:0:0:0:5737:Probed at CERN, Iref = 4.016864e-06 with trim bits 11:No loaded to any board yet
TSMC_N2WX39-08B5:TSMC_N2WX39-08B5_4_7:4:7:1:yellow:4:1:CERN:0:0:0:none:CERN:4.053221e-06:10:1.198658:28:1.207913:20:0.9001392:10:0:2.094E-04:1.127E-02:2.109E-04:1.099E-02:0:0:0:0:0:5747:Probed at CERN, Iref = 4.053221e-06 with trim bits 10:No loaded to any board yet
TSMC_N2WX39-08B5:TSMC_N2WX39-08B5_5_7:5:7:2:green:4:2:CERN:0:0:0:none:CERN:4.009496e-06:11:1.198335:22:1.202542:22:0.9005917:12:0:2.094E-04:1.114E-02:2.109E-04:1.061E-02:0:0:0:0:0:5757:Probed at CERN, Iref = 4.009496e-06 with trim bits 11:No loaded to any board yet
TSMC_N2WX39-08B5:TSMC_N2WX39-08B5_6_7:6:7:1:yellow:4:1:CERN:0:0:0:none:CERN:4.035508e-06:9:1.197918:23:1.195957:22:0.8996809:12:0:2.092E-04:1.324E-02:2.107E-04:1.277E-02:0:0:0:0:0:5767:Probed at CERN, Iref = 4.035508e-06 with trim bits 9:No loaded to any board yet
TSMC_N2WX39-08B5:TSMC_N2WX39-08B5_7_7:7:7:10:red:4:10:CERN:0:0:0:none:CERN:3.976761e-06:9:1.20126:30:1.192553:15:0.8945533:11:0:2.076E-04:1.314E-02:2.090E-04:1.262E-02:0:0:0:0:0:5777:Probed at CERN, Iref = 3.976761e-06 with trim bits 9:No loaded to any board yet
TSMC_N2WX39-08B5:TSMC_N2WX39-08B5_8_7:8:7:1:yellow:4:1:CERN:0:0:0:none:CERN:3.955608e-06:10:1.202704:20:1.204233:18:0.9001598:14:0:2.097E-04:1.154E-02:2.112E-04:1.114E-02:0:0:0:0:0:5787:Probed at CERN, Iref = 3.955608e-06 with trim bits 10:No loaded to any board yet
TSMC_N2WX39-08B5:TSMC_N2WX39-08B5_9_7:9:7:1:yellow:4:1:CERN:0:0:0:none:CERN:3.965461e-06:6:1.210653:24:1.199616:25:0.9011932:9:0:2.095E-04:1.153E-02:2.110E-04:1.107E-02:0:0:0:0:0:5797:Probed at CERN, Iref = 3.965461e-06 with trim bits 6:No loaded to any board yet
TSMC_N2WX39-08B5:TSMC_N2WX39-08B5_10_7:10:7:10:red:4:10:CERN:0:0:0:none:CERN:4.047112e-06:8:1.200074:28:1.20803:16:0.9020922:11:0:2.111E-04:1.143E-02:2.126E-04:1.100E-02:0:0:0:0:0:57A7:Probed at CERN, Iref = 4.047112e-06 with trim bits 8:No loaded to any board yet
TSMC_N2WX39-08B5:TSMC_N2WX39-08B5_10_6:10:6:1:yellow:4:1:CERN:0:0:0:none:CERN:4.056527e-06:8:1.200206:24:1.206952:16:0.8995559:9:0:2.099E-04:1.178E-02:2.114E-04:1.137E-02:0:0:0:0:0:57A6:Probed at CERN, Iref = 4.056527e-06 with trim bits 8:No loaded to any board yet
TSMC_N2WX39-08B5:TSMC_N2WX39-08B5_9_6:9:6:2:green:4:2:CERN:0:0:0:none:CERN:4.053185e-06:8:1.199072:22:1.196047:19:0.8948964:11:0:2.082E-04:1.095E-02:2.098E-04:1.065E-02:0:0:0:0:0:5796:Probed at CERN, Iref = 4.053185e-06 with trim bits 8:No loaded to any board yet
TSMC_N2WX39-08B5:TSMC_N2WX39-08B5_8_6:8:6:2:green:4:2:CERN:0:0:0:none:CERN:4.023993e-06:6:1.198141:25:1.200073:21:0.8959618:11:0:2.085E-04:1.167E-02:2.101E-04:1.117E-02:0:0:0:0:0:5786:Probed at CERN, Iref = 4.023993e-06 with trim bits 6:No loaded to any board yet
TSMC_N2WX39-08B5:TSMC_N2WX39-08B5_7_6:7:6:2:green:4:2:CERN:0:0:0:none:CERN:4.007217e-06:9:1.198487:22:1.19818:15:0.8959625:11:0:2.086E-04:1.152E-02:2.101E-04:1.123E-02:0:0:0:0:0:5776:Probed at CERN, Iref = 4.007217e-06 with trim bits 9:No loaded to any board yet
TSMC_N2WX39-08B5:TSMC_N2WX39-08B5_6_6:6:6:2:green:4:2:CERN:0:0:0:none:CERN:3.967674e-06:7:1.200601:25:1.19557:21:0.8985263:12:0:2.093E-04:1.199E-02:2.107E-04:1.166E-02:0:0:0:0:0:5766:Probed at CERN, Iref = 3.967674e-06 with trim bits 7:No loaded to any board yet
TSMC_N2WX39-08B5:TSMC_N2WX39-08B5_5_6:5:6:2:green:4:2:CERN:0:0:0:none:CERN:4.022657e-06:9:1.202402:24:1.196386:17:0.8971161:11:0:2.085E-04:1.185E-02:2.100E-04:1.138E-02:0:0:0:0:0:5756:Probed at CERN, Iref = 4.022657e-06 with trim bits 9:No loaded to any board yet
TSMC_N2WX39-08B5:TSMC_N2WX39-08B5_4_6:4:6:2:green:4:2:CERN:0:0:0:none:CERN:3.987992e-06:8:1.196559:25:1.202769:24:0.9014679:11:0:2.099E-04:1.092E-02:2.114E-04:1.053E-02:0:0:0:0:0:5746:Probed at CERN, Iref = 3.987992e-06 with trim bits 8:No loaded to any board yet
TSMC_N2WX39-08B5:TSMC_N2WX39-08B5_3_6:3:6:2:green:4:2:CERN:0:0:0:none:CERN:3.978924e-06:10:1.200439:26:1.209576:24:0.9010119:11:0:2.098E-04:1.081E-02:2.113E-04:1.034E-02:0:0:0:0:0:5736:Probed at CERN, Iref = 3.978924e-06 with trim bits 10:No loaded to any board yet
TSMC_N2WX39-08B5:TSMC_N2WX39-08B5_2_6:2:6:1:yellow:4:1:CERN:0:0:0:none:CERN:3.992209e-06:8:1.198913:21:1.207226:20:0.9016796:11:0:2.105E-04:1.085E-02:2.119E-04:1.058E-02:0:0:0:0:0:5726:Probed at CERN, Iref = 3.992209e-06 with trim bits 8:No loaded to any board yet
TSMC_N2WX39-08B5:TSMC_N2WX39-08B5_1_6:1:6:1:yellow:4:1:CERN:0:0:0:none:CERN:4.030738e-06:8:1.202746:24:1.202625:24:0.8977796:10:0:2.094E-04:1.159E-02:2.110E-04:1.125E-02:0:0:0:0:0:5716:Probed at CERN, Iref = 4.030738e-06 with trim bits 8:No loaded to any board yet
TSMC_N2WX39-08B5:TSMC_N2WX39-08B5_2_5:2:5:2:green:4:2:CERN:0:0:0:none:CERN:3.978311e-06:8:1.204272:21:1.203032:21:0.8971362:11:0:2.090E-04:1.093E-02:2.104E-04:1.053E-02:0:0:0:0:0:5725:Probed at CERN, Iref = 3.978311e-06 with trim bits 8:No loaded to any board yet
TSMC_N2WX39-08B5:TSMC_N2WX39-08B5_3_5:3:5:1:yellow:4:1:CERN:0:0:0:none:CERN:3.973336e-06:8:1.205709:29:1.199787:17:0.9011486:11:0:2.099E-04:1.125E-02:2.115E-04:1.093E-02:0:0:0:0:0:5735:Probed at CERN, Iref = 3.973336e-06 with trim bits 8:No loaded to any board yet
TSMC_N2WX39-08B5:TSMC_N2WX39-08B5_4_5:4:5:2:green:4:2:CERN:0:0:0:none:CERN:4.009271e-06:9:1.195762:21:1.204215:22:0.8978973:12:0:2.093E-04:1.105E-02:2.108E-04:1.071E-02:0:0:0:0:0:5745:Probed at CERN, Iref = 4.009271e-06 with trim bits 9:No loaded to any board yet
TSMC_N2WX39-08B5:TSMC_N2WX39-08B5_5_5:5:5:2:green:4:2:CERN:0:0:0:none:CERN:4.035342e-06:10:1.212066:24:1.20886:20:0.9019682:13:0:2.095E-04:1.168E-02:2.110E-04:1.132E-02:0:0:0:0:0:5755:Probed at CERN, Iref = 4.035342e-06 with trim bits 10:No loaded to any board yet
TSMC_N2WX39-08B5:TSMC_N2WX39-08B5_6_5:6:5:1:yellow:4:1:CERN:0:0:0:none:CERN:4.006139e-06:8:1.205994:28:1.198809:23:0.9008038:9:0:2.095E-04:1.146E-02:2.111E-04:1.093E-02:0:0:0:0:0:5765:Probed at CERN, Iref = 4.006139e-06 with trim bits 8:No loaded to any board yet
TSMC_N2WX39-08B5:TSMC_N2WX39-08B5_7_5:7:5:2:green:4:2:CERN:0:0:0:none:CERN:3.950032e-06:6:1.198707:21:1.20382:16:0.8993994:9:0:2.094E-04:1.095E-02:2.110E-04:1.047E-02:0:0:0:0:0:5775:Probed at CERN, Iref = 3.950032e-06 with trim bits 6:No loaded to any board yet
TSMC_N2WX39-08B5:TSMC_N2WX39-08B5_8_5:8:5:2:green:4:2:CERN:0:0:0:none:CERN:3.950416e-06:9:1.204553:27:1.193539:21:0.8991153:13:0:2.091E-04:1.074E-02:2.106E-04:1.035E-02:0:0:0:0:0:5785:Probed at CERN, Iref = 3.950416e-06 with trim bits 9:No loaded to any board yet
TSMC_N2WX39-08B5:TSMC_N2WX39-08B5_9_5:9:5:1:yellow:4:1:CERN:0:0:0:none:CERN:3.956639e-06:7:1.206353:24:1.203806:22:0.9004259:13:0:2.099E-04:1.067E-02:2.114E-04:1.030E-02:0:0:0:0:0:5795:Probed at CERN, Iref = 3.956639e-06 with trim bits 7:No loaded to any board yet
TSMC_N2WX39-08B5:TSMC_N2WX39-08B5_10_5:10:5:2:green:4:2:CERN:0:0:0:none:CERN:3.995271e-06:7:1.195337:23:1.197777:16:0.8999766:12:0:2.098E-04:1.124E-02:2.112E-04:1.076E-02:0:0:0:0:0:57A5:Probed at CERN, Iref = 3.995271e-06 with trim bits 7:No loaded to any board yet
TSMC_N2WX39-08B5:TSMC_N2WX39-08B5_9_4:9:4:1:yellow:4:1:CERN:0:0:0:none:CERN:4.004441e-06:8:1.20796:24:1.203466:21:0.9051499:12:0:2.109E-04:1.095E-02:2.124E-04:1.054E-02:0:0:0:0:0:5794:Probed at CERN, Iref = 4.004441e-06 with trim bits 8:No loaded to any board yet
TSMC_N2WX39-08B5:TSMC_N2WX39-08B5_8_4:8:4:1:yellow:4:1:CERN:0:0:0:none:CERN:4.02115e-06:7:1.205125:24:1.202824:19:0.9043183:12:0:2.104E-04:1.115E-02:2.119E-04:1.070E-02:0:0:0:0:0:5784:Probed at CERN, Iref = 4.02115e-06 with trim bits 7:No loaded to any board yet
TSMC_N2WX39-08B5:TSMC_N2WX39-08B5_7_4:7:4:2:green:4:2:CERN:0:0:0:none:CERN:4.033733e-06:8:1.200771:21:1.19494:23:0.8974379:11:0:2.085E-04:1.208E-02:2.101E-04:1.159E-02:0:0:0:0:0:5774:Probed at CERN, Iref = 4.033733e-06 with trim bits 8:No loaded to any board yet
TSMC_N2WX39-08B5:TSMC_N2WX39-08B5_6_4:6:4:1:yellow:4:1:CERN:0:0:0:none:CERN:3.960718e-06:9:1.194676:25:1.196595:18:0.901652:14:0:2.097E-04:1.082E-02:2.113E-04:1.028E-02:0:0:0:0:0:5764:Probed at CERN, Iref = 3.960718e-06 with trim bits 9:No loaded to any board yet
TSMC_N2WX39-08B5:TSMC_N2WX39-08B5_5_4:5:4:1:yellow:4:1:CERN:0:0:0:none:CERN:4.038468e-06:10:1.195651:27:1.190442:23:0.9042023:12:0:2.108E-04:1.099E-02:2.124E-04:1.051E-02:0:0:0:0:0:5754:Probed at CERN, Iref = 4.038468e-06 with trim bits 10:No loaded to any board yet
TSMC_N2WX39-08B5:TSMC_N2WX39-08B5_4_4:4:4:1:yellow:4:1:CERN:0:0:0:none:CERN:4.042849e-06:7:1.205197:22:1.205462:20:0.8965785:13:0:2.087E-04:1.116E-02:2.101E-04:1.093E-02:0:0:0:0:0:5744:Probed at CERN, Iref = 4.042849e-06 with trim bits 7:No loaded to any board yet
TSMC_N2WX39-08B5:TSMC_N2WX39-08B5_3_4:3:4:2:green:4:2:CERN:0:0:0:none:CERN:3.966994e-06:9:1.197317:24:1.196413:25:0.9025869:12:0:2.100E-04:1.090E-02:2.114E-04:1.040E-02:0:0:0:0:0:5734:Probed at CERN, Iref = 3.966994e-06 with trim bits 9:No loaded to any board yet
TSMC_N2WX39-08B5:TSMC_N2WX39-08B5_2_4:2:4:1:yellow:4:1:CERN:0:0:0:none:CERN:3.9921e-06:8:1.203952:25:1.19818:28:0.9012631:13:0:2.102E-04:1.090E-02:2.117E-04:1.043E-02:0:0:0:0:0:5724:Probed at CERN, Iref = 3.9921e-06 with trim bits 8:No loaded to any board yet
TSMC_N2WX39-08B5:TSMC_N2WX39-08B5_2_3:2:3:10:red:4:10:CERN:0:0:0:none:CERN:0:0:0:0:0:0:0:0:0:0.000E+00:0.000E+00:0.000E+00:0.000E+00:0:0:0:0:0:5723:Probed at CERN, Iref = 0 with trim bits 0:No loaded to any board yet
TSMC_N2WX39-08B5:TSMC_N2WX39-08B5_3_3:3:3:2:green:4:2:CERN:0:0:0:none:CERN:4.015278e-06:7:1.200748:23:1.201828:16:0.898196:12:0:2.095E-04:1.125E-02:2.111E-04:1.086E-02:0:0:0:0:0:5733:Probed at CERN, Iref = 4.015278e-06 with trim bits 7:No loaded to any board yet
TSMC_N2WX39-08B5:TSMC_N2WX39-08B5_4_3:4:3:2:green:4:2:CERN:0:0:0:none:CERN:3.959889e-06:8:1.19019:23:1.202815:17:0.8980636:11:0:2.096E-04:1.123E-02:2.111E-04:1.075E-02:0:0:0:0:0:5743:Probed at CERN, Iref = 3.959889e-06 with trim bits 8:No loaded to any board yet
TSMC_N2WX39-08B5:TSMC_N2WX39-08B5_5_3:5:3:1:yellow:4:1:CERN:0:0:0:none:CERN:4.066834e-06:8:1.206812:24:1.197983:19:0.9044412:12:0:2.110E-04:1.128E-02:2.126E-04:1.077E-02:0:0:0:0:0:5753:Probed at CERN, Iref = 4.066834e-06 with trim bits 8:No loaded to any board yet
TSMC_N2WX39-08B5:TSMC_N2WX39-08B5_6_3:6:3:2:green:4:2:CERN:0:0:0:none:CERN:3.93944e-06:6:1.206469:24:1.204651:24:0.8986549:12:0:2.091E-04:1.106E-02:2.107E-04:1.051E-02:0:0:0:0:0:5763:Probed at CERN, Iref = 3.93944e-06 with trim bits 6:No loaded to any board yet
TSMC_N2WX39-08B5:TSMC_N2WX39-08B5_7_3:7:3:1:yellow:4:1:CERN:0:0:0:none:CERN:4.008008e-06:8:1.203489:28:1.194547:23:0.8995168:12:0:2.098E-04:1.067E-02:2.113E-04:1.028E-02:0:0:0:0:0:5773:Probed at CERN, Iref = 4.008008e-06 with trim bits 8:No loaded to any board yet
TSMC_N2WX39-08B5:TSMC_N2WX39-08B5_8_3:8:3:1:yellow:4:1:CERN:0:0:0:none:CERN:4.044723e-06:8:1.197801:22:1.204583:16:0.9041011:12:0:2.111E-04:1.081E-02:2.126E-04:1.051E-02:0:0:0:0:0:5783:Probed at CERN, Iref = 4.044723e-06 with trim bits 8:No loaded to any board yet
TSMC_N2WX39-08B5:TSMC_N2WX39-08B5_9_3:9:3:2:green:4:2:CERN:0:0:0:none:CERN:3.989387e-06:9:1.194732:23:1.21204:24:0.9008144:15:0:2.100E-04:1.045E-02:2.116E-04:9.960E-03:0:0:0:0:0:5793:Probed at CERN, Iref = 3.989387e-06 with trim bits 9:No loaded to any board yet
TSMC_N2WX39-08B5:TSMC_N2WX39-08B5_8_2:8:2:1:yellow:4:1:CERN:0:0:0:none:CERN:4.007381e-06:9:1.211564:24:1.196197:23:0.8978137:13:0:2.096E-04:1.141E-02:2.111E-04:1.103E-02:0:0:0:0:0:5782:Probed at CERN, Iref = 4.007381e-06 with trim bits 9:No loaded to any board yet
TSMC_N2WX39-08B5:TSMC_N2WX39-08B5_7_2:7:2:2:green:4:2:CERN:0:0:0:none:CERN:3.977907e-06:8:1.196101:23:1.20404:22:0.8990604:13:0:2.097E-04:1.079E-02:2.112E-04:1.047E-02:0:0:0:0:0:5772:Probed at CERN, Iref = 3.977907e-06 with trim bits 8:No loaded to any board yet
TSMC_N2WX39-08B5:TSMC_N2WX39-08B5_6_2:6:2:1:yellow:4:1:CERN:0:0:0:none:CERN:3.973305e-06:7:1.196106:26:1.200398:17:0.9050342:12:0:2.105E-04:1.258E-02:2.120E-04:1.216E-02:0:0:0:0:0:5762:Probed at CERN, Iref = 3.973305e-06 with trim bits 7:No loaded to any board yet
TSMC_N2WX39-08B5:TSMC_N2WX39-08B5_5_2:5:2:2:green:4:2:CERN:0:0:0:none:CERN:3.980436e-06:8:1.205594:20:1.196304:23:0.8956529:11:0:2.082E-04:1.164E-02:2.097E-04:1.130E-02:0:0:0:0:0:5752:Probed at CERN, Iref = 3.980436e-06 with trim bits 8:No loaded to any board yet
TSMC_N2WX39-08B5:TSMC_N2WX39-08B5_4_2:4:2:1:yellow:4:1:CERN:0:0:0:none:CERN:4.002479e-06:7:1.189502:27:1.191544:19:0.9005507:13:0:2.097E-04:1.247E-02:2.112E-04:1.196E-02:0:0:0:0:0:5742:Probed at CERN, Iref = 4.002479e-06 with trim bits 7:No loaded to any board yet
TSMC_N2WX39-08B5:TSMC_N2WX39-08B5_5_1:5:1:1:yellow:4:1:CERN:0:0:0:none:CERN:3.977134e-06:7:1.211526:24:1.198173:19:0.9003544:12:0:2.101E-04:1.172E-02:2.116E-04:1.126E-02:0:0:0:0:0:5751:Probed at CERN, Iref = 3.977134e-06 with trim bits 7:No loaded to any board yet
TSMC_N2WX39-08B5:TSMC_N2WX39-08B5_6_1:6:1:2:green:4:2:CERN:0:0:0:none:CERN:3.978214e-06:6:1.19023:23:1.201005:19:0.9032127:14:0:2.113E-04:1.148E-02:2.127E-04:1.113E-02:0:0:0:0:0:5761:Probed at CERN, Iref = 3.978214e-06 with trim bits 6:No loaded to any board yet
