%CMSwaferCode:CMSchipCode:ChipColumn:ChipRow:Grading:Color:CutVersion:Status:Location:ChipBoardType:BoardNumber:Dose:Sensor:ProbingSite:Iref:IrefTrim:Vref_A:Vref_A_Trim:Vref_D:Vref_D_Trim:Vref_ADC:Vref_ADC_Trim:MON_ADC_Trim:VCAL_HIGH_slope:VCAL_HIGH_offset:VCAL_MED_slope:VCAL_MED_offset:TrefTsensors:Nf1:Nf2:Nf3:Nf4:RD53chipID:Comment:BoardComment:
TSMC_N2WX39-16F2:TSMC_N2WX39-16F2_2_3:2:3:10:red:4:10:Torino:0:0:0:none:Torino:0:0:0:0:0:0:0:0:0:0.000E+00:0.000E+00:0.000E+00:0.000E+00:0:0:0:0:0:5F23:Probed at Torino, Iref = 0 with trim bits 0:No loaded to any board yet
TSMC_N2WX39-16F2:TSMC_N2WX39-16F2_7_2:7:2:1:yellow:4:1:Torino:0:0:0:none:Torino:4.033579e-06:8:1.197596:24:1.212107:24:0.8959684:3:0:1.043E-08:1.069E-01:-1.183E-08:1.460E-01:0:0:0:0:0:5F72:Probed at Torino, Iref = 4.033579e-06 with trim bits 8:No loaded to any board yet
TSMC_N2WX39-16F2:TSMC_N2WX39-16F2_4_3:4:3:1:yellow:4:1:Torino:0:0:0:none:Torino:4.072126e-06:8:1.19754:20:1.200165:28:0.9028473:6:0:3.333E-10:1.101E-01:-1.563E-08:1.492E-01:0:0:0:0:0:5F43:Probed at Torino, Iref = 4.072126e-06 with trim bits 8:No loaded to any board yet
TSMC_N2WX39-16F2:TSMC_N2WX39-16F2_3_3:3:3:1:yellow:4:1:Torino:0:0:0:none:Torino:3.965423e-06:8:1.202599:23:1.20356:20:0.8995309:7:0:1.450E-08:1.049E-01:-2.967E-09:1.448E-01:0:0:0:0:0:5F33:Probed at Torino, Iref = 3.965423e-06 with trim bits 8:No loaded to any board yet
TSMC_N2WX39-16F2:TSMC_N2WX39-16F2_5_3:5:3:10:red:4:10:Torino:0:0:0:none:Torino:0:0:0:0:0:0:0:0:0:0.000E+00:0.000E+00:0.000E+00:0.000E+00:0:0:0:0:0:5F53:Probed at Torino, Iref = 0 with trim bits 0:No loaded to any board yet
TSMC_N2WX39-16F2:TSMC_N2WX39-16F2_6_3:6:3:1:yellow:4:1:Torino:0:0:0:none:Torino:4.037578e-06:8:1.196975:19:1.202158:21:0.8955493:7:0:2.860E-08:1.073E-01:-1.780E-08:1.465E-01:0:0:0:0:0:5F63:Probed at Torino, Iref = 4.037578e-06 with trim bits 8:No loaded to any board yet
TSMC_N2WX39-16F2:TSMC_N2WX39-16F2_7_3:7:3:1:yellow:4:1:Torino:0:0:0:none:Torino:3.983073e-06:8:1.198504:21:1.19652:20:0.9002286:9:0:2.433E-09:1.110E-01:-2.100E-09:1.497E-01:0:0:0:0:0:5F73:Probed at Torino, Iref = 3.983073e-06 with trim bits 8:No loaded to any board yet
TSMC_N2WX39-16F2:TSMC_N2WX39-16F2_8_3:8:3:1:yellow:4:1:Torino:0:0:0:none:Torino:4.015144e-06:9:1.201569:17:1.204377:18:0.9047264:8:0:8.840E-09:9.962E-02:3.333E-11:1.404E-01:0:0:0:0:0:5F83:Probed at Torino, Iref = 4.015144e-06 with trim bits 9:No loaded to any board yet
TSMC_N2WX39-16F2:TSMC_N2WX39-16F2_3_10:3:10:1:yellow:4:1:Torino:0:0:0:none:Torino:4.050143e-06:8:1.203913:24:1.195743:23:0.900582:9:0:2.061E-04:2.508E-02:2.076E-04:2.463E-02:0:0:0:0:0:5F3A:Probed at Torino, Iref = 4.050143e-06 with trim bits 8:No loaded to any board yet
TSMC_N2WX39-16F2:TSMC_N2WX39-16F2_8_2:8:2:1:yellow:4:1:Torino:0:0:0:none:Torino:4.019846e-06:7:1.202084:21:1.193497:19:0.9003836:7:0:6.733E-09:1.010E-01:-5.640E-09:8.994E-02:0:0:0:0:0:5F82:Probed at Torino, Iref = 4.019846e-06 with trim bits 7:No loaded to any board yet
TSMC_N2WX39-16F2:TSMC_N2WX39-16F2_9_8:9:8:1:yellow:4:1:Torino:0:0:0:none:Torino:4.049251e-06:7:1.196417:21:1.198872:21:0.9018089:9:0:-3.877E-09:9.240E-02:-4.667E-10:1.338E-01:0:0:0:0:0:5F98:Probed at Torino, Iref = 4.049251e-06 with trim bits 7:No loaded to any board yet
TSMC_N2WX39-16F2:TSMC_N2WX39-16F2_6_2:6:2:1:yellow:4:1:Torino:0:0:0:none:Torino:4.03407e-06:11:1.203747:25:1.19295:19:0.9048563:8:0:2.017E-04:4.637E-02:2.031E-04:4.597E-02:0:0:0:0:0:5F62:Probed at Torino, Iref = 4.03407e-06 with trim bits 11:No loaded to any board yet
TSMC_N2WX39-16F2:TSMC_N2WX39-16F2_6_1:6:1:1:yellow:4:1:Torino:0:0:0:none:Torino:3.994344e-06:6:1.200148:23:1.19715:13:0.90253:4:0:-2.872E-07:1.322E-01:-1.647E-08:1.664E-01:0:0:0:0:0:5F61:Probed at Torino, Iref = 3.994344e-06 with trim bits 6:No loaded to any board yet
TSMC_N2WX39-16F2:TSMC_N2WX39-16F2_4_2:4:2:1:yellow:4:1:Torino:0:0:0:none:Torino:3.954837e-06:6:1.187694:23:1.203612:17:0.8978353:9:0:7.670E-09:9.993E-02:3.500E-09:1.387E-01:0:0:0:0:0:5F42:Probed at Torino, Iref = 3.954837e-06 with trim bits 6:No loaded to any board yet
TSMC_N2WX39-16F2:TSMC_N2WX39-16F2_2_4:2:4:2:green:4:2:Torino:0:0:0:none:Torino:4.043804e-06:9:1.192917:23:1.191575:23:0.899951:10:0:9.917E-09:9.667E-02:-1.487E-08:1.377E-01:0:0:0:0:0:5F24:Probed at Torino, Iref = 4.043804e-06 with trim bits 9:No loaded to any board yet
TSMC_N2WX39-16F2:TSMC_N2WX39-16F2_6_12:6:12:2:green:4:2:Torino:0:0:0:none:Torino:3.975791e-06:6:1.194185:23:1.203133:21:0.9044866:12:0:1.970E-09:7.981E-02:2.047E-08:9.523E-02:0:0:0:0:0:5F6C:Probed at Torino, Iref = 3.975791e-06 with trim bits 6:No loaded to any board yet
TSMC_N2WX39-16F2:TSMC_N2WX39-16F2_5_12:5:12:2:green:4:2:Torino:0:0:0:none:Torino:4.044191e-06:7:1.201411:20:1.191927:15:0.8985797:9:0:5.600E-09:8.103E-02:-8.200E-09:1.238E-01:0:0:0:0:0:5F5C:Probed at Torino, Iref = 4.044191e-06 with trim bits 7:No loaded to any board yet
TSMC_N2WX39-16F2:TSMC_N2WX39-16F2_4_11:4:11:2:green:4:2:Torino:0:0:0:none:Torino:3.992644e-06:9:1.201093:22:1.198046:18:0.8991305:11:0:4.693E-09:8.458E-02:-1.430E-08:1.269E-01:0:0:0:0:0:5F4B:Probed at Torino, Iref = 3.992644e-06 with trim bits 9:No loaded to any board yet
TSMC_N2WX39-16F2:TSMC_N2WX39-16F2_8_10:8:10:2:green:4:2:Torino:0:0:0:none:Torino:3.975947e-06:6:1.204947:22:1.201188:16:0.9002877:11:0:6.000E-11:8.978E-02:-2.833E-09:1.314E-01:0:0:0:0:0:5F8A:Probed at Torino, Iref = 3.975947e-06 with trim bits 6:No loaded to any board yet
TSMC_N2WX39-16F2:TSMC_N2WX39-16F2_5_11:5:11:10:red:4:10:Torino:0:0:0:none:Torino:3.952579e-06:6:1.205413:26:1.196231:21:0.8975934:11:0:2.080E-09:8.487E-02:1.967E-09:1.271E-01:0:0:0:0:0:5F5B:Probed at Torino, Iref = 3.952579e-06 with trim bits 6:No loaded to any board yet
TSMC_N2WX39-16F2:TSMC_N2WX39-16F2_6_11:6:11:2:green:4:2:Torino:0:0:0:none:Torino:4.025904e-06:8:1.194382:25:1.210375:16:0.9009221:9:0:7.210E-09:8.789E-02:2.833E-09:1.299E-01:0:0:0:0:0:5F6B:Probed at Torino, Iref = 4.025904e-06 with trim bits 8:No loaded to any board yet
TSMC_N2WX39-16F2:TSMC_N2WX39-16F2_7_11:7:11:2:green:4:2:Torino:0:0:0:none:Torino:4.009985e-06:8:1.197036:24:1.19427:21:0.8971659:9:0:1.342E-08:8.565E-02:6.400E-09:1.278E-01:0:0:0:0:0:5F7B:Probed at Torino, Iref = 4.009985e-06 with trim bits 8:No loaded to any board yet
TSMC_N2WX39-16F2:TSMC_N2WX39-16F2_5_8:5:8:10:red:4:10:Torino:0:0:0:none:Torino:4.027501e-06:8:1.204439:28:1.203219:21:0.8984345:8:0:7.580E-09:9.114E-02:7.300E-09:1.325E-01:0:0:0:0:0:5F58:Probed at Torino, Iref = 4.027501e-06 with trim bits 8:No loaded to any board yet
TSMC_N2WX39-16F2:TSMC_N2WX39-16F2_8_11:8:11:2:green:4:2:Torino:0:0:0:none:Torino:3.98818e-06:9:1.201387:20:1.197193:17:0.9017311:9:0:7.097E-09:8.114E-02:6.667E-11:1.241E-01:0:0:0:0:0:5F8B:Probed at Torino, Iref = 3.98818e-06 with trim bits 9:No loaded to any board yet
TSMC_N2WX39-16F2:TSMC_N2WX39-16F2_5_10:5:10:1:yellow:4:1:Torino:0:0:0:none:Torino:3.95405e-06:7:1.190691:23:1.211232:24:0.8983678:11:0:3.693E-09:8.975E-02:5.667E-10:1.315E-01:0:0:0:0:0:5F5A:Probed at Torino, Iref = 3.95405e-06 with trim bits 7:No loaded to any board yet
TSMC_N2WX39-16F2:TSMC_N2WX39-16F2_2_10:2:10:2:green:4:2:Torino:0:0:0:none:Torino:4.008472e-06:6:1.199403:21:1.192837:19:0.8964771:9:0:6.217E-09:7.879E-02:7.367E-09:1.214E-01:0:0:0:0:0:5F2A:Probed at Torino, Iref = 4.008472e-06 with trim bits 6:No loaded to any board yet
TSMC_N2WX39-16F2:TSMC_N2WX39-16F2_2_9:2:9:2:green:4:2:Torino:0:0:0:none:Torino:3.95205e-06:7:1.201118:21:1.207008:16:0.8989189:8:0:1.250E-08:8.386E-02:-3.000E-10:1.263E-01:0:0:0:0:0:5F29:Probed at Torino, Iref = 3.95205e-06 with trim bits 7:No loaded to any board yet
TSMC_N2WX39-16F2:TSMC_N2WX39-16F2_3_9:3:9:2:green:4:2:Torino:0:0:0:none:Torino:3.960118e-06:12:1.19777:29:1.197434:16:0.9018148:9:0:1.149E-08:9.300E-02:-2.667E-08:1.788E-01:0:0:0:0:0:5F39:Probed at Torino, Iref = 3.960118e-06 with trim bits 12:No loaded to any board yet
TSMC_N2WX39-16F2:TSMC_N2WX39-16F2_4_9:4:9:2:green:4:2:Torino:0:0:0:none:Torino:3.971707e-06:9:1.191613:19:1.196593:20:0.8979799:10:0:-3.333E-09:9.079E-02:7.567E-09:1.323E-01:0:0:0:0:0:5F49:Probed at Torino, Iref = 3.971707e-06 with trim bits 9:No loaded to any board yet
TSMC_N2WX39-16F2:TSMC_N2WX39-16F2_7_9:7:9:1:yellow:4:1:Torino:0:0:0:none:Torino:4.021014e-06:7:1.198266:27:1.201115:20:0.8981357:8:0:-6.510E-09:9.076E-02:-7.500E-09:1.324E-01:0:0:0:0:0:5F79:Probed at Torino, Iref = 4.021014e-06 with trim bits 7:No loaded to any board yet
TSMC_N2WX39-16F2:TSMC_N2WX39-16F2_6_9:6:9:1:yellow:4:1:Torino:0:0:0:none:Torino:3.997994e-06:10:1.189411:23:1.188624:15:0.9023571:12:0:7.080E-09:9.208E-02:-4.523E-08:1.340E-01:0:0:0:0:0:5F69:Probed at Torino, Iref = 3.997994e-06 with trim bits 10:No loaded to any board yet
TSMC_N2WX39-16F2:TSMC_N2WX39-16F2_10_6:10:6:10:red:4:10:Torino:0:0:0:none:Torino:4.036102e-06:7:1.200769:19:1.208984:16:0.9015958:10:0:5.737E-09:8.249E-02:1.340E-08:1.252E-01:0:0:0:0:0:5FA6:Probed at Torino, Iref = 4.036102e-06 with trim bits 7:No loaded to any board yet
TSMC_N2WX39-16F2:TSMC_N2WX39-16F2_10_9:10:9:10:red:4:10:Torino:0:0:0:none:Torino:0:0:0:0:0:0:0:0:0:0.000E+00:0.000E+00:0.000E+00:0.000E+00:0:0:0:0:0:5FA9:Probed at Torino, Iref = 0 with trim bits 0:No loaded to any board yet
TSMC_N2WX39-16F2:TSMC_N2WX39-16F2_2_8:2:8:2:green:4:2:Torino:0:0:0:none:Torino:3.988981e-06:8:1.205847:22:1.198277:23:0.9025121:10:0:6.787E-09:8.442E-02:3.833E-09:1.269E-01:0:0:0:0:0:5F28:Probed at Torino, Iref = 3.988981e-06 with trim bits 8:No loaded to any board yet
TSMC_N2WX39-16F2:TSMC_N2WX39-16F2_10_8:10:8:2:green:4:2:Torino:0:0:0:none:Torino:4.005878e-06:5:1.205338:26:1.204407:16:0.9039828:12:0:4.937E-09:8.425E-02:-5.533E-09:1.266E-01:0:0:0:0:0:5FA8:Probed at Torino, Iref = 4.005878e-06 with trim bits 5:No loaded to any board yet
TSMC_N2WX39-16F2:TSMC_N2WX39-16F2_8_6:8:6:10:red:4:10:Torino:0:0:0:none:Torino:0:0:0:0:0:0:0:0:0:0.000E+00:0.000E+00:0.000E+00:0.000E+00:0:0:0:0:0:5F86:Probed at Torino, Iref = 0 with trim bits 0:No loaded to any board yet
TSMC_N2WX39-16F2:TSMC_N2WX39-16F2_4_8:4:8:1:yellow:4:1:Torino:0:0:0:none:Torino:3.956782e-06:10:1.200163:24:1.202214:18:0.8997862:8:0:4.263E-09:9.082E-02:-1.700E-09:1.324E-01:0:0:0:0:0:5F48:Probed at Torino, Iref = 3.956782e-06 with trim bits 10:No loaded to any board yet
TSMC_N2WX39-16F2:TSMC_N2WX39-16F2_3_8:3:8:1:yellow:4:1:Torino:0:0:0:none:Torino:3.992538e-06:6:1.19521:21:1.195996:15:0.9014856:10:0:4.550E-09:8.855E-02:-8.467E-09:1.305E-01:0:0:0:0:0:5F38:Probed at Torino, Iref = 3.992538e-06 with trim bits 6:No loaded to any board yet
TSMC_N2WX39-16F2:TSMC_N2WX39-16F2_1_8:1:8:2:green:4:2:Torino:0:0:0:none:Torino:3.965496e-06:8:1.196754:18:1.205539:22:0.9012272:9:0:3.287E-09:8.145E-02:5.467E-09:1.242E-01:0:0:0:0:0:5F18:Probed at Torino, Iref = 3.965496e-06 with trim bits 8:No loaded to any board yet
TSMC_N2WX39-16F2:TSMC_N2WX39-16F2_5_7:5:7:1:yellow:4:1:Torino:0:0:0:none:Torino:4.002608e-06:8:1.19729:27:1.194224:19:0.8953071:7:0:1.227E-08:9.556E-02:-9.067E-09:1.364E-01:0:0:0:0:0:5F57:Probed at Torino, Iref = 4.002608e-06 with trim bits 8:No loaded to any board yet
TSMC_N2WX39-16F2:TSMC_N2WX39-16F2_2_7:2:7:10:red:4:10:Torino:0:0:0:none:Torino:0:0:0:0:0:0:0:0:0:0.000E+00:0.000E+00:0.000E+00:0.000E+00:0:0:0:0:0:5F27:Probed at Torino, Iref = 0 with trim bits 0:No loaded to any board yet
TSMC_N2WX39-16F2:TSMC_N2WX39-16F2_3_7:3:7:1:yellow:4:1:Torino:0:0:0:none:Torino:4.028101e-06:9:1.193482:21:1.196565:19:0.9031754:10:0:7.517E-09:9.304E-02:1.187E-08:1.347E-01:0:0:0:0:0:5F37:Probed at Torino, Iref = 4.028101e-06 with trim bits 9:No loaded to any board yet
TSMC_N2WX39-16F2:TSMC_N2WX39-16F2_4_7:4:7:1:yellow:4:1:Torino:0:0:0:none:Torino:3.994393e-06:9:1.195345:19:1.204682:18:0.9054321:8:0:-5.160E-09:9.065E-02:-2.323E-08:1.327E-01:0:0:0:0:0:5F47:Probed at Torino, Iref = 3.994393e-06 with trim bits 9:No loaded to any board yet
TSMC_N2WX39-16F2:TSMC_N2WX39-16F2_6_7:6:7:1:yellow:4:1:Torino:0:0:0:none:Torino:4.01724e-06:9:1.199006:20:1.204619:16:0.9015902:10:0:1.072E-08:8.902E-02:-2.087E-08:1.303E-01:0:0:0:0:0:5F67:Probed at Torino, Iref = 4.01724e-06 with trim bits 9:No loaded to any board yet
TSMC_N2WX39-16F2:TSMC_N2WX39-16F2_6_6:6:6:1:yellow:4:1:Torino:0:0:0:none:Torino:4.010324e-06:8:1.20402:28:1.192:19:0.9002444:10:0:-8.113E-09:9.325E-02:-1.017E-09:5.546E-02:0:0:0:0:0:5F66:Probed at Torino, Iref = 4.010324e-06 with trim bits 8:No loaded to any board yet
TSMC_N2WX39-16F2:TSMC_N2WX39-16F2_7_7:7:7:2:green:4:2:Torino:0:0:0:none:Torino:3.979279e-06:11:1.205798:24:1.21158:24:0.9009666:10:0:4.473E-09:8.436E-02:4.567E-09:1.269E-01:0:0:0:0:0:5F77:Probed at Torino, Iref = 3.979279e-06 with trim bits 11:No loaded to any board yet
TSMC_N2WX39-16F2:TSMC_N2WX39-16F2_3_6:3:6:1:yellow:4:1:Torino:0:0:0:none:Torino:3.955344e-06:8:1.205184:24:1.201476:24:0.8983447:9:0:3.583E-09:8.547E-02:9.067E-09:1.276E-01:0:0:0:0:0:5F36:Probed at Torino, Iref = 3.955344e-06 with trim bits 8:No loaded to any board yet
TSMC_N2WX39-16F2:TSMC_N2WX39-16F2_10_7:10:7:2:green:4:2:Torino:0:0:0:none:Torino:4.041117e-06:6:1.195191:27:1.205299:16:0.9026713:10:0:5.037E-09:8.949E-02:-5.600E-09:1.316E-01:0:0:0:0:0:5FA7:Probed at Torino, Iref = 4.041117e-06 with trim bits 6:No loaded to any board yet
TSMC_N2WX39-16F2:TSMC_N2WX39-16F2_4_5:4:5:1:yellow:4:1:Torino:0:0:0:none:Torino:4.012869e-06:7:1.202707:21:1.204314:16:0.9056382:12:0:1.770E-09:9.524E-02:1.767E-09:1.366E-01:0:0:0:0:0:5F45:Probed at Torino, Iref = 4.012869e-06 with trim bits 7:No loaded to any board yet
TSMC_N2WX39-16F2:TSMC_N2WX39-16F2_9_6:9:6:1:yellow:4:1:Torino:0:0:0:none:Torino:4.024075e-06:9:1.188739:23:1.204703:20:0.897692:7:0:7.030E-09:9.044E-02:-1.473E-08:1.318E-01:0:0:0:0:0:5F96:Probed at Torino, Iref = 4.024075e-06 with trim bits 9:No loaded to any board yet
TSMC_N2WX39-16F2:TSMC_N2WX39-16F2_5_6:5:6:10:red:4:10:Torino:0:0:0:none:Torino:0:0:0:0:0:0:0:0:0:0.000E+00:0.000E+00:0.000E+00:0.000E+00:0:0:0:0:0:5F56:Probed at Torino, Iref = 0 with trim bits 0:No loaded to any board yet
TSMC_N2WX39-16F2:TSMC_N2WX39-16F2_9_5:9:5:1:yellow:4:1:Torino:0:0:0:none:Torino:3.990703e-06:8:1.196039:24:1.203172:19:0.8971682:9:0:-4.830E-09:9.080E-02:-1.800E-08:1.324E-01:0:0:0:0:0:5F95:Probed at Torino, Iref = 3.990703e-06 with trim bits 8:No loaded to any board yet
TSMC_N2WX39-16F2:TSMC_N2WX39-16F2_4_6:4:6:2:green:4:2:Torino:0:0:0:none:Torino:4.020415e-06:9:1.194331:21:1.200652:21:0.8997815:11:0:3.377E-09:9.024E-02:-2.933E-09:1.319E-01:0:0:0:0:0:5F46:Probed at Torino, Iref = 4.020415e-06 with trim bits 9:No loaded to any board yet
TSMC_N2WX39-16F2:TSMC_N2WX39-16F2_2_6:2:6:10:red:4:10:Torino:0:0:0:none:Torino:0:0:0:0:0:0:0:0:0:0.000E+00:0.000E+00:0.000E+00:0.000E+00:0:0:0:0:0:5F26:Probed at Torino, Iref = 0 with trim bits 0:No loaded to any board yet
TSMC_N2WX39-16F2:TSMC_N2WX39-16F2_1_6:1:6:1:yellow:4:1:Torino:0:0:0:none:Torino:3.98472e-06:8:1.204949:18:1.200965:18:0.9044025:8:0:7.197E-09:8.241E-02:2.667E-09:1.252E-01:0:0:0:0:0:5F16:Probed at Torino, Iref = 3.98472e-06 with trim bits 8:No loaded to any board yet
TSMC_N2WX39-16F2:TSMC_N2WX39-16F2_2_5:2:5:1:yellow:4:1:Torino:0:0:0:none:Torino:3.978756e-06:10:1.194971:25:1.198956:19:0.9014527:12:0:3.447E-09:9.352E-02:4.667E-10:1.350E-01:0:0:0:0:0:5F25:Probed at Torino, Iref = 3.978756e-06 with trim bits 10:No loaded to any board yet
TSMC_N2WX39-16F2:TSMC_N2WX39-16F2_3_5:3:5:1:yellow:4:1:Torino:0:0:0:none:Torino:3.967401e-06:7:1.193227:21:1.207717:20:0.8996661:8:0:7.607E-09:8.864E-02:1.833E-09:1.306E-01:0:0:0:0:0:5F35:Probed at Torino, Iref = 3.967401e-06 with trim bits 7:No loaded to any board yet
TSMC_N2WX39-16F2:TSMC_N2WX39-16F2_4_10:4:10:10:red:4:10:Torino:0:0:0:none:Torino:0:0:0:0:0:0:0:0:0:0.000E+00:0.000E+00:0.000E+00:0.000E+00:0:0:0:0:0:5F4A:Probed at Torino, Iref = 0 with trim bits 0:No loaded to any board yet
TSMC_N2WX39-16F2:TSMC_N2WX39-16F2_6_5:6:5:2:green:4:2:Torino:0:0:0:none:Torino:3.955953e-06:8:1.191334:19:1.200292:21:0.9046566:12:0:-1.800E-10:8.680E-02:-9.533E-09:1.291E-01:0:0:0:0:0:5F65:Probed at Torino, Iref = 3.955953e-06 with trim bits 8:No loaded to any board yet
TSMC_N2WX39-16F2:TSMC_N2WX39-16F2_7_5:7:5:1:yellow:4:1:Torino:0:0:0:none:Torino:4.000918e-06:9:1.194733:19:1.208874:16:0.9005098:10:0:4.287E-09:8.995E-02:3.300E-09:1.318E-01:0:0:0:0:0:5F75:Probed at Torino, Iref = 4.000918e-06 with trim bits 9:No loaded to any board yet
TSMC_N2WX39-16F2:TSMC_N2WX39-16F2_8_8:8:8:2:green:4:2:Torino:0:0:0:none:Torino:3.982065e-06:7:1.2064:26:1.194854:15:0.9053735:12:0:4.147E-09:8.621E-02:-4.467E-09:1.287E-01:0:0:0:0:0:5F88:Probed at Torino, Iref = 3.982065e-06 with trim bits 7:No loaded to any board yet
TSMC_N2WX39-16F2:TSMC_N2WX39-16F2_8_5:8:5:2:green:4:2:Torino:0:0:0:none:Torino:4.0257e-06:10:1.201951:23:1.203159:18:0.9071319:16:0:-3.895E-08:8.949E-02:6.020E-08:1.319E-01:0:0:0:0:0:5F85:Probed at Torino, Iref = 4.0257e-06 with trim bits 10:No loaded to any board yet
TSMC_N2WX39-16F2:TSMC_N2WX39-16F2_10_5:10:5:10:red:4:10:Torino:0:0:0:none:Torino:0:0:0:0:0:0:0:0:0:0.000E+00:0.000E+00:0.000E+00:0.000E+00:0:0:0:0:0:5FA5:Probed at Torino, Iref = 0 with trim bits 0:No loaded to any board yet
TSMC_N2WX39-16F2:TSMC_N2WX39-16F2_3_4:3:4:1:yellow:4:1:Torino:0:0:0:none:Torino:4.021108e-06:8:1.205067:24:1.202139:19:0.897071:9:0:3.510E-09:8.481E-02:1.357E-08:1.271E-01:0:0:0:0:0:5F34:Probed at Torino, Iref = 4.021108e-06 with trim bits 8:No loaded to any board yet
TSMC_N2WX39-16F2:TSMC_N2WX39-16F2_8_4:8:4:2:green:4:2:Torino:0:0:0:none:Torino:3.980773e-06:8:1.192389:23:1.201617:20:0.8993257:10:0:2.050E-04:2.827E-02:2.065E-04:2.785E-02:0:0:0:0:0:5F84:Probed at Torino, Iref = 3.980773e-06 with trim bits 8:No loaded to any board yet
TSMC_N2WX39-16F2:TSMC_N2WX39-16F2_3_11:3:11:2:green:4:2:Torino:0:0:0:none:Torino:3.967644e-06:6:1.198028:27:1.197784:20:0.9059562:8:0:2.102E-04:1.470E-02:2.116E-04:1.430E-02:0:0:0:0:0:5F3B:Probed at Torino, Iref = 3.967644e-06 with trim bits 6:No loaded to any board yet
TSMC_N2WX39-16F2:TSMC_N2WX39-16F2_9_4:9:4:10:red:4:10:Torino:0:0:0:none:Torino:3.963986e-06:9:1.200924:22:1.202768:16:0.8982596:10:0:4.963E-09:8.795E-02:2.667E-09:1.296E-01:0:0:0:0:0:5F94:Probed at Torino, Iref = 3.963986e-06 with trim bits 9:No loaded to any board yet
TSMC_N2WX39-16F2:TSMC_N2WX39-16F2_6_4:6:4:1:yellow:4:1:Torino:0:0:0:none:Torino:4.025804e-06:10:1.197019:21:1.199996:20:0.8995355:10:0:1.150E-08:1.011E-01:-2.800E-09:1.413E-01:0:0:0:0:0:5F64:Probed at Torino, Iref = 4.025804e-06 with trim bits 10:No loaded to any board yet
TSMC_N2WX39-16F2:TSMC_N2WX39-16F2_4_4:4:4:2:green:4:2:Torino:0:0:0:none:Torino:3.940207e-06:7:1.191188:23:1.204071:22:0.8995944:8:0:7.010E-09:8.996E-02:-1.367E-09:1.319E-01:0:0:0:0:0:5F44:Probed at Torino, Iref = 3.940207e-06 with trim bits 7:No loaded to any board yet
TSMC_N2WX39-16F2:TSMC_N2WX39-16F2_6_8:6:8:2:green:4:2:Torino:0:0:0:none:Torino:3.947524e-06:8:1.194498:27:1.190925:23:0.9008279:11:0:3.967E-09:7.909E-02:1.330E-08:1.219E-01:0:0:0:0:0:5F68:Probed at Torino, Iref = 3.947524e-06 with trim bits 8:No loaded to any board yet
TSMC_N2WX39-16F2:TSMC_N2WX39-16F2_4_12:4:12:10:red:4:10:Torino:0:0:0:none:Torino:3.941178e-06:5:1.20275:22:1.197306:25:0.9021548:9:0:2.727E-09:7.487E-02:-5.233E-09:1.184E-01:0:0:0:0:0:5F4C:Probed at Torino, Iref = 3.941178e-06 with trim bits 5:No loaded to any board yet
TSMC_N2WX39-16F2:TSMC_N2WX39-16F2_6_10:6:10:2:green:4:2:Torino:0:0:0:none:Torino:3.996268e-06:11:1.197968:26:1.197823:22:0.9013736:8:0:6.183E-09:8.175E-02:5.033E-09:1.245E-01:0:0:0:0:0:5F6A:Probed at Torino, Iref = 3.996268e-06 with trim bits 11:No loaded to any board yet
TSMC_N2WX39-16F2:TSMC_N2WX39-16F2_8_9:8:9:2:green:4:2:Torino:0:0:0:none:Torino:4.063173e-06:8:1.19678:24:1.196523:18:0.9017586:12:0:1.312E-08:7.847E-02:1.030E-08:1.214E-01:0:0:0:0:0:5F89:Probed at Torino, Iref = 4.063173e-06 with trim bits 8:No loaded to any board yet
TSMC_N2WX39-16F2:TSMC_N2WX39-16F2_9_10:9:10:2:green:4:2:Torino:0:0:0:none:Torino:3.991948e-06:6:1.192782:27:1.198194:15:0.9026634:12:0:5.827E-09:7.932E-02:-2.700E-09:1.226E-01:0:0:0:0:0:5F9A:Probed at Torino, Iref = 3.991948e-06 with trim bits 6:No loaded to any board yet
TSMC_N2WX39-16F2:TSMC_N2WX39-16F2_7_10:7:10:2:green:4:2:Torino:0:0:0:none:Torino:4.001422e-06:7:1.188062:23:1.197179:18:0.9024496:8:0:-1.627E-09:7.783E-02:1.013E-08:1.211E-01:0:0:0:0:0:5F7A:Probed at Torino, Iref = 4.001422e-06 with trim bits 7:No loaded to any board yet
TSMC_N2WX39-16F2:TSMC_N2WX39-16F2_9_9:9:9:10:red:4:10:Torino:0:0:0:none:Torino:4.037611e-06:13:1.196366:30:1.197671:17:0.9024493:8:0:-2.833E-09:1.065E-01:9.600E-09:1.459E-01:0:0:0:0:0:5F99:Probed at Torino, Iref = 4.037611e-06 with trim bits 13:No loaded to any board yet
TSMC_N2WX39-16F2:TSMC_N2WX39-16F2_9_7:9:7:1:yellow:4:1:Torino:0:0:0:none:Torino:4.050542e-06:8:1.200272:25:1.195743:21:0.9005456:10:0:2.064E-04:2.418E-02:2.079E-04:2.369E-02:0:0:0:0:0:5F97:Probed at Torino, Iref = 4.050542e-06 with trim bits 8:No loaded to any board yet
TSMC_N2WX39-16F2:TSMC_N2WX39-16F2_5_9:5:9:1:yellow:4:1:Torino:0:0:0:none:Torino:3.962633e-06:9:1.195742:28:1.201085:17:0.9013495:13:0:4.360E-09:7.811E-02:4.800E-09:1.212E-01:0:0:0:0:0:5F59:Probed at Torino, Iref = 3.962633e-06 with trim bits 9:No loaded to any board yet
TSMC_N2WX39-16F2:TSMC_N2WX39-16F2_5_1:5:1:10:red:4:10:Torino:0:0:0:none:Torino:4.012184e-06:7:1.200518:26:1.199486:20:0.9010133:11:0:9.520E-09:8.660E-02:4.200E-09:1.288E-01:0:0:0:0:0:5F51:Probed at Torino, Iref = 4.012184e-06 with trim bits 7:No loaded to any board yet
TSMC_N2WX39-16F2:TSMC_N2WX39-16F2_1_7:1:7:2:green:4:2:Torino:0:0:0:none:Torino:3.998058e-06:9:1.203132:22:1.196824:21:0.8979593:11:0:1.242E-08:8.069E-02:6.000E-09:1.235E-01:0:0:0:0:0:5F17:Probed at Torino, Iref = 3.998058e-06 with trim bits 9:No loaded to any board yet
TSMC_N2WX39-16F2:TSMC_N2WX39-16F2_5_5:5:5:2:green:4:2:Torino:0:0:0:none:Torino:4.022981e-06:7:1.198798:23:1.19913:18:0.9053035:12:0:6.417E-09:8.610E-02:1.640E-08:1.285E-01:0:0:0:0:0:5F55:Probed at Torino, Iref = 4.022981e-06 with trim bits 7:No loaded to any board yet
TSMC_N2WX39-16F2:TSMC_N2WX39-16F2_8_7:8:7:2:green:4:2:Torino:0:0:0:none:Torino:4.028596e-06:6:1.203645:27:1.197253:17:0.9020593:11:0:4.780E-09:8.496E-02:-5.033E-09:1.273E-01:0:0:0:0:0:5F87:Probed at Torino, Iref = 4.028596e-06 with trim bits 6:No loaded to any board yet
TSMC_N2WX39-16F2:TSMC_N2WX39-16F2_7_6:7:6:2:green:4:2:Torino:0:0:0:none:Torino:3.96624e-06:6:1.203471:25:1.190697:15:0.8943968:7:0:1.853E-08:8.788E-02:3.867E-09:1.297E-01:0:0:0:0:0:5F76:Probed at Torino, Iref = 3.96624e-06 with trim bits 6:No loaded to any board yet
TSMC_N2WX39-16F2:TSMC_N2WX39-16F2_7_4:7:4:2:green:4:2:Torino:0:0:0:none:Torino:3.986916e-06:11:1.191272:23:1.190959:15:0.8971297:9:0:5.577E-09:9.235E-02:2.000E-10:1.337E-01:0:0:0:0:0:5F74:Probed at Torino, Iref = 3.986916e-06 with trim bits 11:No loaded to any board yet
TSMC_N2WX39-16F2:TSMC_N2WX39-16F2_5_4:5:4:1:yellow:4:1:Torino:0:0:0:none:Torino:3.98443e-06:6:1.194901:25:1.202319:24:0.9028886:10:0:7.290E-09:8.829E-02:1.033E-08:1.304E-01:0:0:0:0:0:5F54:Probed at Torino, Iref = 3.98443e-06 with trim bits 6:No loaded to any board yet
TSMC_N2WX39-16F2:TSMC_N2WX39-16F2_5_2:5:2:1:yellow:4:1:Torino:0:0:0:none:Torino:3.95813e-06:7:1.203518:27:1.20441:20:0.8976924:9:0:6.920E-09:9.338E-02:-8.100E-09:1.347E-01:0:0:0:0:0:5F52:Probed at Torino, Iref = 3.95813e-06 with trim bits 7:No loaded to any board yet
TSMC_N2WX39-16F2:TSMC_N2WX39-16F2_7_8:7:8:1:yellow:4:1:Torino:0:0:0:none:Torino:4.042242e-06:8:1.21025:24:1.20156:21:0.8942568:7:0:6.440E-09:8.073E-02:5.500E-09:1.232E-01:0:0:0:0:0:5F78:Probed at Torino, Iref = 4.042242e-06 with trim bits 8:No loaded to any board yet
TSMC_N2WX39-16F2:TSMC_N2WX39-16F2_9_3:9:3:2:green:4:2:Torino:0:0:0:none:Torino:4.00376e-06:7:1.189956:23:1.202246:18:0.9021499:13:0:8.267E-10:8.680E-02:-1.167E-09:1.289E-01:0:0:0:0:0:5F93:Probed at Torino, Iref = 4.00376e-06 with trim bits 7:No loaded to any board yet
TSMC_N2WX39-16F2:TSMC_N2WX39-16F2_7_12:7:12:2:green:4:2:Torino:0:0:0:none:Torino:4.052034e-06:7:1.197781:24:1.193531:19:0.8980909:9:0:2.507E-09:7.897E-02:8.633E-09:1.217E-01:0:0:0:0:0:5F7C:Probed at Torino, Iref = 4.052034e-06 with trim bits 7:No loaded to any board yet
