%CMSwaferCode:CMSchipCode:ChipColumn:ChipRow:Grading:Color:CutVersion:Status:Location:ChipBoardType:BoardNumber:Dose:Sensor:ProbingSite:Iref:IrefTrim:Vref_A:Vref_A_Trim:Vref_D:Vref_D_Trim:Vref_ADC:Vref_ADC_Trim:MON_ADC_Trim:VCAL_HIGH_slope:VCAL_HIGH_offset:VCAL_MED_slope:VCAL_MED_offset:TrefTsensors:Nf1:Nf2:Nf3:Nf4:RD53chipID:Comment:BoardComment:
TSMC_N2WX39-14G4:TSMC_N2WX39-14G4_8_10:8:10:1:yellow:4:1:Torino:0:0:0:none:Torino:4.021185e-06:8:1.20497:22:1.206064:16:0.9027457:10:0:1.532E-08:9.646E-02:-1.133E-09:1.376E-01:0:0:0:0:0:5D8A:Probed at Torino, Iref = 4.021185e-06 with trim bits 8:No loaded to any board yet
TSMC_N2WX39-14G4:TSMC_N2WX39-14G4_7_12:7:12:10:red:4:10:Torino:0:0:0:none:Torino:0:0:0:0:0:0:0:0:0:0.000E+00:0.000E+00:0.000E+00:0.000E+00:0:0:0:0:0:5D7C:Probed at Torino, Iref = 0 with trim bits 0:No loaded to any board yet
TSMC_N2WX39-14G4:TSMC_N2WX39-14G4_6_12:6:12:10:red:4:10:Torino:0:0:0:none:Torino:4.048215e-06:9:1.197175:27:1.197477:17:0.8945534:7:0:-7.120E-09:9.123E-02:2.209E-06:4.514E-01:0:0:0:0:0:5D6C:Probed at Torino, Iref = 4.048215e-06 with trim bits 9:No loaded to any board yet
TSMC_N2WX39-14G4:TSMC_N2WX39-14G4_5_12:5:12:10:red:4:10:Torino:0:0:0:none:Torino:4.04292e-06:9:1.106671:3:1.097416:0:0.8522075:5:0:7.083E-09:8.335E-02:1.123E-08:1.233E-01:0:0:0:0:0:5D5C:Probed at Torino, Iref = 4.04292e-06 with trim bits 9:No loaded to any board yet
TSMC_N2WX39-14G4:TSMC_N2WX39-14G4_4_12:4:12:2:green:4:2:Torino:0:0:0:none:Torino:4.055203e-06:5:1.198347:23:1.197555:16:0.9027662:8:0:9.330E-09:8.428E-02:8.733E-09:1.268E-01:0:0:0:0:0:5D4C:Probed at Torino, Iref = 4.055203e-06 with trim bits 5:No loaded to any board yet
TSMC_N2WX39-14G4:TSMC_N2WX39-14G4_3_11:3:11:1:yellow:4:1:Torino:0:0:0:none:Torino:4.002487e-06:9:1.199688:28:1.201257:25:0.899793:8:0:5.833E-09:8.823E-02:8.567E-09:1.302E-01:0:0:0:0:0:5D3B:Probed at Torino, Iref = 4.002487e-06 with trim bits 9:No loaded to any board yet
TSMC_N2WX39-14G4:TSMC_N2WX39-14G4_7_11:7:11:1:yellow:4:1:Torino:0:0:0:none:Torino:3.975856e-06:8:1.197835:29:1.201656:20:0.901141:11:0:5.640E-09:8.916E-02:-1.137E-08:1.312E-01:0:0:0:0:0:5D7B:Probed at Torino, Iref = 3.975856e-06 with trim bits 8:No loaded to any board yet
TSMC_N2WX39-14G4:TSMC_N2WX39-14G4_9_10:9:10:2:green:4:2:Torino:0:0:0:none:Torino:3.989746e-06:7:1.195275:27:1.200761:17:0.9006637:11:0:1.860E-09:9.266E-02:1.560E-08:1.342E-01:0:0:0:0:0:5D9A:Probed at Torino, Iref = 3.989746e-06 with trim bits 7:No loaded to any board yet
TSMC_N2WX39-14G4:TSMC_N2WX39-14G4_3_10:3:10:2:green:4:2:Torino:0:0:0:none:Torino:4.039569e-06:8:1.201198:24:1.198305:24:0.9013147:10:0:3.927E-09:8.555E-02:9.200E-09:1.278E-01:0:0:0:0:0:5D3A:Probed at Torino, Iref = 4.039569e-06 with trim bits 8:No loaded to any board yet
TSMC_N2WX39-14G4:TSMC_N2WX39-14G4_4_11:4:11:2:green:4:2:Torino:0:0:0:none:Torino:3.999208e-06:9:1.203532:29:1.194403:17:0.8968918:7:0:1.730E-09:9.181E-02:1.000E-09:1.332E-01:0:0:0:0:0:5D4B:Probed at Torino, Iref = 3.999208e-06 with trim bits 9:No loaded to any board yet
TSMC_N2WX39-14G4:TSMC_N2WX39-14G4_5_11:5:11:1:yellow:4:1:Torino:0:0:0:none:Torino:3.952663e-06:6:1.1935:23:1.199401:20:0.9018546:8:0:4.477E-09:9.193E-02:7.900E-09:1.337E-01:0:0:0:0:0:5D5B:Probed at Torino, Iref = 3.952663e-06 with trim bits 6:No loaded to any board yet
TSMC_N2WX39-14G4:TSMC_N2WX39-14G4_8_8:8:8:1:yellow:4:1:Torino:0:0:0:none:Torino:4.037709e-06:9:1.202554:21:1.191188:15:0.8940647:7:0:2.222E-08:9.677E-02:2.643E-08:1.372E-01:0:0:0:0:0:5D88:Probed at Torino, Iref = 4.037709e-06 with trim bits 9:No loaded to any board yet
TSMC_N2WX39-14G4:TSMC_N2WX39-14G4_4_10:4:10:2:green:4:2:Torino:0:0:0:none:Torino:4.00737e-06:9:1.198668:22:1.19629:18:0.9016464:9:0:-1.347E-09:8.800E-02:-1.253E-08:1.301E-01:0:0:0:0:0:5D4A:Probed at Torino, Iref = 4.00737e-06 with trim bits 9:No loaded to any board yet
TSMC_N2WX39-14G4:TSMC_N2WX39-14G4_6_11:6:11:1:yellow:4:1:Torino:0:0:0:none:Torino:4.026102e-06:9:1.187719:23:1.1976:23:0.9005318:10:0:-1.300E-10:8.765E-02:3.667E-10:1.298E-01:0:0:0:0:0:5D6B:Probed at Torino, Iref = 4.026102e-06 with trim bits 9:No loaded to any board yet
TSMC_N2WX39-14G4:TSMC_N2WX39-14G4_8_11:8:11:2:green:4:2:Torino:0:0:0:none:Torino:3.941787e-06:7:1.197777:23:1.195564:15:0.9044412:8:0:1.107E-08:9.028E-02:-4.667E-09:1.321E-01:0:0:0:0:0:5D8B:Probed at Torino, Iref = 3.941787e-06 with trim bits 7:No loaded to any board yet
TSMC_N2WX39-14G4:TSMC_N2WX39-14G4_9_8:9:8:1:yellow:4:1:Torino:0:0:0:none:Torino:3.983772e-06:9:1.196645:24:1.196413:16:0.9034016:8:0:-7.473E-09:9.748E-02:1.203E-08:1.384E-01:0:0:0:0:0:5D98:Probed at Torino, Iref = 3.983772e-06 with trim bits 9:No loaded to any board yet
TSMC_N2WX39-14G4:TSMC_N2WX39-14G4_5_10:5:10:1:yellow:4:1:Torino:0:0:0:none:Torino:3.939267e-06:7:1.203566:23:1.19947:22:0.9012634:11:0:5.900E-09:8.499E-02:4.500E-09:1.274E-01:0:0:0:0:0:5D5A:Probed at Torino, Iref = 3.939267e-06 with trim bits 7:No loaded to any board yet
TSMC_N2WX39-14G4:TSMC_N2WX39-14G4_7_10:7:10:1:yellow:4:1:Torino:0:0:0:none:Torino:3.961642e-06:8:1.210997:24:1.199706:16:0.9018097:11:0:8.863E-09:9.344E-02:1.923E-08:1.349E-01:0:0:0:0:0:5D7A:Probed at Torino, Iref = 3.961642e-06 with trim bits 8:No loaded to any board yet
TSMC_N2WX39-14G4:TSMC_N2WX39-14G4_6_7:6:7:2:green:4:2:Torino:0:0:0:none:Torino:3.989104e-06:9:1.199988:21:1.199227:19:0.8991764:10:0:7.223E-09:9.276E-02:-8.267E-09:1.341E-01:0:0:0:0:0:5D67:Probed at Torino, Iref = 3.989104e-06 with trim bits 9:No loaded to any board yet
TSMC_N2WX39-14G4:TSMC_N2WX39-14G4_6_10:6:10:1:yellow:4:1:Torino:0:0:0:none:Torino:3.954971e-06:8:1.192405:25:1.198225:17:0.8995031:8:0:-1.180E-09:9.109E-02:-2.433E-09:1.327E-01:0:0:0:0:0:5D6A:Probed at Torino, Iref = 3.954971e-06 with trim bits 8:No loaded to any board yet
TSMC_N2WX39-14G4:TSMC_N2WX39-14G4_2_10:2:10:2:green:4:2:Torino:0:0:0:none:Torino:3.994736e-06:7:1.206547:20:1.196838:22:0.9008945:7:0:-7.370E-09:8.386E-02:-9.333E-10:1.264E-01:0:0:0:0:0:5D2A:Probed at Torino, Iref = 3.994736e-06 with trim bits 7:No loaded to any board yet
TSMC_N2WX39-14G4:TSMC_N2WX39-14G4_2_9:2:9:1:yellow:4:1:Torino:0:0:0:none:Torino:4.031321e-06:12:1.20525:20:1.205757:22:0.8969643:9:0:2.029E-04:3.544E-02:2.045E-04:3.495E-02:0:0:0:0:0:5D29:Probed at Torino, Iref = 4.031321e-06 with trim bits 12:No loaded to any board yet
TSMC_N2WX39-14G4:TSMC_N2WX39-14G4_3_9:3:9:1:yellow:4:1:Torino:0:0:0:none:Torino:4.000864e-06:9:1.198139:22:1.204655:24:0.8988562:9:0:-1.068E-08:9.793E-02:8.533E-09:1.384E-01:0:0:0:0:0:5D39:Probed at Torino, Iref = 4.000864e-06 with trim bits 9:No loaded to any board yet
TSMC_N2WX39-14G4:TSMC_N2WX39-14G4_2_8:2:8:1:yellow:4:1:Torino:0:0:0:none:Torino:4.000001e-06:7:1.189086:23:1.194412:15:0.9014968:11:0:2.240E-09:8.883E-02:7.000E-10:1.309E-01:0:0:0:0:0:5D28:Probed at Torino, Iref = 4.000001e-06 with trim bits 7:No loaded to any board yet
TSMC_N2WX39-14G4:TSMC_N2WX39-14G4_4_9:4:9:2:green:4:2:Torino:0:0:0:none:Torino:4.033144e-06:10:1.203469:23:1.201294:18:0.9019804:10:0:4.773E-09:9.805E-02:-4.900E-09:1.388E-01:0:0:0:0:0:5D49:Probed at Torino, Iref = 4.033144e-06 with trim bits 10:No loaded to any board yet
TSMC_N2WX39-14G4:TSMC_N2WX39-14G4_3_8:3:8:10:red:4:10:Torino:0:0:0:none:Torino:0:0:0:0:0:0:0:0:0:0.000E+00:0.000E+00:0.000E+00:0.000E+00:0:0:0:0:0:5D38:Probed at Torino, Iref = 0 with trim bits 0:No loaded to any board yet
TSMC_N2WX39-14G4:TSMC_N2WX39-14G4_6_9:6:9:10:red:4:10:Torino:0:0:0:none:Torino:0:0:0:0:0:0:0:0:0:0.000E+00:0.000E+00:0.000E+00:0.000E+00:0:0:0:0:0:5D69:Probed at Torino, Iref = 0 with trim bits 0:No loaded to any board yet
TSMC_N2WX39-14G4:TSMC_N2WX39-14G4_7_9:7:9:2:green:4:2:Torino:0:0:0:none:Torino:3.989732e-06:8:1.193505:25:1.210861:16:0.9032758:10:0:1.048E-08:9.349E-02:-1.300E-08:1.351E-01:0:0:0:0:0:5D79:Probed at Torino, Iref = 3.989732e-06 with trim bits 8:No loaded to any board yet
TSMC_N2WX39-14G4:TSMC_N2WX39-14G4_6_5:6:5:2:green:4:2:Torino:0:0:0:none:Torino:4.014752e-06:9:1.20608:20:1.198647:20:0.8996046:11:0:8.593E-09:9.184E-02:1.443E-08:1.333E-01:0:0:0:0:0:5D65:Probed at Torino, Iref = 4.014752e-06 with trim bits 9:No loaded to any board yet
TSMC_N2WX39-14G4:TSMC_N2WX39-14G4_5_9:5:9:1:yellow:4:1:Torino:0:0:0:none:Torino:3.980496e-06:8:1.206355:20:1.200401:16:0.9063076:8:0:1.337E-08:9.345E-02:1.030E-08:1.350E-01:0:0:0:0:0:5D59:Probed at Torino, Iref = 3.980496e-06 with trim bits 8:No loaded to any board yet
TSMC_N2WX39-14G4:TSMC_N2WX39-14G4_9_9:9:9:2:green:4:2:Torino:0:0:0:none:Torino:3.981742e-06:7:1.206234:26:1.198984:13:0.903322:10:0:-4.373E-09:9.182E-02:-1.690E-08:1.335E-01:0:0:0:0:0:5D99:Probed at Torino, Iref = 3.981742e-06 with trim bits 7:No loaded to any board yet
TSMC_N2WX39-14G4:TSMC_N2WX39-14G4_10_9:10:9:10:red:4:10:Torino:0:0:0:none:Torino:0:0:0:0:0:0:0:0:0:0.000E+00:0.000E+00:0.000E+00:0.000E+00:0:0:0:0:0:5DA9:Probed at Torino, Iref = 0 with trim bits 0:No loaded to any board yet
TSMC_N2WX39-14G4:TSMC_N2WX39-14G4_10_6:10:6:2:green:4:2:Torino:0:0:0:none:Torino:3.948418e-06:8:1.202655:26:1.197354:15:0.8994445:11:0:2.847E-09:8.586E-02:1.077E-08:1.281E-01:0:0:0:0:0:5DA6:Probed at Torino, Iref = 3.948418e-06 with trim bits 8:No loaded to any board yet
TSMC_N2WX39-14G4:TSMC_N2WX39-14G4_10_8:10:8:2:green:4:2:Torino:0:0:0:none:Torino:4.023716e-06:7:1.200568:22:1.188538:15:0.9058422:8:0:1.133E-08:9.643E-02:-1.297E-08:1.376E-01:0:0:0:0:0:5DA8:Probed at Torino, Iref = 4.023716e-06 with trim bits 7:No loaded to any board yet
TSMC_N2WX39-14G4:TSMC_N2WX39-14G4_7_8:7:8:2:green:4:2:Torino:0:0:0:none:Torino:3.98398e-06:8:1.212075:24:1.203949:24:0.8995071:9:0:3.877E-09:9.579E-02:3.000E-09:1.367E-01:0:0:0:0:0:5D78:Probed at Torino, Iref = 3.98398e-06 with trim bits 8:No loaded to any board yet
TSMC_N2WX39-14G4:TSMC_N2WX39-14G4_6_8:6:8:2:green:4:2:Torino:0:0:0:none:Torino:4.001339e-06:8:1.208876:28:1.196908:18:0.9049214:8:0:3.683E-09:9.369E-02:1.410E-08:1.351E-01:0:0:0:0:0:5D68:Probed at Torino, Iref = 4.001339e-06 with trim bits 8:No loaded to any board yet
TSMC_N2WX39-14G4:TSMC_N2WX39-14G4_5_8:5:8:1:yellow:4:1:Torino:0:0:0:none:Torino:3.998227e-06:10:1.205524:24:1.199171:20:0.8959243:7:0:1.147E-09:9.435E-02:8.300E-09:1.354E-01:0:0:0:0:0:5D58:Probed at Torino, Iref = 3.998227e-06 with trim bits 10:No loaded to any board yet
TSMC_N2WX39-14G4:TSMC_N2WX39-14G4_7_5:7:5:1:yellow:4:1:Torino:0:0:0:none:Torino:4.03587e-06:8:1.196771:24:1.197592:14:0.9015698:9:0:1.120E-08:9.246E-02:1.047E-08:1.341E-01:0:0:0:0:0:5D75:Probed at Torino, Iref = 4.03587e-06 with trim bits 8:No loaded to any board yet
TSMC_N2WX39-14G4:TSMC_N2WX39-14G4_4_8:4:8:1:yellow:4:1:Torino:0:0:0:none:Torino:3.997316e-06:9:1.211514:24:1.206316:20:0.900808:8:0:-6.230E-09:9.481E-02:2.833E-09:1.360E-01:0:0:0:0:0:5D48:Probed at Torino, Iref = 3.997316e-06 with trim bits 9:No loaded to any board yet
TSMC_N2WX39-14G4:TSMC_N2WX39-14G4_1_8:1:8:10:red:4:10:Torino:0:0:0:none:Torino:4.076674e-06:8:1.196046:15:1.203914:14:0.8982042:7:0:1.237E-08:8.615E-02:-9.500E-09:1.282E-01:0:0:0:0:0:5D18:Probed at Torino, Iref = 4.076674e-06 with trim bits 8:No loaded to any board yet
TSMC_N2WX39-14G4:TSMC_N2WX39-14G4_1_7:1:7:1:yellow:4:1:Torino:0:0:0:none:Torino:4.013881e-06:8:1.200161:25:1.21118:24:0.8982372:10:0:4.720E-09:9.232E-02:-7.967E-09:1.338E-01:0:0:0:0:0:5D17:Probed at Torino, Iref = 4.013881e-06 with trim bits 8:No loaded to any board yet
TSMC_N2WX39-14G4:TSMC_N2WX39-14G4_2_5:2:5:1:yellow:4:1:Torino:0:0:0:none:Torino:3.986007e-06:9:1.196345:19:1.190324:23:0.8999552:8:0:1.328E-08:9.898E-02:-1.943E-08:1.397E-01:0:0:0:0:0:5D25:Probed at Torino, Iref = 3.986007e-06 with trim bits 9:No loaded to any board yet
TSMC_N2WX39-14G4:TSMC_N2WX39-14G4_2_7:2:7:1:yellow:4:1:Torino:0:0:0:none:Torino:4.026665e-06:9:1.19289:19:1.200204:21:0.8996658:9:0:3.793E-09:9.399E-02:7.267E-09:1.353E-01:0:0:0:0:0:5D27:Probed at Torino, Iref = 4.026665e-06 with trim bits 9:No loaded to any board yet
TSMC_N2WX39-14G4:TSMC_N2WX39-14G4_3_7:3:7:2:green:4:2:Torino:0:0:0:none:Torino:4.001806e-06:7:1.201107:27:1.195461:19:0.901282:9:0:1.793E-08:9.520E-02:-3.933E-09:1.365E-01:0:0:0:0:0:5D37:Probed at Torino, Iref = 4.001806e-06 with trim bits 7:No loaded to any board yet
TSMC_N2WX39-14G4:TSMC_N2WX39-14G4_4_7:4:7:1:yellow:4:1:Torino:0:0:0:none:Torino:3.981902e-06:6:1.203398:23:1.204873:16:0.898264:8:0:5.737E-09:9.389E-02:-2.107E-08:1.352E-01:0:0:0:0:0:5D47:Probed at Torino, Iref = 3.981902e-06 with trim bits 6:No loaded to any board yet
TSMC_N2WX39-14G4:TSMC_N2WX39-14G4_5_7:5:7:1:yellow:4:1:Torino:0:0:0:none:Torino:4.005048e-06:8:1.204016:24:1.196945:12:0.9020339:8:0:-7.107E-09:9.470E-02:-1.293E-08:1.359E-01:0:0:0:0:0:5D57:Probed at Torino, Iref = 4.005048e-06 with trim bits 8:No loaded to any board yet
TSMC_N2WX39-14G4:TSMC_N2WX39-14G4_7_7:7:7:1:yellow:4:1:Torino:0:0:0:none:Torino:4.008689e-06:10:1.194149:27:1.195143:24:0.899523:8:0:6.793E-09:9.099E-02:-1.377E-08:1.327E-01:0:0:0:0:0:5D77:Probed at Torino, Iref = 4.008689e-06 with trim bits 10:No loaded to any board yet
TSMC_N2WX39-14G4:TSMC_N2WX39-14G4_10_7:10:7:10:red:4:10:Torino:0:0:0:none:Torino:3.943161e-06:6:1.206593:28:1.189745:15:0.8976413:9:0:2.697E-09:9.100E-02:5.600E-09:1.327E-01:0:0:0:0:0:5DA7:Probed at Torino, Iref = 3.943161e-06 with trim bits 6:No loaded to any board yet
TSMC_N2WX39-14G4:TSMC_N2WX39-14G4_9_6:9:6:1:yellow:4:1:Torino:0:0:0:none:Torino:3.957565e-06:6:1.209134:24:1.201691:22:0.9020889:8:0:2.697E-09:9.907E-02:5.967E-09:1.397E-01:0:0:0:0:0:5D96:Probed at Torino, Iref = 3.957565e-06 with trim bits 6:No loaded to any board yet
TSMC_N2WX39-14G4:TSMC_N2WX39-14G4_4_5:4:5:1:yellow:4:1:Torino:0:0:0:none:Torino:4.02576e-06:10:1.189708:23:1.20634:22:0.8992568:8:0:-8.267E-10:9.855E-02:7.267E-09:1.391E-01:0:0:0:0:0:5D45:Probed at Torino, Iref = 4.02576e-06 with trim bits 10:No loaded to any board yet
TSMC_N2WX39-14G4:TSMC_N2WX39-14G4_9_7:9:7:1:yellow:4:1:Torino:0:0:0:none:Torino:3.944884e-06:8:1.197609:24:1.204241:22:0.8984236:8:0:5.127E-09:8.964E-02:-3.900E-09:1.314E-01:0:0:0:0:0:5D97:Probed at Torino, Iref = 3.944884e-06 with trim bits 8:No loaded to any board yet
TSMC_N2WX39-14G4:TSMC_N2WX39-14G4_5_6:5:6:1:yellow:4:1:Torino:0:0:0:none:Torino:3.976473e-06:9:1.210961:24:1.19647:17:0.8975568:11:0:9.880E-09:9.335E-02:-1.197E-08:1.347E-01:0:0:0:0:0:5D56:Probed at Torino, Iref = 3.976473e-06 with trim bits 9:No loaded to any board yet
TSMC_N2WX39-14G4:TSMC_N2WX39-14G4_8_6:8:6:1:yellow:4:1:Torino:0:0:0:none:Torino:3.991011e-06:8:1.205404:20:1.202305:17:0.9013252:9:0:5.053E-09:9.650E-02:2.077E-08:1.375E-01:0:0:0:0:0:5D86:Probed at Torino, Iref = 3.991011e-06 with trim bits 8:No loaded to any board yet
TSMC_N2WX39-14G4:TSMC_N2WX39-14G4_6_6:6:6:1:yellow:4:1:Torino:0:0:0:none:Torino:4.050423e-06:9:1.195277:25:1.204931:20:0.8996928:11:0:6.567E-10:9.287E-02:-2.193E-08:1.342E-01:0:0:0:0:0:5D66:Probed at Torino, Iref = 4.050423e-06 with trim bits 9:No loaded to any board yet
TSMC_N2WX39-14G4:TSMC_N2WX39-14G4_7_6:7:6:1:yellow:4:1:Torino:0:0:0:none:Torino:3.996194e-06:10:1.202871:19:1.196282:18:0.8981366:8:0:3.843E-09:9.773E-02:3.071E-07:2.478E-01:0:0:0:0:0:5D76:Probed at Torino, Iref = 3.996194e-06 with trim bits 10:No loaded to any board yet
TSMC_N2WX39-14G4:TSMC_N2WX39-14G4_6_4:6:4:2:green:4:2:Torino:0:0:0:none:Torino:4.0191e-06:10:1.199225:21:1.20748:16:0.8979273:10:0:8.473E-09:9.292E-02:9.933E-09:1.364E-01:0:0:0:0:0:5D64:Probed at Torino, Iref = 4.0191e-06 with trim bits 10:No loaded to any board yet
TSMC_N2WX39-14G4:TSMC_N2WX39-14G4_4_6:4:6:1:yellow:4:1:Torino:0:0:0:none:Torino:3.955636e-06:8:1.198237:20:1.201236:18:0.9002609:7:0:4.347E-09:9.198E-02:-1.250E-08:1.336E-01:0:0:0:0:0:5D46:Probed at Torino, Iref = 3.955636e-06 with trim bits 8:No loaded to any board yet
TSMC_N2WX39-14G4:TSMC_N2WX39-14G4_3_6:3:6:2:green:4:2:Torino:0:0:0:none:Torino:3.952692e-06:10:1.193653:19:1.201433:17:0.8935927:7:0:-3.143E-09:9.859E-02:2.223E-08:1.390E-01:0:0:0:0:0:5D36:Probed at Torino, Iref = 3.952692e-06 with trim bits 10:No loaded to any board yet
TSMC_N2WX39-14G4:TSMC_N2WX39-14G4_1_6:1:6:2:green:4:2:Torino:0:0:0:none:Torino:3.995245e-06:8:1.202467:20:1.201936:17:0.9000323:8:0:9.600E-10:8.851E-02:-4.367E-09:1.304E-01:0:0:0:0:0:5D16:Probed at Torino, Iref = 3.995245e-06 with trim bits 8:No loaded to any board yet
TSMC_N2WX39-14G4:TSMC_N2WX39-14G4_2_6:2:6:10:red:4:10:Torino:0:0:0:none:Torino:0:0:0:0:0:0:0:0:0:0.000E+00:0.000E+00:0.000E+00:0.000E+00:0:0:0:0:0:5D26:Probed at Torino, Iref = 0 with trim bits 0:No loaded to any board yet
TSMC_N2WX39-14G4:TSMC_N2WX39-14G4_9_5:9:5:2:green:4:2:Torino:0:0:0:none:Torino:3.945413e-06:9:1.198795:28:1.19731:19:0.901957:9:0:4.097E-09:9.263E-02:-4.300E-09:1.342E-01:0:0:0:0:0:5D95:Probed at Torino, Iref = 3.945413e-06 with trim bits 9:No loaded to any board yet
TSMC_N2WX39-14G4:TSMC_N2WX39-14G4_3_5:3:5:1:yellow:4:1:Torino:0:0:0:none:Torino:3.967612e-06:10:1.202464:22:1.19745:23:0.8999026:8:0:2.046E-04:3.028E-02:2.062E-04:2.986E-02:0:0:0:0:0:5D35:Probed at Torino, Iref = 3.967612e-06 with trim bits 10:No loaded to any board yet
TSMC_N2WX39-14G4:TSMC_N2WX39-14G4_8_4:8:4:1:yellow:4:1:Torino:0:0:0:none:Torino:4.044784e-06:9:1.210461:24:1.203278:17:0.903904:8:0:1.069E-08:9.482E-02:-3.567E-09:1.361E-01:0:0:0:0:0:5D84:Probed at Torino, Iref = 4.044784e-06 with trim bits 9:No loaded to any board yet
TSMC_N2WX39-14G4:TSMC_N2WX39-14G4_5_5:5:5:1:yellow:4:1:Torino:0:0:0:none:Torino:4.044988e-06:8:1.199826:24:1.203715:19:0.9064428:8:0:5.923E-09:9.742E-02:1.077E-08:1.387E-01:0:0:0:0:0:5D55:Probed at Torino, Iref = 4.044988e-06 with trim bits 8:No loaded to any board yet
TSMC_N2WX39-14G4:TSMC_N2WX39-14G4_2_3:2:3:10:red:4:10:Torino:0:0:0:none:Torino:0:0:0:0:0:0:0:0:0:0.000E+00:0.000E+00:0.000E+00:0.000E+00:0:0:0:0:0:5D23:Probed at Torino, Iref = 0 with trim bits 0:No loaded to any board yet
TSMC_N2WX39-14G4:TSMC_N2WX39-14G4_8_5:8:5:2:green:4:2:Torino:0:0:0:none:Torino:4.051526e-06:9:1.213031:24:1.201467:20:0.9024531:10:0:1.089E-08:9.111E-02:9.733E-09:1.327E-01:0:0:0:0:0:5D85:Probed at Torino, Iref = 4.051526e-06 with trim bits 9:No loaded to any board yet
TSMC_N2WX39-14G4:TSMC_N2WX39-14G4_7_4:7:4:2:green:4:2:Torino:0:0:0:none:Torino:4.011485e-06:10:1.196617:19:1.200739:22:0.8942901:7:0:7.877E-09:9.468E-02:1.167E-08:1.356E-01:0:0:0:0:0:5D74:Probed at Torino, Iref = 4.011485e-06 with trim bits 10:No loaded to any board yet
TSMC_N2WX39-14G4:TSMC_N2WX39-14G4_10_5:10:5:10:red:4:10:Torino:0:0:0:none:Torino:3.985174e-06:11:1.202888:26:1.201106:11:0.8949448:11:0:-4.793E-09:8.527E-02:-4.200E-09:1.274E-01:0:0:0:0:0:5DA5:Probed at Torino, Iref = 3.985174e-06 with trim bits 11:No loaded to any board yet
TSMC_N2WX39-14G4:TSMC_N2WX39-14G4_4_3:4:3:2:green:4:2:Torino:0:0:0:none:Torino:3.985239e-06:12:1.192122:23:1.19962:19:0.9028229:10:0:3.250E-09:9.179E-02:-1.150E-08:1.334E-01:0:0:0:0:0:5D43:Probed at Torino, Iref = 3.985239e-06 with trim bits 12:No loaded to any board yet
TSMC_N2WX39-14G4:TSMC_N2WX39-14G4_9_4:9:4:2:green:4:2:Torino:0:0:0:none:Torino:3.95637e-06:9:1.188385:23:1.196145:16:0.9058615:8:0:2.064E-04:2.868E-02:2.080E-04:2.834E-02:0:0:0:0:0:5D94:Probed at Torino, Iref = 3.95637e-06 with trim bits 9:No loaded to any board yet
TSMC_N2WX39-14G4:TSMC_N2WX39-14G4_4_4:4:4:1:yellow:4:1:Torino:0:0:0:none:Torino:4.024102e-06:9:1.198772:23:1.196321:19:0.8992687:9:0:2.044E-04:2.894E-02:2.059E-04:2.859E-02:0:0:0:0:0:5D44:Probed at Torino, Iref = 4.024102e-06 with trim bits 9:No loaded to any board yet
TSMC_N2WX39-14G4:TSMC_N2WX39-14G4_2_4:2:4:1:yellow:4:1:Torino:0:0:0:none:Torino:3.946726e-06:8:1.199531:21:1.198713:21:0.8991528:11:0:4.527E-09:8.276E-02:3.267E-09:1.253E-01:0:0:0:0:0:5D24:Probed at Torino, Iref = 3.946726e-06 with trim bits 8:No loaded to any board yet
TSMC_N2WX39-14G4:TSMC_N2WX39-14G4_5_4:5:4:10:red:4:10:Torino:0:0:0:none:Torino:4.05839e-06:9:1.204009:24:1.199331:16:0.8450291:23:0:-1.663E-09:8.577E-02:1.000E-09:1.253E-01:0:0:0:0:0:5D54:Probed at Torino, Iref = 4.05839e-06 with trim bits 9:No loaded to any board yet
TSMC_N2WX39-14G4:TSMC_N2WX39-14G4_4_2:4:2:1:yellow:4:1:Torino:0:0:0:none:Torino:4.042919e-06:10:1.198126:17:1.205778:24:0.9008658:11:0:4.610E-09:8.598E-02:1.290E-08:1.283E-01:0:0:0:0:0:5D42:Probed at Torino, Iref = 4.042919e-06 with trim bits 10:No loaded to any board yet
TSMC_N2WX39-14G4:TSMC_N2WX39-14G4_3_3:3:3:10:red:4:10:Torino:0:0:0:none:Torino:0:0:0:0:0:0:0:0:0:0.000E+00:0.000E+00:0.000E+00:0.000E+00:0:0:0:0:0:5D33:Probed at Torino, Iref = 0 with trim bits 0:No loaded to any board yet
TSMC_N2WX39-14G4:TSMC_N2WX39-14G4_7_3:7:3:2:green:4:2:Torino:0:0:0:none:Torino:3.949401e-06:8:1.202258:23:1.205138:22:0.9004585:11:0:-2.747E-09:8.787E-02:6.333E-10:1.300E-01:0:0:0:0:0:5D73:Probed at Torino, Iref = 3.949401e-06 with trim bits 8:No loaded to any board yet
TSMC_N2WX39-14G4:TSMC_N2WX39-14G4_5_3:5:3:2:green:4:2:Torino:0:0:0:none:Torino:3.981002e-06:7:1.201961:24:1.1994:21:0.8997127:10:0:-9.360E-09:9.133E-02:-2.667E-09:1.330E-01:0:0:0:0:0:5D53:Probed at Torino, Iref = 3.981002e-06 with trim bits 7:No loaded to any board yet
TSMC_N2WX39-14G4:TSMC_N2WX39-14G4_8_3:8:3:1:yellow:4:1:Torino:0:0:0:none:Torino:4.04104e-06:8:1.200902:21:1.211645:24:0.9016609:10:0:2.103E-09:9.218E-02:3.228E-06:5.333E-01:0:0:0:0:0:5D83:Probed at Torino, Iref = 4.04104e-06 with trim bits 8:No loaded to any board yet
TSMC_N2WX39-14G4:TSMC_N2WX39-14G4_9_3:9:3:10:red:4:10:Torino:0:0:0:none:Torino:0:0:0:0:0:0:0:0:0:0.000E+00:0.000E+00:0.000E+00:0.000E+00:0:0:0:0:0:5D93:Probed at Torino, Iref = 0 with trim bits 0:No loaded to any board yet
TSMC_N2WX39-14G4:TSMC_N2WX39-14G4_8_2:8:2:1:yellow:4:1:Torino:0:0:0:none:Torino:4.035923e-06:8:1.200648:22:1.209206:28:0.8964636:13:0:-1.127E-09:8.447E-02:6.252E-06:8.155E-01:0:0:0:0:0:5D82:Probed at Torino, Iref = 4.035923e-06 with trim bits 8:No loaded to any board yet
TSMC_N2WX39-14G4:TSMC_N2WX39-14G4_7_2:7:2:10:red:4:10:Torino:0:0:0:none:Torino:3.981925e-06:9:1.19704:24:1.189937:23:0.9010994:11:0:-3.537E-09:2.469E-02:1.027E-08:1.308E-01:0:0:0:0:0:5D72:Probed at Torino, Iref = 3.981925e-06 with trim bits 9:No loaded to any board yet
TSMC_N2WX39-14G4:TSMC_N2WX39-14G4_6_2:6:2:2:green:4:2:Torino:0:0:0:none:Torino:4.035388e-06:10:1.196121:23:1.204164:20:0.9002624:11:0:7.780E-09:9.119E-02:-8.033E-09:1.328E-01:0:0:0:0:0:5D62:Probed at Torino, Iref = 4.035388e-06 with trim bits 10:No loaded to any board yet
TSMC_N2WX39-14G4:TSMC_N2WX39-14G4_6_1:6:1:1:yellow:4:1:Torino:0:0:0:none:Torino:4.026412e-06:8:1.175749:31:1.204437:22:0.8994115:10:0:1.515E-08:8.785E-02:-2.400E-09:1.300E-01:0:0:0:0:0:5D61:Probed at Torino, Iref = 4.026412e-06 with trim bits 8:No loaded to any board yet
TSMC_N2WX39-14G4:TSMC_N2WX39-14G4_8_7:8:7:1:yellow:4:1:Torino:0:0:0:none:Torino:4.035979e-06:7:1.190933:23:1.196486:22:0.9028785:8:0:4.377E-09:8.876E-02:-9.133E-09:1.310E-01:0:0:0:0:0:5D87:Probed at Torino, Iref = 4.035979e-06 with trim bits 7:No loaded to any board yet
TSMC_N2WX39-14G4:TSMC_N2WX39-14G4_5_1:5:1:1:yellow:4:1:Torino:0:0:0:none:Torino:4.016448e-06:8:1.20756:20:1.196292:21:0.8958909:7:0:-4.580E-08:1.167E-01:5.333E-10:1.542E-01:0:0:0:0:0:5D51:Probed at Torino, Iref = 4.016448e-06 with trim bits 8:No loaded to any board yet
TSMC_N2WX39-14G4:TSMC_N2WX39-14G4_5_2:5:2:2:green:4:2:Torino:0:0:0:none:Torino:3.955307e-06:6:1.202138:25:1.194026:25:0.8960164:11:0:1.125E-08:8.377E-02:-5.467E-09:1.259E-01:0:0:0:0:0:5D52:Probed at Torino, Iref = 3.955307e-06 with trim bits 6:No loaded to any board yet
TSMC_N2WX39-14G4:TSMC_N2WX39-14G4_6_3:6:3:1:yellow:4:1:Torino:0:0:0:none:Torino:3.946077e-06:10:1.16834:8:1.205225:12:0.8526616:6:0:1.530E-08:8.626E-02:4.733E-09:1.262E-01:0:0:0:0:0:5D63:Probed at Torino, Iref = 3.946077e-06 with trim bits 10:No loaded to any board yet
TSMC_N2WX39-14G4:TSMC_N2WX39-14G4_3_4:3:4:1:yellow:4:1:Torino:0:0:0:none:Torino:4.023478e-06:7:1.196364:22:1.190213:23:0.8995703:10:0:-3.133E-10:8.370E-02:1.350E-08:1.262E-01:0:0:0:0:0:5D34:Probed at Torino, Iref = 4.023478e-06 with trim bits 7:No loaded to any board yet
TSMC_N2WX39-14G4:TSMC_N2WX39-14G4_8_9:8:9:2:green:4:2:Torino:0:0:0:none:Torino:4.02677e-06:10:1.195163:25:1.194915:23:0.9022021:10:0:-2.483E-09:8.092E-02:9.833E-09:1.237E-01:0:0:0:0:0:5D89:Probed at Torino, Iref = 4.02677e-06 with trim bits 10:No loaded to any board yet
